X	Y
0.035	0.095
0.035	1.155
0.035	2.295
0.035	3.915
0.035	4.515
0.035	6.155
0.035	6.715
0.055	3.415
0.055	5.155
0.055	5.635
0.095	0.615
0.095	1.655
0.095	2.795
0.535	4.575
0.555	5.695
0.575	2.255
0.595	2.875
0.615	1.175
0.615	1.775
0.635	3.995
0.655	0.035
0.655	0.635
0.655	3.375
0.655	5.075
0.655	6.715
0.675	6.215
1.095	5.135
1.115	1.215
1.135	3.395
1.175	0.035
1.175	5.615
1.195	1.775
1.195	6.215
1.215	2.235
1.215	2.815
1.235	0.555
1.235	3.895
1.235	4.495
1.235	6.815
1.655	1.155
1.655	4.495
1.675	5.115
1.695	2.275
1.715	0.655
1.735	1.655
1.735	3.915
1.755	3.395
1.755	6.255
1.775	2.835
1.775	5.675
1.775	6.715
1.795	0.055
2.215	4.495
2.235	1.095
2.235	2.815
2.255	5.135
2.275	3.955
2.275	5.575
2.275	6.195
2.295	0.035
2.295	2.275
2.295	3.455
2.295	6.735
2.335	0.635
2.355	1.735
2.775	0.115
2.795	1.655
2.795	5.015
2.795	6.215
2.815	0.675
2.815	4.515
2.815	5.575
2.835	1.135
2.835	2.855
2.855	2.215
2.855	3.915
2.895	6.755
2.915	3.395
3.395	0.655
3.395	1.095
3.395	2.875
3.395	5.075
3.395	6.255
3.415	1.715
3.415	3.435
3.415	3.915
3.435	4.515
3.435	5.615
3.455	0.035
3.475	2.335
3.475	6.715
3.915	1.195
3.915	3.375
3.935	2.275
3.935	6.735
3.955	2.915
3.975	5.695
3.975	6.235
3.995	3.915
3.995	4.575
4.015	0.055
4.015	1.695
4.035	0.635
4.035	5.135
4.455	3.455
4.475	0.535
4.475	2.855
4.475	4.555
4.495	3.915
4.495	6.715
4.515	1.155
4.515	1.775
4.535	0.095
4.555	2.315
4.555	5.675
4.575	5.095
4.595	6.135
5.035	4.535
5.035	5.135
5.055	1.155
5.055	2.855
5.055	4.015
5.075	6.775
5.095	0.115
5.095	1.735
5.095	2.275
5.095	5.655
5.115	0.555
5.135	6.215
5.155	3.415
5.575	0.095
5.595	3.915
5.615	2.215
5.615	2.795
5.615	6.175
5.635	5.115
5.655	3.395
5.655	4.575
5.655	5.595
5.655	6.775
5.675	0.635
5.675	1.235
5.715	1.695
6.155	6.835
6.175	2.215
6.195	1.195
6.195	5.075
6.215	0.035
6.215	4.575
6.235	1.715
6.235	2.875
6.235	5.715
6.235	6.235
6.255	0.595
6.255	3.375
6.255	3.995
6.715	2.235
6.715	2.895
6.735	1.155
6.755	3.395
6.755	4.475
6.755	5.615
6.755	6.175
6.775	0.035
6.775	1.675
6.775	3.955
6.795	0.555
6.815	5.135
6.835	6.715
