X	Y
0.035	0.035
0.035	0.655
0.035	1.235
0.035	1.695
0.035	2.315
0.035	3.935
0.035	4.535
0.035	6.215
0.035	6.735
0.035	7.315
0.035	7.815
0.055	3.455
0.055	5.595
0.055	8.395
0.075	2.835
0.075	9.055
0.115	5.015
0.555	3.375
0.575	0.675
0.575	7.335
0.595	1.135
0.595	4.595
0.595	6.135
0.595	9.075
0.615	1.695
0.615	5.135
0.635	0.035
0.635	3.935
0.635	5.695
0.635	6.775
0.635	7.855
0.655	2.235
0.655	2.895
0.675	8.475
1.095	0.035
1.095	1.675
1.095	4.495
1.115	0.615
1.115	6.735
1.135	1.095
1.135	2.295
1.135	2.855
1.135	8.955
1.155	5.695
1.155	6.175
1.155	7.935
1.175	3.455
1.195	8.435
1.215	3.915
1.235	5.155
1.235	7.295
1.655	6.275
1.655	6.755
1.675	8.415
1.695	2.915
1.695	7.915
1.715	0.575
1.715	1.735
1.715	2.315
1.715	5.595
1.715	7.355
1.715	8.975
1.775	0.035
1.775	1.235
1.775	3.395
1.775	4.495
1.795	4.015
1.795	5.035
2.235	2.855
2.235	5.115
2.235	6.735
2.235	7.355
2.235	7.935
2.255	0.035
2.255	3.935
2.255	9.035
2.275	1.135
2.275	2.355
2.275	6.135
2.295	4.515
2.295	5.595
2.315	0.635
2.335	1.775
2.335	3.475
2.335	8.475
2.795	4.515
2.795	5.115
2.795	5.635
2.795	7.295
2.795	8.475
2.815	0.095
2.815	8.995
2.855	1.675
2.875	2.275
2.875	2.835
2.875	6.755
2.875	7.915
2.895	0.535
2.895	1.175
2.895	6.195
2.915	3.455
2.915	3.995
3.335	2.815
3.335	3.395
3.335	6.755
3.335	8.375
3.355	2.355
3.375	5.095
3.375	5.695
3.395	4.455
3.395	6.155
3.395	7.255
3.395	9.075
3.415	0.115
3.415	0.575
3.415	1.175
3.415	1.715
3.435	3.955
3.455	7.935
3.895	2.315
3.915	7.935
3.935	1.155
3.955	1.755
3.955	5.015
3.955	5.595
3.955	6.715
3.975	2.795
3.975	4.595
3.975	6.215
3.975	7.335
3.975	8.415
3.975	8.975
3.995	0.035
3.995	0.535
3.995	3.975
4.015	3.415
4.455	8.455
4.475	1.755
4.475	5.015
4.495	0.555
4.495	2.315
4.495	3.455
4.495	3.915
4.495	6.235
4.495	7.375
4.515	5.675
4.515	6.775
4.515	9.075
4.575	0.055
4.575	1.215
4.575	2.815
4.575	7.935
4.595	4.515
5.035	0.035
5.035	5.575
5.035	6.775
5.055	2.255
5.055	4.595
5.075	1.095
5.075	2.895
5.075	5.135
5.075	7.275
5.075	8.975
5.095	3.895
5.115	1.755
5.115	6.215
5.115	8.375
5.135	0.595
5.135	7.875
5.155	3.355
5.575	4.035
5.595	4.535
5.595	5.635
5.595	6.795
5.595	8.955
5.615	1.695
5.615	5.055
5.615	6.215
5.635	7.875
5.635	8.395
5.655	0.575
5.655	1.135
5.655	3.355
5.695	2.275
5.715	0.035
5.715	2.835
5.715	7.355
6.135	1.675
6.155	7.335
6.175	0.035
6.175	2.215
6.175	2.795
6.175	3.915
6.175	4.475
6.175	5.595
6.175	6.215
6.195	5.015
6.195	8.975
6.215	3.415
6.215	7.895
6.235	0.615
6.255	6.775
6.255	8.435
6.275	1.115
6.695	1.715
6.715	0.615
6.715	2.335
6.715	6.255
6.735	5.695
6.755	0.095
6.755	2.795
6.755	3.455
6.755	4.495
6.755	6.735
6.755	7.315
6.775	1.195
6.815	4.035
6.815	5.135
6.815	7.875
6.815	8.415
6.815	9.015
7.255	0.115
7.255	6.715
7.255	7.835
7.275	1.735
7.275	5.095
7.295	3.455
7.295	6.255
7.315	0.635
7.315	2.795
7.315	8.435
7.315	8.995
7.335	2.235
7.355	1.215
7.355	5.575
7.375	3.915
7.375	4.595
7.395	7.315
7.815	8.435
7.835	0.635
7.835	1.655
7.835	5.035
7.835	8.995
7.855	1.155
7.855	3.455
7.875	0.095
7.875	2.895
7.875	3.995
7.875	7.875
7.895	4.515
7.895	6.215
7.895	7.275
7.915	6.735
7.935	2.295
7.935	5.635
8.375	5.715
8.375	8.495
8.395	1.195
8.395	2.275
8.395	4.495
8.395	5.115
8.415	0.035
8.415	2.795
8.415	7.355
8.415	7.935
8.435	0.575
8.455	6.255
8.475	1.695
8.475	8.975
8.495	3.355
8.495	3.935
8.495	6.735
8.935	1.195
8.935	8.995
8.955	2.795
8.955	5.075
8.955	5.595
8.955	8.495
8.975	2.275
8.975	3.335
8.975	3.975
8.975	6.735
8.995	1.715
8.995	6.255
9.015	0.595
9.015	4.515
9.035	7.915
9.055	0.095
9.055	7.275
