(I) commands = ./bin/mask_opt -param_json ./test/param_sraf_ispd15.json
(I) reading input parameter json ./test/param_sraf_ispd15.json
(I) reading input gdsii ./gds/train/MB_SRAF_OUT_Clip_15.gds
(I) initialize opt region takes 0.000000 seconds CPU, 0.000003 seconds real
(I) initialize image bbox takes 0.000000 seconds CPU, 0.000002 seconds real
(I) initialize pixel image
(I) Image grid size (1360 x 1360)
(I) initialize pixel image takes 0.000000 seconds CPU, 0.000315 seconds real
(I) initialize valid SRAF region
	fill in SRAF region
	unfill OPC region
(I) initialize valid SRAF region takes 0.000000 seconds CPU, 0.000554 seconds real
(I) initialize golden SRAF data with area threshold: 400
(I) initialize training label data from 0 to 3248
(I) initialize golden SRAF data takes 0.000000 seconds CPU, 0.000196 seconds real
(I) feature extraction for training data
(I) 	feature extaction in mode CCAS: minRadius 100, rinSpace: 15, rinNum 33, circleSR: 32
(I) feature extraction done with size: 3248
(I) initialize feature vectors takes 0.460000 seconds CPU, 0.143221 seconds real
(I) reading input gdsii ./gds/train/out.testrandomclip_1000_1000_560_70.gds
(I) initialize opt region takes 0.000000 seconds CPU, 0.000003 seconds real
(I) initialize image bbox takes 0.000000 seconds CPU, 0.000002 seconds real
(I) initialize pixel image
(I) Image grid size (1720 x 1681)
(I) initialize pixel image takes 0.000000 seconds CPU, 0.000284 seconds real
(I) initialize valid SRAF region
	fill in SRAF region
	unfill OPC region
(I) initialize valid SRAF region takes 0.010000 seconds CPU, 0.000608 seconds real
(I) initialize golden SRAF data with area threshold: 400
(I) initialize training label data from 3248 to 24298
(I) initialize golden SRAF data takes 0.010000 seconds CPU, 0.000952 seconds real
(I) feature extraction for training data
(I) 	feature extaction in mode CCAS: minRadius 100, rinSpace: 15, rinNum 33, circleSR: 32
(I) feature extraction done with size: 24298
(I) initialize feature vectors takes 4.240000 seconds CPU, 0.684887 seconds real
(I) Learning model with support vector machine
	 model construction from model file
(I) model prediction for training data in progress
(I) model prediction takes 7.830000 seconds CPU, 1.276178 seconds real
(I) prediction error analysis for training data	rmse: 0.2290, overall accuracy: 0.9476, True Positive Rate (TPR): 0.2337, False Negative Rate (FNR): 0.7663, False Positive Rate (FPR): 0.0068, True Negative Rate: 0.9932
(I) error analysis takes 0.010000 seconds CPU, 0.002090 seconds real
(I) reading input gdsii ./gds/predict/out.testrandomclip_10000_10000_560_70.gds
(I) initialize opt region takes 0.000000 seconds CPU, 0.000026 seconds real
(I) initialize image bbox takes 0.000000 seconds CPU, 0.000004 seconds real
(I) initialize pixel image
(I) Image grid size (10680 x 10680)
(I) initialize pixel image takes 0.030000 seconds CPU, 0.012993 seconds real
(I) initialize valid SRAF region
	fill in SRAF region
	unfill OPC region
(I) initialize valid SRAF region takes 0.030000 seconds CPU, 0.028266 seconds real
(I) initialize golden SRAF data with area threshold: 400
(I) initialize testing label data from 0 to 873991
(I) initialize golden SRAF data takes 0.030000 seconds CPU, 0.024062 seconds real
(I) feature extraction for testing data
(I) 	feature extaction in mode CCAS: minRadius 100, rinSpace: 15, rinNum 33, circleSR: 32
(I) feature extraction done with size: 873991
(I) initialize feature vectors takes 235.530000 seconds CPU, 31.757328 seconds real
(I) model prediction for testing data in progress
(I) model prediction takes 386.160000 seconds CPU, 50.755416 seconds real
(I) prediction error analysis for testing data	rmse: 0.3562, overall accuracy: 0.8731, True Positive Rate (TPR): 0.1610, False Negative Rate (FNR): 0.8390, False Positive Rate (FPR): 0.0585, True Negative Rate: 0.9415
(I) error analysis takes 0.070000 seconds CPU, 0.072759 seconds real
(I) write output gdsii ./result/out.testrandomclip_10000_10000_560_70_sraf.gds
(I) generate SRAF based on prediction
(I) write image bounding box
(I) testing SRAF generation takes 622.730000 seconds CPU, 83.580420 seconds real

real	1m25.834s
user	10m27.107s
sys	0m8.329s
