2.518499999999999905e-03
2.210499999999999791e-03
2.467500000000000075e-03
1.958500000000000171e-03
1.647999999999999942e-03
1.926999999999999894e-03
1.624000000000000010e-03
1.345499999999999908e-03
1.627500000000000040e-03
1.894999999999999983e-03
1.612500000000000001e-03
1.892000000000000019e-03
2.874499999999999885e-03
2.468000000000000142e-03
2.161499999999999793e-03
2.434500000000000032e-03
2.465499999999999810e-03
2.507999999999999813e-03
2.557499999999999878e-03
2.264500000000000020e-03
2.267499999999999984e-03
2.523500000000000135e-03
1.948000000000000079e-03
1.962499999999999835e-03
1.955999999999999839e-03
1.981500000000000188e-03
1.922000000000000097e-03
1.660000000000000017e-03
1.954000000000000008e-03
1.922000000000000097e-03
1.629999999999999939e-03
1.949999999999999910e-03
2.501000000000000185e-03
2.236999999999999839e-03
2.272500000000000214e-03
2.555500000000000046e-03
2.834999999999999847e-03
2.806499999999999967e-03
2.848999999999999970e-03
2.781500000000000118e-03
2.874499999999999885e-03
2.840000000000000076e-03
2.863999999999999792e-03
2.800500000000000038e-03
2.891499999999999973e-03
2.713000000000000134e-03
2.916000000000000189e-03
2.837000000000000112e-03
2.877499999999999850e-03
2.889000000000000075e-03
2.985499999999999873e-03
2.809999999999999998e-03
2.906499999999999796e-03
2.762500000000000198e-03
2.544499999999999887e-03
2.652499999999999910e-03
2.798000000000000140e-03
2.565000000000000006e-03
2.618000000000000101e-03
2.846000000000000005e-03
2.787500000000000047e-03
2.875500000000000018e-03
2.838999999999999944e-03
2.834000000000000147e-03
2.784000000000000016e-03
2.791500000000000144e-03
2.835499999999999913e-03
2.844000000000000174e-03
2.761500000000000066e-03
2.604500000000000044e-03
2.851499999999999868e-03
2.791000000000000078e-03
2.584499999999999992e-03
2.896000000000000137e-03
2.884999999999999978e-03
2.870000000000000155e-03
2.785000000000000149e-03
2.740999999999999947e-03
2.853500000000000134e-03
2.825499999999999887e-03
2.864999999999999925e-03
2.863999999999999792e-03
2.909999999999999826e-03
2.812999999999999962e-03
2.758500000000000101e-03
2.829499999999999984e-03
2.919499999999999786e-03
2.479499999999999933e-03
2.779999999999999919e-03
2.893999999999999871e-03
2.892000000000000039e-03
2.820000000000000024e-03
2.985999999999999939e-03
2.846000000000000005e-03
2.755000000000000070e-03
2.896000000000000137e-03
2.721499999999999961e-03
2.833000000000000015e-03
2.619999999999999933e-03
2.864499999999999859e-03
2.786499999999999914e-03
2.751500000000000039e-03
2.884499999999999911e-03
2.919999999999999853e-03
2.818999999999999891e-03
2.851499999999999868e-03
2.876500000000000151e-03
2.837500000000000178e-03
2.736000000000000151e-03
2.867499999999999823e-03
2.857999999999999863e-03
2.877999999999999916e-03
2.850000000000000103e-03
2.547999999999999918e-03
2.840000000000000076e-03
2.608500000000000141e-03
2.717499999999999864e-03
2.857999999999999863e-03
2.837000000000000112e-03
2.883999999999999845e-03
2.812499999999999896e-03
2.573999999999999899e-03
2.542500000000000055e-03
2.704999999999999939e-03
2.787500000000000047e-03
2.566999999999999837e-03
2.674999999999999861e-03
2.585000000000000058e-03
2.729500000000000155e-03
2.776499999999999888e-03
2.777500000000000021e-03
2.804500000000000135e-03
2.577499999999999930e-03
2.905000000000000030e-03
2.918000000000000021e-03
2.980000000000000010e-03
2.837500000000000178e-03
2.928500000000000113e-03
2.813500000000000029e-03
2.887499999999999876e-03
2.750999999999999973e-03
2.792999999999999910e-03
2.873500000000000186e-03
2.773499999999999924e-03
2.872500000000000053e-03
2.716999999999999797e-03
2.557499999999999878e-03
2.713999999999999833e-03
2.832499999999999948e-03
2.861999999999999961e-03
2.805499999999999834e-03
2.863000000000000093e-03
2.827500000000000152e-03
2.883000000000000146e-03
2.910999999999999959e-03
2.784000000000000016e-03
2.749000000000000141e-03
2.867499999999999823e-03
2.807000000000000033e-03
2.900499999999999867e-03
2.858999999999999996e-03
2.820500000000000090e-03
2.841499999999999842e-03
2.905500000000000096e-03
2.920999999999999985e-03
2.720000000000000195e-03
2.863999999999999792e-03
2.866500000000000124e-03
2.890999999999999907e-03
2.903999999999999897e-03
2.637500000000000087e-03
2.851499999999999868e-03
2.856000000000000032e-03
2.783499999999999950e-03
2.811000000000000131e-03
2.789999999999999945e-03
2.651000000000000145e-03
2.812499999999999896e-03
2.874499999999999885e-03
2.758000000000000035e-03
2.884999999999999978e-03
2.893000000000000172e-03
2.834500000000000214e-03
2.746499999999999810e-03
2.892000000000000039e-03
2.833000000000000015e-03
2.773999999999999990e-03
2.760999999999999999e-03
2.560999999999999908e-03
2.591500000000000054e-03
2.854000000000000200e-03
2.686000000000000019e-03
2.809499999999999931e-03
2.794000000000000043e-03
2.656500000000000007e-03
2.681999999999999922e-03
2.805000000000000202e-03
2.942999999999999870e-03
2.522500000000000003e-03
2.772000000000000158e-03
2.897499999999999902e-03
2.797000000000000007e-03
2.863999999999999792e-03
2.804000000000000069e-03
2.722000000000000027e-03
2.795999999999999874e-03
2.909999999999999826e-03
2.783499999999999950e-03
2.851499999999999868e-03
2.605000000000000111e-03
2.760499999999999933e-03
2.569999999999999802e-03
2.818999999999999891e-03
2.863999999999999792e-03
2.884999999999999978e-03
2.792999999999999910e-03
2.842499999999999975e-03
2.916499999999999822e-03
2.785500000000000215e-03
2.575000000000000032e-03
2.650000000000000012e-03
2.717499999999999864e-03
2.756000000000000203e-03
2.895000000000000004e-03
2.786999999999999981e-03
2.780499999999999985e-03
2.808499999999999799e-03
2.786999999999999981e-03
2.769999999999999893e-03
2.858999999999999996e-03
2.791500000000000144e-03
2.727499999999999890e-03
2.805999999999999901e-03
2.834500000000000214e-03
2.831000000000000183e-03
2.665999999999999967e-03
2.767499999999999995e-03
2.892000000000000039e-03
2.814500000000000161e-03
2.870999999999999854e-03
2.758000000000000035e-03
2.820000000000000024e-03
2.857000000000000164e-03
2.857499999999999797e-03
2.767499999999999995e-03
2.853000000000000067e-03
2.782000000000000185e-03
2.597499999999999983e-03
2.550000000000000183e-03
2.775000000000000123e-03
2.887499999999999876e-03
2.858499999999999930e-03
2.857999999999999863e-03
2.815999999999999927e-03
2.876999999999999783e-03
2.713000000000000134e-03
2.831499999999999816e-03
2.627500000000000061e-03
2.786499999999999914e-03
2.769000000000000194e-03
2.792000000000000211e-03
2.766999999999999928e-03
2.537999999999999892e-03
2.935500000000000175e-03
2.770499999999999959e-03
2.784500000000000083e-03
2.805499999999999834e-03
2.803500000000000002e-03
2.739500000000000181e-03
2.555500000000000046e-03
2.752000000000000106e-03
2.926499999999999848e-03
2.575000000000000032e-03
2.841999999999999908e-03
3.000500000000000129e-03
2.880999999999999880e-03
2.306499999999999957e-03
2.795999999999999874e-03
2.811000000000000131e-03
2.722000000000000027e-03
2.782000000000000185e-03
2.551499999999999949e-03
2.769999999999999893e-03
2.710000000000000169e-03
2.869000000000000022e-03
2.647000000000000047e-03
2.870499999999999788e-03
2.743999999999999911e-03
2.566500000000000205e-03
2.781500000000000118e-03
2.819499999999999958e-03
2.683500000000000121e-03
2.808000000000000166e-03
2.883000000000000146e-03
2.642499999999999884e-03
2.871499999999999921e-03
2.725500000000000058e-03
2.958500000000000192e-03
2.854000000000000200e-03
2.716999999999999797e-03
2.810500000000000064e-03
2.846000000000000005e-03
2.841000000000000209e-03
2.854000000000000200e-03
2.615999999999999836e-03
2.781000000000000052e-03
2.577999999999999996e-03
2.797500000000000073e-03
2.775999999999999822e-03
2.714499999999999899e-03
2.748500000000000075e-03
2.878499999999999982e-03
2.578500000000000063e-03
2.733000000000000186e-03
2.932000000000000144e-03
2.887999999999999942e-03
2.863500000000000160e-03
2.781500000000000118e-03
2.798500000000000206e-03
2.848499999999999904e-03
2.690999999999999816e-03
2.745000000000000044e-03
2.618999999999999800e-03
2.756499999999999836e-03
2.716000000000000098e-03
2.873000000000000120e-03
2.761500000000000066e-03
2.750999999999999973e-03
2.830500000000000117e-03
2.570999999999999935e-03
2.779999999999999919e-03
2.743000000000000212e-03
2.818999999999999891e-03
2.837500000000000178e-03
2.775500000000000189e-03
2.773499999999999924e-03
2.907499999999999928e-03
2.814999999999999794e-03
2.860999999999999828e-03
2.863000000000000093e-03
2.856500000000000098e-03
2.719500000000000129e-03
2.805000000000000202e-03
2.707000000000000205e-03
2.837500000000000178e-03
2.817000000000000060e-03
2.923499999999999883e-03
2.876999999999999783e-03
2.714999999999999965e-03
2.818000000000000192e-03
2.880999999999999880e-03
2.830500000000000117e-03
2.800500000000000038e-03
2.826500000000000019e-03
2.752000000000000106e-03
2.871499999999999921e-03
2.827999999999999785e-03
2.816499999999999993e-03
2.764500000000000030e-03
2.854999999999999899e-03
2.886000000000000110e-03
2.741500000000000013e-03
2.863000000000000093e-03
2.827999999999999785e-03
2.927499999999999981e-03
2.867999999999999890e-03
2.844999999999999873e-03
2.820500000000000090e-03
2.531999999999999963e-03
2.806499999999999967e-03
2.824000000000000121e-03
2.635000000000000189e-03
2.794500000000000109e-03
2.716500000000000165e-03
2.844999999999999873e-03
2.798999999999999839e-03
2.784500000000000083e-03
2.815999999999999927e-03
2.833500000000000081e-03
2.802499999999999870e-03
2.865499999999999992e-03
2.765999999999999796e-03
2.885500000000000044e-03
2.869000000000000022e-03
2.779999999999999919e-03
2.825499999999999887e-03
3.008499999999999890e-03
2.805000000000000202e-03
2.831499999999999816e-03
2.806499999999999967e-03
2.668999999999999932e-03
2.748000000000000009e-03
2.654500000000000175e-03
2.578500000000000063e-03
2.543999999999999821e-03
2.840000000000000076e-03
2.886000000000000110e-03
2.867499999999999823e-03
2.792999999999999910e-03
2.743000000000000212e-03
2.843500000000000107e-03
2.831000000000000183e-03
2.815499999999999860e-03
2.683000000000000055e-03
2.900999999999999933e-03
2.821499999999999789e-03
2.873500000000000186e-03
2.837999999999999811e-03
2.871499999999999921e-03
2.916999999999999888e-03
2.850500000000000169e-03
2.823500000000000055e-03
2.909500000000000194e-03
2.860999999999999828e-03
2.769499999999999826e-03
2.801999999999999803e-03
2.846500000000000072e-03
2.861999999999999961e-03
2.810500000000000064e-03
2.599499999999999814e-03
2.907999999999999995e-03
2.847500000000000205e-03
2.886500000000000177e-03
2.743499999999999845e-03
2.864499999999999859e-03
2.878499999999999982e-03
2.870999999999999854e-03
2.504999999999999848e-03
2.818499999999999825e-03
2.794500000000000109e-03
2.820000000000000024e-03
2.550000000000000183e-03
2.909000000000000127e-03
2.816499999999999993e-03
2.927499999999999981e-03
2.805999999999999901e-03
2.842499999999999975e-03
2.936499999999999874e-03
2.646499999999999981e-03
2.308000000000000156e-03
2.707499999999999837e-03
2.883000000000000146e-03
2.843000000000000041e-03
2.805499999999999834e-03
2.832499999999999948e-03
2.772499999999999791e-03
2.804000000000000069e-03
2.850500000000000169e-03
2.664000000000000135e-03
2.609499999999999841e-03
2.783499999999999950e-03
2.838999999999999944e-03
2.602000000000000146e-03
2.726500000000000191e-03
2.817000000000000060e-03
2.847500000000000205e-03
2.954500000000000095e-03
2.775000000000000123e-03
2.932500000000000211e-03
2.896000000000000137e-03
2.807500000000000100e-03
2.771500000000000092e-03
2.602999999999999845e-03
2.848999999999999970e-03
2.823500000000000055e-03
2.736999999999999850e-03
2.546500000000000152e-03
2.699000000000000010e-03
2.556999999999999811e-03
2.879000000000000049e-03
2.859500000000000063e-03
2.919999999999999853e-03
2.846500000000000072e-03
2.846500000000000072e-03
2.849500000000000036e-03
2.786999999999999981e-03
2.751500000000000039e-03
2.851499999999999868e-03
2.835499999999999913e-03
2.814000000000000095e-03
2.834999999999999847e-03
2.827999999999999785e-03
2.944500000000000069e-03
2.915000000000000056e-03
2.927499999999999981e-03
2.825999999999999953e-03
2.805999999999999901e-03
2.824000000000000121e-03
2.566999999999999837e-03
2.800500000000000038e-03
2.704499999999999873e-03
2.923499999999999883e-03
2.582999999999999793e-03
2.895000000000000004e-03
2.798999999999999839e-03
2.880499999999999814e-03
2.492499999999999924e-03
2.790500000000000012e-03
2.865499999999999992e-03
2.641999999999999817e-03
2.733000000000000186e-03
2.795499999999999808e-03
2.886000000000000110e-03
2.780499999999999985e-03
2.379000000000000038e-03
2.866000000000000058e-03
2.793499999999999976e-03
2.709000000000000036e-03
2.594500000000000018e-03
2.814999999999999794e-03
2.658999999999999905e-03
2.768000000000000061e-03
2.827000000000000086e-03
2.736000000000000151e-03
2.526000000000000034e-03
2.876500000000000151e-03
2.780499999999999985e-03
2.784500000000000083e-03
2.779999999999999919e-03
2.771000000000000026e-03
2.844999999999999873e-03
2.808999999999999865e-03
2.582000000000000094e-03
2.847000000000000138e-03
2.858999999999999996e-03
2.844000000000000174e-03
2.815499999999999860e-03
2.928500000000000113e-03
2.879500000000000115e-03
2.804500000000000135e-03
2.748000000000000009e-03
2.720999999999999894e-03
2.651500000000000211e-03
2.611000000000000040e-03
2.516000000000000007e-03
2.848999999999999970e-03
2.958000000000000126e-03
2.939499999999999839e-03
2.595500000000000151e-03
2.922000000000000118e-03
2.815499999999999860e-03
2.825499999999999887e-03
2.511999999999999910e-03
2.738500000000000049e-03
2.743499999999999845e-03
2.773999999999999990e-03
2.771500000000000092e-03
2.768000000000000061e-03
2.822999999999999989e-03
2.796499999999999941e-03
2.625499999999999796e-03
2.909500000000000194e-03
2.867999999999999890e-03
2.919000000000000154e-03
2.780499999999999985e-03
2.808499999999999799e-03
2.876500000000000151e-03
2.931500000000000078e-03
2.886500000000000177e-03
2.860999999999999828e-03
2.899999999999999800e-03
2.834000000000000147e-03
2.879000000000000049e-03
2.850999999999999802e-03
2.836500000000000046e-03
2.834000000000000147e-03
2.778999999999999786e-03
2.809499999999999931e-03
2.883500000000000212e-03
2.840000000000000076e-03
2.833000000000000015e-03
2.501499999999999817e-03
2.868499999999999956e-03
2.543999999999999821e-03
2.854499999999999833e-03
2.846000000000000005e-03
2.788000000000000114e-03
2.893499999999999805e-03
2.817500000000000126e-03
2.833500000000000081e-03
2.600499999999999947e-03
2.857999999999999863e-03
2.828999999999999918e-03
2.666500000000000033e-03
2.740499999999999881e-03
2.893999999999999871e-03
2.670500000000000131e-03
2.834999999999999847e-03
2.844999999999999873e-03
2.846000000000000005e-03
2.477000000000000035e-03
2.887999999999999942e-03
2.858999999999999996e-03
2.779499999999999853e-03
2.832499999999999948e-03
2.805999999999999901e-03
2.714499999999999899e-03
2.867499999999999823e-03
2.885500000000000044e-03
2.779999999999999919e-03
2.655499999999999874e-03
2.815499999999999860e-03
2.842499999999999975e-03
2.746499999999999810e-03
2.838499999999999877e-03
2.728500000000000023e-03
2.870499999999999788e-03
2.561499999999999975e-03
2.579999999999999828e-03
2.833000000000000015e-03
2.619999999999999933e-03
2.788000000000000114e-03
2.779499999999999853e-03
2.544499999999999887e-03
2.899500000000000167e-03
2.886500000000000177e-03
2.744499999999999978e-03
2.771000000000000026e-03
2.850999999999999802e-03
2.817500000000000126e-03
2.897499999999999902e-03
2.642499999999999884e-03
2.749000000000000141e-03
2.777500000000000021e-03
2.952999999999999896e-03
2.873999999999999819e-03
2.652499999999999910e-03
2.709000000000000036e-03
2.716000000000000098e-03
2.818999999999999891e-03
2.867000000000000191e-03
2.658999999999999905e-03
2.847999999999999837e-03
2.870499999999999788e-03
2.593499999999999885e-03
2.593999999999999952e-03
2.828499999999999851e-03
2.830000000000000050e-03
2.834999999999999847e-03
2.660000000000000038e-03
2.809499999999999931e-03
2.820500000000000090e-03
2.861499999999999894e-03
2.663000000000000003e-03
2.807500000000000100e-03
2.849500000000000036e-03
2.825999999999999953e-03
2.776499999999999888e-03
2.874999999999999951e-03
2.792999999999999910e-03
2.542500000000000055e-03
2.739999999999999814e-03
2.826500000000000019e-03
2.745500000000000110e-03
2.860999999999999828e-03
2.781500000000000118e-03
2.880999999999999880e-03
2.769999999999999893e-03
2.827500000000000152e-03
2.821999999999999856e-03
2.706500000000000138e-03
2.746000000000000177e-03
2.757499999999999968e-03
2.733499999999999819e-03
2.853000000000000067e-03
2.862500000000000027e-03
2.704499999999999873e-03
2.756000000000000203e-03
2.598500000000000115e-03
2.808499999999999799e-03
2.553500000000000214e-03
2.773499999999999924e-03
2.808499999999999799e-03
2.805000000000000202e-03
2.813500000000000029e-03
2.877999999999999916e-03
2.863000000000000093e-03
2.771000000000000026e-03
2.860999999999999828e-03
2.540000000000000157e-03
2.840000000000000076e-03
2.895500000000000070e-03
2.773499999999999924e-03
2.822499999999999922e-03
2.811500000000000197e-03
2.822999999999999989e-03
2.877499999999999850e-03
2.841999999999999908e-03
2.945999999999999834e-03
2.804000000000000069e-03
2.866500000000000124e-03
2.847000000000000138e-03
2.788500000000000180e-03
2.592500000000000186e-03
2.746499999999999810e-03
2.629499999999999893e-03
2.560000000000000209e-03
2.746999999999999876e-03
2.549000000000000050e-03
2.877999999999999916e-03
2.814500000000000161e-03
2.758500000000000101e-03
2.785000000000000149e-03
2.769000000000000194e-03
2.837999999999999811e-03
2.543000000000000121e-03
2.936499999999999874e-03
2.958500000000000192e-03
2.527999999999999865e-03
2.738500000000000049e-03
2.922000000000000118e-03
2.809499999999999931e-03
2.805000000000000202e-03
2.797500000000000073e-03
2.827500000000000152e-03
2.775999999999999822e-03
2.762999999999999831e-03
2.218499999999999986e-03
2.796499999999999941e-03
2.878499999999999982e-03
2.749000000000000141e-03
2.827000000000000086e-03
2.778000000000000087e-03
2.794500000000000109e-03
2.814500000000000161e-03
2.794500000000000109e-03
2.719500000000000129e-03
2.857499999999999797e-03
2.906000000000000163e-03
2.770499999999999959e-03
2.802999999999999936e-03
2.537499999999999825e-03
2.867499999999999823e-03
2.845499999999999939e-03
2.872500000000000053e-03
2.518999999999999972e-03
2.761500000000000066e-03
2.811500000000000197e-03
2.803500000000000002e-03
2.791000000000000078e-03
2.833500000000000081e-03
2.846500000000000072e-03
2.784500000000000083e-03
2.606499999999999876e-03
2.795499999999999808e-03
2.642499999999999884e-03
2.482499999999999898e-03
2.572500000000000134e-03
2.543000000000000121e-03
2.807500000000000100e-03
2.882000000000000013e-03
2.756499999999999836e-03
2.952000000000000197e-03
2.892500000000000106e-03
2.815999999999999927e-03
2.883500000000000212e-03
2.815499999999999860e-03
2.813500000000000029e-03
2.854499999999999833e-03
2.798000000000000140e-03
2.849500000000000036e-03
2.791500000000000144e-03
2.821999999999999856e-03
2.896000000000000137e-03
2.880499999999999814e-03
2.734499999999999952e-03
2.774500000000000056e-03
2.884999999999999978e-03
2.866000000000000058e-03
2.842499999999999975e-03
2.849500000000000036e-03
2.623499999999999964e-03
2.778999999999999786e-03
2.920999999999999985e-03
2.603999999999999978e-03
2.651999999999999844e-03
2.825999999999999953e-03
2.760999999999999999e-03
2.822999999999999989e-03
2.745500000000000110e-03
2.860500000000000195e-03
2.817000000000000060e-03
2.868499999999999956e-03
2.664999999999999834e-03
2.835999999999999979e-03
2.703000000000000107e-03
2.616499999999999902e-03
2.487000000000000061e-03
2.816499999999999993e-03
2.824999999999999820e-03
2.678499999999999891e-03
2.861499999999999894e-03
2.858999999999999996e-03
2.785500000000000215e-03
2.834500000000000214e-03
2.871999999999999987e-03
2.779999999999999919e-03
2.832499999999999948e-03
2.619999999999999933e-03
2.794500000000000109e-03
2.874999999999999951e-03
2.778999999999999786e-03
2.778999999999999786e-03
2.671499999999999830e-03
2.903000000000000198e-03
2.703500000000000174e-03
2.793499999999999976e-03
2.856500000000000098e-03
2.708499999999999970e-03
2.690000000000000117e-03
2.760499999999999933e-03
2.827999999999999785e-03
2.749000000000000141e-03
2.586499999999999824e-03
2.805999999999999901e-03
2.805999999999999901e-03
2.723499999999999793e-03
2.769999999999999893e-03
2.756499999999999836e-03
2.780499999999999985e-03
2.779499999999999853e-03
2.853500000000000134e-03
2.759999999999999867e-03
2.792000000000000211e-03
2.778999999999999786e-03
2.576499999999999797e-03
2.801000000000000104e-03
2.838999999999999944e-03
2.726500000000000191e-03
2.772499999999999791e-03
2.815999999999999927e-03
2.821999999999999856e-03
2.845499999999999939e-03
2.772499999999999791e-03
2.558500000000000010e-03
2.850999999999999802e-03
2.746999999999999876e-03
2.601000000000000013e-03
2.880000000000000181e-03
2.884999999999999978e-03
2.858499999999999930e-03
2.795999999999999874e-03
2.837000000000000112e-03
2.780499999999999985e-03
2.827999999999999785e-03
2.828499999999999851e-03
2.875500000000000018e-03
2.866000000000000058e-03
2.962999999999999922e-03
2.631000000000000092e-03
2.870499999999999788e-03
2.876500000000000151e-03
2.752999999999999805e-03
2.722000000000000027e-03
2.729500000000000155e-03
2.770499999999999959e-03
2.805999999999999901e-03
2.862500000000000027e-03
2.873500000000000186e-03
2.727999999999999956e-03
2.818000000000000192e-03
2.922000000000000118e-03
2.896000000000000137e-03
2.848999999999999970e-03
2.584499999999999992e-03
2.880999999999999880e-03
2.814999999999999794e-03
2.781000000000000052e-03
2.915500000000000123e-03
2.648499999999999813e-03
2.797500000000000073e-03
2.691999999999999948e-03
2.767499999999999995e-03
2.799499999999999905e-03
2.772999999999999857e-03
2.804500000000000135e-03
2.599000000000000182e-03
2.801000000000000104e-03
2.811999999999999830e-03
2.743000000000000212e-03
2.897499999999999902e-03
2.628500000000000194e-03
2.821499999999999789e-03
2.821999999999999856e-03
2.740999999999999947e-03
2.836500000000000046e-03
2.827000000000000086e-03
2.826500000000000019e-03
2.821999999999999856e-03
2.664999999999999834e-03
2.745500000000000110e-03
2.640500000000000052e-03
2.701999999999999975e-03
2.825499999999999887e-03
2.717999999999999930e-03
2.797000000000000007e-03
2.688999999999999984e-03
2.774500000000000056e-03
2.736999999999999850e-03
2.577999999999999996e-03
2.788500000000000180e-03
2.807000000000000033e-03
2.789999999999999945e-03
2.897499999999999902e-03
2.782999999999999884e-03
2.850000000000000103e-03
2.838999999999999944e-03
2.637000000000000021e-03
2.675999999999999993e-03
2.523000000000000069e-03
2.739500000000000181e-03
2.928500000000000113e-03
2.718499999999999996e-03
2.802499999999999870e-03
2.719000000000000063e-03
2.694999999999999913e-03
2.871499999999999921e-03
2.737499999999999916e-03
2.756999999999999902e-03
2.910999999999999959e-03
2.833500000000000081e-03
2.797000000000000007e-03
2.719000000000000063e-03
2.729500000000000155e-03
2.796499999999999941e-03
2.570499999999999868e-03
2.853000000000000067e-03
2.831000000000000183e-03
2.820000000000000024e-03
2.559500000000000143e-03
2.801000000000000104e-03
2.922000000000000118e-03
2.756000000000000203e-03
2.814500000000000161e-03
2.841999999999999908e-03
2.833500000000000081e-03
2.794000000000000043e-03
2.540499999999999790e-03
2.776999999999999955e-03
2.808000000000000166e-03
2.646499999999999981e-03
2.834000000000000147e-03
2.872500000000000053e-03
2.750499999999999907e-03
2.895500000000000070e-03
2.794000000000000043e-03
2.825999999999999953e-03
2.903499999999999831e-03
2.837999999999999811e-03
2.819499999999999958e-03
2.759000000000000168e-03
2.898500000000000035e-03
2.779999999999999919e-03
2.710999999999999868e-03
2.868499999999999956e-03
2.493500000000000057e-03
2.778500000000000154e-03
2.775999999999999822e-03
2.926000000000000215e-03
2.637000000000000021e-03
2.719500000000000129e-03
2.730499999999999854e-03
2.671499999999999830e-03
2.739999999999999814e-03
2.954500000000000095e-03
2.902500000000000132e-03
2.897999999999999968e-03
2.844999999999999873e-03
2.780499999999999985e-03
2.824999999999999820e-03
2.854000000000000200e-03
2.879500000000000115e-03
2.843000000000000041e-03
2.879000000000000049e-03
2.815999999999999927e-03
2.748000000000000009e-03
2.837000000000000112e-03
2.905500000000000096e-03
2.606499999999999876e-03
2.718499999999999996e-03
2.599999999999999881e-03
2.852500000000000001e-03
2.788000000000000114e-03
2.903999999999999897e-03
2.700500000000000209e-03
2.848499999999999904e-03
2.881499999999999947e-03
2.903999999999999897e-03
2.844499999999999806e-03
2.782000000000000185e-03
2.501499999999999817e-03
2.846500000000000072e-03
2.851999999999999934e-03
2.853000000000000067e-03
2.756000000000000203e-03
2.645999999999999915e-03
2.780499999999999985e-03
2.604500000000000044e-03
2.918000000000000021e-03
2.637000000000000021e-03
2.652499999999999910e-03
2.530999999999999830e-03
2.439499999999999828e-03
2.847999999999999837e-03
2.756499999999999836e-03
2.854000000000000200e-03
2.618000000000000101e-03
2.918000000000000021e-03
2.754500000000000004e-03
2.788000000000000114e-03
2.801500000000000171e-03
2.831999999999999882e-03
2.890999999999999907e-03
2.794500000000000109e-03
2.793499999999999976e-03
2.926000000000000215e-03
2.737499999999999916e-03
2.602999999999999845e-03
2.777500000000000021e-03
2.882000000000000013e-03
2.703500000000000174e-03
2.861999999999999961e-03
2.720000000000000195e-03
2.844499999999999806e-03
2.820500000000000090e-03
2.801000000000000104e-03
2.802999999999999936e-03
2.539500000000000091e-03
2.837000000000000112e-03
2.547999999999999918e-03
2.553000000000000148e-03
2.867999999999999890e-03
2.576000000000000165e-03
2.895000000000000004e-03
2.776499999999999888e-03
2.773499999999999924e-03
2.871499999999999921e-03
2.770499999999999959e-03
2.904499999999999964e-03
2.820500000000000090e-03
2.817500000000000126e-03
2.808499999999999799e-03
2.641999999999999817e-03
2.799499999999999905e-03
2.864999999999999925e-03
2.643500000000000016e-03
2.569999999999999802e-03
2.815999999999999927e-03
2.643500000000000016e-03
2.912000000000000092e-03
2.879000000000000049e-03
2.760499999999999933e-03
2.688999999999999984e-03
2.870000000000000155e-03
2.774500000000000056e-03
2.900499999999999867e-03
2.815999999999999927e-03
2.768000000000000061e-03
2.467000000000000009e-03
2.836500000000000046e-03
2.776499999999999888e-03
2.844999999999999873e-03
2.935999999999999808e-03
2.775999999999999822e-03
2.782000000000000185e-03
2.912000000000000092e-03
2.919499999999999786e-03
2.880000000000000181e-03
2.758000000000000035e-03
2.862500000000000027e-03
2.903499999999999831e-03
2.844999999999999873e-03
2.803500000000000002e-03
2.890499999999999840e-03
2.780499999999999985e-03
2.799999999999999972e-03
2.870499999999999788e-03
2.920999999999999985e-03
2.922000000000000118e-03
2.922000000000000118e-03
2.869500000000000089e-03
2.916999999999999888e-03
2.877499999999999850e-03
2.765000000000000097e-03
2.923499999999999883e-03
2.882500000000000080e-03
2.814999999999999794e-03
2.808999999999999865e-03
2.710999999999999868e-03
2.811500000000000197e-03
2.837500000000000178e-03
2.867999999999999890e-03
2.688499999999999918e-03
2.716000000000000098e-03
2.771000000000000026e-03
2.822499999999999922e-03
2.797500000000000073e-03
2.582999999999999793e-03
2.715500000000000032e-03
2.831999999999999882e-03
2.797000000000000007e-03
2.792499999999999843e-03
2.837000000000000112e-03
2.790500000000000012e-03
2.597499999999999983e-03
2.896999999999999836e-03
2.792999999999999910e-03
2.631000000000000092e-03
2.880000000000000181e-03
2.855499999999999965e-03
2.803500000000000002e-03
2.736000000000000151e-03
2.794000000000000043e-03
2.781000000000000052e-03
2.819499999999999958e-03
2.615500000000000203e-03
2.860999999999999828e-03
2.773999999999999990e-03
2.828499999999999851e-03
2.780499999999999985e-03
2.729000000000000089e-03
2.756000000000000203e-03
2.851499999999999868e-03
2.790500000000000012e-03
2.801000000000000104e-03
2.872500000000000053e-03
2.591500000000000054e-03
2.629999999999999959e-03
2.771500000000000092e-03
2.753999999999999938e-03
2.779499999999999853e-03
2.793499999999999976e-03
2.683000000000000055e-03
2.769999999999999893e-03
2.813500000000000029e-03
2.797000000000000007e-03
2.844000000000000174e-03
2.827999999999999785e-03
2.869000000000000022e-03
2.825499999999999887e-03
2.800500000000000038e-03
2.834000000000000147e-03
2.585000000000000058e-03
2.631999999999999791e-03
2.825499999999999887e-03
2.762999999999999831e-03
2.919999999999999853e-03
2.819499999999999958e-03
2.827999999999999785e-03
2.867499999999999823e-03
2.618000000000000101e-03
2.766999999999999928e-03
2.904499999999999964e-03
2.874999999999999951e-03
2.895000000000000004e-03
2.873000000000000120e-03
2.778500000000000154e-03
2.576499999999999797e-03
2.572000000000000067e-03
2.793499999999999976e-03
2.902000000000000066e-03
2.866000000000000058e-03
2.823500000000000055e-03
2.825999999999999953e-03
2.706500000000000138e-03
2.711499999999999935e-03
2.845499999999999939e-03
2.942499999999999803e-03
2.821000000000000157e-03
2.811999999999999830e-03
2.820000000000000024e-03
2.844000000000000174e-03
2.850000000000000103e-03
2.811000000000000131e-03
2.765500000000000163e-03
2.589000000000000155e-03
2.805499999999999834e-03
2.873500000000000186e-03
2.866500000000000124e-03
2.848999999999999970e-03
2.615999999999999836e-03
2.841000000000000209e-03
2.850500000000000169e-03
2.816499999999999993e-03
2.826500000000000019e-03
2.928000000000000047e-03
2.820000000000000024e-03
2.733000000000000186e-03
2.866500000000000124e-03
2.841000000000000209e-03
2.855499999999999965e-03
2.858999999999999996e-03
2.858499999999999930e-03
2.797500000000000073e-03
2.604500000000000044e-03
2.808999999999999865e-03
2.594500000000000018e-03
2.834999999999999847e-03
2.844000000000000174e-03
2.765999999999999796e-03
2.874999999999999951e-03
2.825999999999999953e-03
2.900499999999999867e-03
2.715500000000000032e-03
2.636499999999999955e-03
2.753499999999999871e-03
2.843000000000000041e-03
2.743499999999999845e-03
2.834500000000000214e-03
2.841999999999999908e-03
2.845499999999999939e-03
2.850000000000000103e-03
2.614500000000000070e-03
2.814500000000000161e-03
2.646499999999999981e-03
2.599999999999999881e-03
2.779999999999999919e-03
2.866500000000000124e-03
2.848499999999999904e-03
2.809999999999999998e-03
2.832499999999999948e-03
2.559000000000000077e-03
2.843500000000000107e-03
2.846000000000000005e-03
2.822999999999999989e-03
2.697000000000000178e-03
2.682499999999999989e-03
2.874499999999999885e-03
2.506500000000000047e-03
2.782499999999999817e-03
2.672499999999999962e-03
2.768500000000000127e-03
2.890999999999999907e-03
2.819499999999999958e-03
2.608000000000000075e-03
2.478000000000000168e-03
2.717499999999999864e-03
2.665999999999999967e-03
2.812499999999999896e-03
2.961999999999999789e-03
2.707999999999999904e-03
2.569999999999999802e-03
2.671000000000000197e-03
2.828499999999999851e-03
2.828499999999999851e-03
2.805999999999999901e-03
2.800500000000000038e-03
2.748500000000000075e-03
2.792499999999999843e-03
2.885500000000000044e-03
2.873500000000000186e-03
2.851499999999999868e-03
2.821499999999999789e-03
2.827500000000000152e-03
2.897499999999999902e-03
2.759499999999999800e-03
2.860000000000000129e-03
2.720999999999999894e-03
2.765500000000000163e-03
2.812499999999999896e-03
2.759499999999999800e-03
2.793499999999999976e-03
2.650000000000000012e-03
2.835499999999999913e-03
2.746999999999999876e-03
2.826500000000000019e-03
2.905000000000000030e-03
2.781500000000000118e-03
2.789499999999999879e-03
2.820000000000000024e-03
2.877999999999999916e-03
2.984999999999999806e-03
2.773999999999999990e-03
2.745500000000000110e-03
2.550999999999999882e-03
2.883999999999999845e-03
2.899999999999999800e-03
2.821000000000000157e-03
2.756000000000000203e-03
2.787500000000000047e-03
2.750499999999999907e-03
2.919000000000000154e-03
2.706000000000000072e-03
2.825499999999999887e-03
2.725500000000000058e-03
2.825999999999999953e-03
2.890499999999999840e-03
2.855499999999999965e-03
2.562000000000000041e-03
2.830000000000000050e-03
2.880499999999999814e-03
2.782499999999999817e-03
2.323500000000000044e-03
2.560999999999999908e-03
2.710000000000000169e-03
2.756999999999999902e-03
2.753999999999999938e-03
2.641999999999999817e-03
2.609999999999999907e-03
2.554999999999999979e-03
2.829499999999999984e-03
2.826500000000000019e-03
2.853000000000000067e-03
2.765000000000000097e-03
2.983500000000000041e-03
2.905500000000000096e-03
2.893999999999999871e-03
2.882000000000000013e-03
2.778999999999999786e-03
2.752500000000000172e-03
2.532500000000000029e-03
2.699500000000000077e-03
2.535499999999999993e-03
2.839500000000000010e-03
2.695499999999999979e-03
2.908500000000000061e-03
2.856500000000000098e-03
2.844499999999999806e-03
2.948500000000000166e-03
2.821499999999999789e-03
2.830000000000000050e-03
2.706500000000000138e-03
2.726999999999999823e-03
2.879500000000000115e-03
2.891499999999999973e-03
2.845499999999999939e-03
2.831499999999999816e-03
2.882000000000000013e-03
2.858999999999999996e-03
2.498999999999999919e-03
2.727499999999999890e-03
2.683500000000000121e-03
2.778000000000000087e-03
2.647500000000000114e-03
2.782000000000000185e-03
2.876000000000000084e-03
2.890999999999999907e-03
2.882500000000000080e-03
2.900999999999999933e-03
2.658999999999999905e-03
2.766499999999999862e-03
2.837999999999999811e-03
2.796499999999999941e-03
2.744499999999999978e-03
2.761500000000000066e-03
2.860999999999999828e-03
2.553999999999999847e-03
2.915500000000000123e-03
2.630500000000000026e-03
2.841499999999999842e-03
2.814000000000000095e-03
2.859500000000000063e-03
2.811500000000000197e-03
2.840000000000000076e-03
2.907999999999999995e-03
2.870999999999999854e-03
2.854499999999999833e-03
2.920999999999999985e-03
2.780499999999999985e-03
2.916999999999999888e-03
2.794000000000000043e-03
2.822999999999999989e-03
2.945000000000000135e-03
2.925500000000000149e-03
2.883999999999999845e-03
2.841000000000000209e-03
2.843000000000000041e-03
2.870000000000000155e-03
2.860999999999999828e-03
2.841999999999999908e-03
2.780499999999999985e-03
2.799999999999999972e-03
2.841499999999999842e-03
2.868499999999999956e-03
2.795499999999999808e-03
2.799499999999999905e-03
2.850500000000000169e-03
2.855499999999999965e-03
2.844999999999999873e-03
2.854999999999999899e-03
2.858499999999999930e-03
