//  Calibre v2014.4_18.13    Wed Nov 5 16:04:06 PST 2014
//  Calibre Utility Library   v0-7_7-2014-2    Tue Jul 8 18:35:09 PDT 2014
//  Litho Libraries v2014.4_18.13  Wed Nov 5 16:04:06 PST 2014
//
//        Copyright Mentor Graphics Corporation 1996-2014
//                       All Rights Reserved.
//   THIS WORK CONTAINS TRADE SECRET AND PROPRIETARY INFORMATION
//      WHICH IS THE PROPERTY OF MENTOR GRAPHICS CORPORATION
//        OR ITS LICENSORS AND IS SUBJECT TO LICENSE TERMS.
//
//  Mentor Graphics software executing under x86-64 Linux
//
//  Running on Linux eda07 3.2.0-4-amd64 #1 SMP Debian 3.2.68-1+deb7u3 x86_64 glibc 2.13/NPTL 2.13
//
//  Entries in /proc/meminfo:
//
//  MemTotal:       32899580 kB
//  MemFree:         7785072 kB
//  Buffers:         1857676 kB
//  Cached:         15883136 kB
//  SwapCached:        30152 kB
//  Active:         12670348 kB
//  Inactive:       10403820 kB
//  Active(anon):    5239076 kB
//  Inactive(anon):   847964 kB
//  Active(file):    7431272 kB
//  Inactive(file):  9555856 kB
//  Unevictable:        1048 kB
//  Mlocked:            1048 kB
//  SwapTotal:      33554428 kB
//  SwapFree:       33324128 kB
//  Dirty:               616 kB
//  Writeback:            28 kB
//  AnonPages:       5316608 kB
//  Mapped:           307340 kB
//  Shmem:            753216 kB
//  Slab:            1866356 kB
//  SReclaimable:    1815340 kB
//  SUnreclaim:        51016 kB
//  KernelStack:        5376 kB
//  PageTables:        51912 kB
//  NFS_Unstable:          0 kB
//  Bounce:                0 kB
//  WritebackTmp:          0 kB
//  CommitLimit:    50004216 kB
//  Committed_AS:   10122212 kB
//  VmallocTotal:   34359738367 kB
//  VmallocUsed:      501736 kB
//  VmallocChunk:   34359103680 kB
//  HardwareCorrupted:     0 kB
//  AnonHugePages:         0 kB
//  HugePages_Total:       0
//  HugePages_Free:        0
//  HugePages_Rsvd:        0
//  HugePages_Surp:        0
//  Hugepagesize:       2048 kB
//  DirectMap4k:       98376 kB
//  DirectMap2M:    33417216 kB
//
//  CPU Info: Cores = 4, SMT enabled with 4 additional virtual processors
//  Max file descriptors: 1024
//  64 bit virtual addressing enabled
//  Running aoi_cal_2014.4_18.13/pkgs/icv/pvt/calibre -drc -hier -turbo -turbo_litho 8 -hyper ../lithosim/cali/out.testrandomclip_4000_4000_560_70_sraf_srafcheck.rule
//  Process ID: 23422
//
//  Starting time: Thu Oct  8 23:30:48 2015
//

//  HYPERSCALING ENABLED with 4 pseudo HDBs.

//  Running on 4 CPUs (pending licensing) 
//
//  LITHO operations available for use on 4 CPUs (pending licensing)
//
//  Initializing MT on HDB 0: 0
//  Creating log for pseudo HDB 1 on eda07(pid=23531), logfile = /home/usr1/xiaoqingxu/Projects/utda-toshiba/SRAF_insertion/SRAF_xiaoqing/CalibreHDBLog.eda07.23422.2015_1008_2330.1
//  Creating log for pseudo HDB 2 on eda07(pid=23530), logfile = /home/usr1/xiaoqingxu/Projects/utda-toshiba/SRAF_insertion/SRAF_xiaoqing/CalibreHDBLog.eda07.23422.2015_1008_2330.2
//  Creating log for pseudo HDB 3 on eda07(pid=23529), logfile = /home/usr1/xiaoqingxu/Projects/utda-toshiba/SRAF_insertion/SRAF_xiaoqing/CalibreHDBLog.eda07.23422.2015_1008_2330.3
//  Creating log for pseudo HDB 4 on eda07(pid=23528), logfile = /home/usr1/xiaoqingxu/Projects/utda-toshiba/SRAF_insertion/SRAF_xiaoqing/CalibreHDBLog.eda07.23422.2015_1008_2330.4
//  Initializing MT on pseudo HDB 1
//  Initializing MT on pseudo HDB 2
//  Initializing MT on pseudo HDB 3
//  Initializing MT on pseudo HDB 4

--- CALIBRE::DRC-H - Thu Oct  8 23:30:48 2015

--------------------------------------------------------------------------------
--------------------------------------------------------------------------------
-----          STANDARD VERIFICATION RULE FILE COMPILATION MODULE          -----
--------------------------------------------------------------------------------
--------------------------------------------------------------------------------

--- RULE FILE = ../lithosim/cali/out.testrandomclip_4000_4000_560_70_sraf_srafcheck.rule

 
LAYOUT PATH    '../lithosim/gds/out.testrandomclip_4000_4000_560_70_sraf.gds'

LAYOUT PRIMARY '*'

DRC RESULTS DATABASE '../lithosim/results/out.testrandomclip_4000_4000_560_70_sraf.oas' OASIS

PRECISION 1000
LAYOUT SYSTEM GDSII
DRC MAXIMUM RESULTS ALL
DRC MAXIMUM VERTEX 4000

LAYER MAP 0   datatype 0 1000 LAYER lay_sraf   1000
LAYER MAP 2   datatype 0 1001 LAYER target     1001
LAYER MAP 4   datatype 0 1002 LAYER lay_bias   1002
LAYER MAP 20  datatype 0 1003 LAYER lay_mbsraf 1003
LAYER MAP 21  datatype 0 1004 LAYER dcare      1004
LAYER MAP 22  datatype 0 1005 LAYER sgenarea0  1005
LAYER MAP 23  datatype 0 1006 LAYER sgenarea   1006
LAYER MAP 101 datatype 0 1007 LAYER calsraf    1007

// area: 0.040 x 0.040
VARIABLE min_area 0.0016
VARIABLE hole_area 0.6
VARIABLE check_area 0.10
VARIABLE min_size 0.040
VARIABLE min_size2 0.041
VARIABLE min_size3 0.080
VARIABLE hminsize 0.02
VARIABLE max_length 0.09
// max_length x 3
VARIABLE max_length2 0.27
// area: 0.04 x 0.09:min_size x max_length
VARIABLE min_area2 0.0036
VARIABLE min_space 0.06
VARIABLE min_space2 0.04
 
// #001: read original ml_sraf layout
// #002: flatten
lay_sraf0 = SIZE lay_sraf BY 0.001
lay_sraf2 = FLATTEN lay_sraf0

// #003: make seeds (center in each sraf)
tl0a   = EXTENTS lay_sraf2 CENTERS min_size
tl0b   = EXTENTS tl0a CENTERS min_size
tl0_m1 = EXT tl0b <= min_space2 REGION EXTENTS
tl0_m2 = OR tl0_m1 (INTERACT tl0b tl0_m1)
tl0_m3 = EXTENTS tl0_m2 CENTERS min_size
tl0    = OR tl0_m3 (NOT INTERACT tl0b tl0_m2)

// #004: extend seeds along the vertical axis
tl1 = ENC (ANGLE tl0 == 0) (SIZE lay_sraf2 BY -0.001)  < 0.2 OPPOSITE REGION
tl2a = EXTENTS (OR tl0 tl1)
tl2b = (EXTENTS tl2a) WITH WIDTH > min_size 
tl2b2 = CONVEX EDGE tl2b ANGLE1 >= 0 ANGLE2 >= 0 WITH LENGTH > 0.035 < 0.10
tl2b3 = NOT tl2b (EXPAND EDGE tl2b2 INSIDE BY 0.001 EXTEND BY 0.001)
tl2c = INTERNAL tl2b3 > min_size <= 0.1 REGION CENTERLINE min_size
tl2d = EXTENTS (NOT RECTANGLE tl2c) CENTERS min_size
tl2 = OR (OR tl2d (NOT INTERACT tl2c tl2d)) (NOT INTERACT tl2a tl2b3)

// #005: extend seeds along the horizontal axis
tl3 = ENC (ANGLE tl0 == 90) (SIZE lay_sraf2 BY -0.001) < 0.2 OPPOSITE REGION
tl4a = EXTENTS (OR tl0 tl3)
tl4b = (EXTENTS tl4a) WITH WIDTH > min_size 
tl4b2 = CONVEX EDGE tl4b ANGLE1 >= 0 ANGLE2 >= 0 WITH LENGTH > 0.035 < 0.10
tl4b3 = NOT tl4b (EXPAND EDGE tl4b2 INSIDE BY 0.001 EXTEND BY 0.001)
tl4c = INTERNAL tl4b3 > min_size <= 0.1 REGION CENTERLINE min_size
tl4d = EXTENTS (NOT RECTANGLE tl4c) CENTERS min_size
tl4 = OR (OR tl4d (NOT INTERACT tl4c tl4d)) (NOT INTERACT tl4a tl4b3)

// #006: define xy area
starget = SIZE target BY 0.10
H_EDGE:0 = (EXPAND EDGE (ANGLE starget == 0) OUTSIDE BY hole_area) OR starget
V_EDGE:0 = (EXPAND EDGE (ANGLE starget == 90) OUTSIDE BY hole_area) OR starget
H_SIDE = EXPAND EDGE (ANGLE starget == 0) OUTSIDE BY 0.05
V_SIDE = EXPAND EDGE (ANGLE starget == 90) OUTSIDE BY 0.05
H_EDGE = (EXTENTS (NOT H_EDGE:0 V_EDGE:0)) OR H_SIDE
V_EDGE = (EXTENTS (NOT V_EDGE:0 H_EDGE:0)) OR V_SIDE

// #007: extact extended seeds srafs based on xy area
H_SRAF = INTERACT tl4 H_EDGE
V_SRAF = NOT INTERACT (INTERACT tl2 V_EDGE) H_SRAF

// #008: extract srafs in the area except for the xy_area
R_SRAF:0 = AND tl2 tl4
R_SRAF:1 = NOT INTERACT R_SRAF:0 H_SRAF
R_SRAF   = NOT INTERACT R_SRAF:1 V_SRAF

// #009: merge all srafs
ML_SRAF = OR R_SRAF (OR H_SRAF V_SRAF)

// #010: space check (identify adjacent small srafs based on min_area2 nm^2 and min_space)
sraf_tmp:0 = AREA ML_SRAF <= min_area2
sraf_tmp:1 = EXT sraf_tmp:0 <= min_space REGION EXTENTS
sraf_tmp:2 = OR sraf_tmp:1 (INTERACT sraf_tmp:0 sraf_tmp:1)
sraf_tmp:2a = (EXTENTS sraf_tmp:2) LENGTH >= max_length2
sraf_tmp:2b = INTERACT sraf_tmp:2 (EXPAND EDGE sraf_tmp:2a INSIDE BY 0.001)
sraf_tmp:2c = NOT sraf_tmp:2b (EXTENTS sraf_tmp:2b CENTERS min_size3)
sraf_tmp:2d = OR sraf_tmp:2c (NOT INTERACT sraf_tmp:2 sraf_tmp:2c)

// #011: repeat the above processing(#003-#009) for small srafs
sraf_tmp:3 = EXTENTS sraf_tmp:2d CENTERS min_size
sraf_tmp:4 = ENC (ANGLE sraf_tmp:3 == 0) sraf_tmp:2d < 0.2 OPPOSITE REGION
sraf_tmp:5 = EXTENTS (OR sraf_tmp:3 sraf_tmp:4)
sraf_tmp:6 = ENC (ANGLE sraf_tmp:3 == 90) sraf_tmp:2d < 0.2 OPPOSITE REGION
sraf_tmp:7 = EXTENTS (OR sraf_tmp:3 sraf_tmp:6)
H_SRAF:2  = INTERACT sraf_tmp:7 H_EDGE
V_SRAF:2  = NOT INTERACT (INTERACT sraf_tmp:5 V_EDGE) H_SRAF:2
R_SRAF:2  = OR H_SRAF:2 V_SRAF:2

// #012: merge all srafs
ML_SRAF:2 = OR R_SRAF:2 (NOT INTERACT ML_SRAF R_SRAF:2)

// #013: cut down long rectangles
lsraf0      = AREA ML_SRAF:2 >= 0.008
lsraf1      = INTERACT ML_SRAF:2 (EXPAND EDGE (LENGTH ML_SRAF:2 > max_length) INSIDE BY 0.001)
lsraf_cent  = EXTENTS lsraf1 CENTERS max_length
lay_sraf_f1 = (AND lsraf1 lsraf_cent) OR (NOT INTERACT ML_SRAF:2 lsraf_cent)

// #014: space check2
spc01 = EXT lay_sraf_f1 <= min_space REGION EXTENTS

// #015: identify adjacent srafs
spc02 = TOUCH EDGE lay_sraf_f1 spc01
spc03 = EXPAND EDGE spc02 INSIDE BY hminsize EXTEND BY 0.01

// #016: cut the center part of adjacent srafs
lay_sraf_f2 = NOT lay_sraf_f1 spc03
lay_sraf_f3 = EXTENTS (INTERNAL lay_sraf_f2 < min_size REGION CENTERLINE min_size)

// #017: merge all srafs
lay_sraf_fin = OR (NOT INTERACT lay_sraf_f2 lay_sraf_f3) lay_sraf_f3

//lay_check1 = NOT RECTANGLE lay_sraf_fin

// #018: final MRC
mrc:1 = EXT lay_sraf_fin < min_space REGION EXTENTS
mrc:2 = EXTENTS (OR mrc:1 (INTERACT lay_sraf_fin mrc:1))
//mrc:3 = ENC (SIZE mrc:2 BY 0.001) mrc:2 <= 0.001 INSIDE ALSO REGION CENTERLINE min_size
mrc:3 = EXTENTS mrc:2 CENTERS min_size
mrc:4 = ENC (ANGLE mrc:3 == 0) mrc:2 < 0.2 OPPOSITE REGION
mrc:5 = EXTENTS (OR mrc:3 mrc:4)
mrc:6 = ENC (ANGLE mrc:3 == 90) mrc:2 < 0.2 OPPOSITE REGION
mrc:7 = EXTENTS (OR mrc:3 mrc:6)
H_SRAF:3  = INTERACT mrc:7 H_EDGE
V_SRAF:3  = NOT INTERACT (INTERACT mrc:5 V_EDGE) H_SRAF:3
R_SRAF:3  = OR H_SRAF:3 V_SRAF:3
mrc:8 = AND (EXTENTS R_SRAF:3 CENTERS max_length) R_SRAF:3
lay_sraf_fin2 = OR mrc:8 (NOT INTERACT lay_sraf_fin mrc:2)

// #019: output results
lay_bias_offset = NOT lay_bias target
OUT_target     {COPY target     } DRC CHECK MAP OUT_target    0     0
OUT_bias       {COPY lay_bias_offset   } DRC CHECK MAP OUT_bias      1     0
OUT_sraf       {SIZE lay_sraf2 BY -0.001  } DRC CHECK MAP OUT_sraf      2     0
OUT_sraf2      {COPY lay_sraf_fin2 } DRC CHECK MAP OUT_sraf2   3     0
OUT_mbsraf     {COPY lay_mbsraf } DRC CHECK MAP OUT_mbsraf    4     0
dcare          {COPY dcare      } DRC CHECK MAP dcare         21    0
sraf0          {COPY sgenarea0  } DRC CHECK MAP sraf0         22    0
sraf1          {COPY sgenarea   } DRC CHECK MAP sraf1         23    0


--- STANDARD VERIFICATION RULE FILE COMPILATION MODULE COMPLETED.  CPU TIME = 0  REAL TIME = 0  LVHEAP = 1/3/3

--- CALIBRE_* ENVIRONMENT VARIABLES:

CALIBRE_CMD_LINE='/usr/local/packages/mentor_2014/calibre/aoi_cal_2014.4_18.13/pkgs/icv/pvt/calibre  -drc -hier -turbo -turbo_litho 8 -hyper ../lithosim/cali/out.testrandomclip_4000_4000_560_70_sraf_srafcheck.rule'
CALIBRE_HOME=/usr/local/packages/mentor_2014/calibre/aoi_cal_2014.4_18.13
CALIBRE_INITIAL_CMD_LINE='/usr/local/packages/mentor_2014/calibre/aoi_cal_2014.4_18.13/bin/calibre -drc -hier -turbo -turbo_litho 8 -64 -hyper ../lithosim/cali/out.testrandomclip_4000_4000_560_70_sraf_srafcheck.rule'
CALIBRE_READDB_LD_LIBRARY_PATH=/usr/local/packages/mentor_2014/calibre/aoi_cal_2014.4_18.13/pkgs/icv_lib/lib64:/usr/local/packages/mentor_2014/calibre/aoi_cal_2014.4_18.13/pkgs/icv_qt_comp/plugins:/usr/local/packages/mentor_2014/calibre/aoi_cal_2014.4_18.13/pkgs/umc_libs/lib/lnx32:/usr/local/packages/mentor_2014/calibre/aoi_cal_2014.4_18.13/shared/pkgs/icv_oa/22.41.004/lib/linux_rhel40_gcc44x_64/opt::/home/polaris/bei/app/openaccessv2/lib/linux_rhel30_gcc411_64/opt:/home/usr1/bei/cbc/lib:/home/polaris/bei/app/cbc/lib:/usr/lib:/home/polaris/bei/app:/home/usr1/xiaoqingxu/apps/gurobi/gurobi602/linux64/lib:/home/usr1/xiaoqingxu/apps/Cbc-2.8.9/build/lib:/home/usr1/xiaoqingxu/apps/Cbc-2.8.9/ThirdParty/Glpk/glpk/install/lib
CALIBRE_SKIP_OS_CHECKS=
CALIBRE_SSE3_SUPPORTED=1

--- SELECTED RULE CHECKS:
    OUT_target
    OUT_bias
    OUT_sraf
    OUT_sraf2
    OUT_mbsraf
    dcare
    sraf0
    sraf1

--- UNSELECTED RULE CHECKS:

--------------------------------------------------------------------------------
--------------------------------------------------------------------------------
-----                  CALIBRE::DRC-H - LICENSING MODULE                   -----
--------------------------------------------------------------------------------
--------------------------------------------------------------------------------


//  Applying licensing policy...
//  calibrepvs_s license acquired (calibrehdrc requested).
//  calibrepvs_s license acquired (calibrehdrc requested).

//  Licensed Products
//  -----------------
//  Base products running on 4 cores:
//  - DRC (Hierarchical)

--- CALIBRE::DRC-H LICENSING MODULE COMPLETED.  CPU TIME = 0  REAL TIME = 0

--------------------------------------------------------------------------------
--------------------------------------------------------------------------------
-----                   CALIBRE LAYOUT DATA INPUT MODULE                   -----
--------------------------------------------------------------------------------
--------------------------------------------------------------------------------

--- LAYOUT SYSTEM = GDS
--- LAYOUT MAGNIFICATION = 1

--------------------------------------------------------------------------------
-----                     GDS FILE SUMMARY INFORMATION                     -----
--------------------------------------------------------------------------------

GDS FILENAME:        ../lithosim/gds/out.testrandomclip_4000_4000_560_70_sraf.gds
GDS VERSION:         600
LIBRARY NAME:        library
LAST MODIFIED:       ON 2015/10/8 AT 23:30:35
LAST ACCESSED:       ON 2015/10/8 AT 23:30:35
DATABASE PRECISION:  0.001 user units per database unit
PHYSICAL PRECISION:  1e-09 meters per database unit
MAGNIFICATION:       1

--------------------------------------------------------------------------------
-----                 GDS INPUT DATA FOR INDIVIDUAL CELLS                  -----
--------------------------------------------------------------------------------
     CELL NAME                  PLACEMENTS   ARRAYS   POLYGONS    PATHS    TEXTS
--------------------------------------------------------------------------------
TOP                                      0        0       6469        0        0

NOTE: UNUSED geometric data is present on the following layer/datatype pairs:
    LAYER = 101 DATATYPE = 0

NOTE: The following required simple layers are EMPTY:
    1006

--- LAYOUT DATABASE CONSTRUCTOR COMPLETED.  CPU TIME = 0  REAL TIME = 0  LVHEAP = 2/4/4

CONSTRUCTING HIERARCHICAL DATABASE
    COPYING LAYOUT DATABASE
    FLATTENING SELECTED LAYERS
    PROCESSING TEXT
    ELIMINATING DUPLICATE TEXT
    ELIMINATING EMPTY CELLS
    COMPUTING RECTANGULAR EXTENTS
    ELIMINATING DUPLICATE PLACEMENTS
    IDENTIFYING TOP LAYER CELLS
    IDENTIFYING ADDITIONAL TOP LAYER CELLS
    IDENTIFYING VERY SMALL CELLS
    CHECKING ACUTE/SKEW/ANGLED/OFFGRID
    FLATTENING SELECTED VERY SMALL CELL PLACEMENTS
    FLATTENING SELECTED TOP LAYER CELL PLACEMENTS
    EXPANDING UNIQUE VERY SMALL CELL PLACEMENTS
    EXPANDING UNIQUE TOP LAYER CELL PLACEMENTS
    EXPANDING UNIQUE MONO-GEOMETRIC CELL PLACEMENTS
    MERGING TOP LAYER CELLS
    EXPANDING LARGE TOP LAYER CELL PLACEMENTS
    COMPUTING RECTILINEAR EXTENTS
    SORTING PLACEMENTS
    ELIMINATING DUPLICATE PLACEMENTS
    EXPANDING UNIQUE TRANSPARENT CELL PLACEMENTS
    EXPANDING UNIQUE LIGHT-WEIGHT CELL PLACEMENTS
    EXPANDING UNIQUE ROW CELL PLACEMENTS
    EXPANDING TRIVIAL CELL PLACEMENTS
    EXPANDING VERY SPARSE ARRAY PLACEMENTS
    EXPANDING LARGE CELL ARRAY PLACEMENTS
    EXPANDING VERY SPARSE CELL PLACEMENTS
    ELIMINATING DUPLICATE SUPER-HIERARCHICAL PLACEMENTS
    PROCESSING LAYOUT BLOAT LAYERS (auto-detected)
    PROCESSING LARGE CELL EXTENT-BLOATING LAYERS
    EXPANDING DENSE OVERLAPS
    EXPANDING UNIQUE META-CELL PLACEMENTS
    ANALYZING HIERARCHY FOR AUTOMATIC TURBO FLEX
    INJECTING HIERARCHY
    COMPUTING RECTANGULAR EXTENTS
    FLATTENING REMAINING VERY SMALL CELL PLACEMENTS
    SORTING PLACEMENTS
    PUSHING VERY SMALL CELL PLACEMENTS
    PUSHING TOP LAYER CELL PLACEMENTS
    COMPUTING CELL-TO-WORLD TRANSFORMS
    SORTING PLACEMENTS
    PACKING HIERARCHY
    COMPUTING PLACEMENT OVERLAP RECORDS
    COMPUTING CELL OVERLAP AREAS
    INTERSECTING PLACEMENTS AND OVERLAP AREAS
    PSEUDO HDB 1 CONSTRUCTED.  CPU TIME = 0  REAL TIME = 0  LVHEAP = 1/1/1
    PSEUDO HDB 2 CONSTRUCTED.  CPU TIME = 0  REAL TIME = 0  LVHEAP = 1/1/1
    PSEUDO HDB 3 CONSTRUCTED.  CPU TIME = 0  REAL TIME = 0  LVHEAP = 1/1/1
    PSEUDO HDB 4 CONSTRUCTED.  CPU TIME = 0  REAL TIME = 0  LVHEAP = 1/1/1
    PSEUDO HDB SYSTEM CONSTRUCTION COMPLETE: 0 CPU TIME = 0  REAL TIME = 0  LVHEAP = 1/5/5
HIERARCHICAL DATABASE CONSTRUCTOR COMPLETE.
CPU TIME = 0  REAL TIME = 0  LVHEAP = 1/5/5

--------------------------------------------------------------------------------
-----               TEXT OBJECTS FOR CONNECTIVITY EXTRACTION               -----
--------------------------------------------------------------------------------


--------------------------------------------------------------------------------
-----                TEXT OBJECTS FOR WITH TEXT OPERATIONS                 -----
--------------------------------------------------------------------------------


--------------------------------------------------------------------------------
-----               TEXT OBJECTS FOR EXPAND TEXT OPERATIONS                -----
--------------------------------------------------------------------------------


--------------------------------------------------------------------------------
-----                  TEXT OBJECTS FOR CAPI OPERATIONS                    -----
--------------------------------------------------------------------------------


--------------------------------------------------------------------------------
-----             LAYER READ SUMMARY (SIMPLE LAYER GEOMETRIES)             -----
--------------------------------------------------------------------------------
SIMPLE LAYER      GEOMETRIES                                                    
--------------------------------------------------------------------------------

  1000                5018
  1001                  64
  1002                  64
  1003                 597
  1004                  64
  1005                   1
  1006                   0

--------------------------------------------------------------------------------
-----            LAYER READ SUMMARY (ORIGINAL LAYER GEOMETRIES)            -----
--------------------------------------------------------------------------------
ORIGINAL LAYER       INITIAL GEOMETRIES                 FINAL GEOMETRIES        
--------------------------------------------------------------------------------

  lay_sraf              5018 (5018)                      5018 (5018)            
  target                  64 (64)                          64 (64)              
  lay_bias                64 (64)                          64 (64)              
  lay_mbsraf             597 (597)                        597 (597)             
  dcare                   64 (64)                          64 (64)              
  sgenarea0                1 (1)                            1 (1)               
  sgenarea                 0 (0)                            0 (0)               

--------------------------------------------------------------------------------
-----         LAYER READ SUMMARY (TEXT FOR CONNECTIVITY EXTRACTION)        -----
--------------------------------------------------------------------------------
SIMPLE LAYER              TEXTS                                                 
--------------------------------------------------------------------------------


--------------------------------------------------------------------------------
-----          LAYER READ SUMMARY (TEXT FOR WITH TEXT OPERATIONS)          -----
--------------------------------------------------------------------------------
SIMPLE LAYER              TEXTS                                                 
--------------------------------------------------------------------------------


--------------------------------------------------------------------------------
-----         LAYER READ SUMMARY (TEXT FOR EXPAND TEXT OPERATIONS)         -----
--------------------------------------------------------------------------------
SIMPLE LAYER              TEXTS                                                 
--------------------------------------------------------------------------------


--------------------------------------------------------------------------------
-----            LAYER READ SUMMARY (TEXT FOR CAPI OPERATIONS)             -----
--------------------------------------------------------------------------------
SIMPLE LAYER              TEXTS                                                 
--------------------------------------------------------------------------------


--------------------------------------------------------------------------------
-----                      CELL AND PLACEMENT SUMMARY                      -----
--------------------------------------------------------------------------------
CELL TYPE                 CELLS           PLACEMENTS       FLAT PLACEMENTS      
--------------------------------------------------------------------------------

USER                          1                    0                     0
 VERY SMALL                   0                    0                     0
 TOP LAYER                    0                    0                     0
  VERY SMALL                  0                    0                     0
PSEUDO                        0                    0                     0
TOTAL                         1                    0                     0

--------------------------------------------------------------------------------
-----                   LAYOUT DATA INPUT MODULE SUMMARY                   -----
--------------------------------------------------------------------------------

--- TOTAL GEOMETRIES READ FROM SIMPLE LAYERS = 5808
--- TOTAL GEOMETRIES READ FROM ORIGINAL LAYERS = 5808 (5808)
--- TOTAL GEOMETRIES WRITTEN TO ORIGINAL LAYERS = 5808 (5808)
--- LVHEAP = 1/5/5
--- DATABASE EXTENT = [ -0.5 , -0.53 ] -> [ 4.55 , 4.56 ]
--- GEOMETRIC DEPTH = ALL
--- TEXT DEPTH FOR CONNECTIVITY EXTRACTION = PRIMARY
--- TOTAL TEXT OBJECTS FOR CONNECTIVITY EXTRACTION = 0 (0)
--- TOTAL TEXT OBJECTS FOR WITH TEXT OPERATIONS = 0 (0)
--- TOTAL TEXT OBJECTS FOR EXPAND TEXT OPERATIONS = 0 (0)
--- TOTAL TEXT OBJECTS FOR CAPI OPERATIONS = 0 (0)
--- GEOMETRY FLAGGING = ACUTE (NO)  SKEW (NO)  ANGLED (NO)  OFFGRID (NO)
                        NONSIMPLE POLYGON (NO)  NONSIMPLE PATH (NO)
--- PRIMARY CELL = TOP
--- EXCLUDED CELLS =
--- LAYOUT BASE LAYER = (NOT SPECIFIED)
--- LAYOUT TOP LAYER = (NOT SPECIFIED)

--- CALIBRE LAYOUT DATA INPUT MODULE COMPLETED.  CPU TIME = 0  REAL TIME = 0

--------------------------------------------------------------------------------
--------------------------------------------------------------------------------
-----        CALIBRE::DRC-H - RESULTS DATABASE INITIALIZATION MODULE       -----
--------------------------------------------------------------------------------
--------------------------------------------------------------------------------

--- GLOBAL DRC RESULTS DATABASE FILE = ../lithosim/results/out.testrandomclip_4000_4000_560_70_sraf.oas (OASIS)
--- GLOBAL MAXIMUM RESULTS PER RULECHECK = ALL
--- GLOBAL MAXIMUM VERTICES PER RESULT POLYGON = 4000
--- CHECK TEXT MAPPING = COMMENTS + RULE FILE INFORMATION
--- KEEP EMPTY RULE CHECKS = YES
--- DRC RESULTS MAGNIFICATION = 1
--- DRC RESULTS DATABASE PRECISION = 1000

--------------------------------------------------------------------------------
-----              DRC RULECHECK -> RESULTS DATABASE MAPPING               -----
--------------------------------------------------------------------------------
                                                          DATA        MAX    MAX
RULECHECK            RESULTS DATABASE         TYPE LAYER  TYPE     RESULT VERTEX
--------------------------------------------------------------------------------
OUT_target           ../lithosim/results/out.testrandomclip_4000_4000_560_70_sraf.oas
                                             OASIS     0     0        ALL   4000
OUT_bias             ../lithosim/results/out.testrandomclip_4000_4000_560_70_sraf.oas
                                             OASIS     1     0        ALL   4000
OUT_sraf             ../lithosim/results/out.testrandomclip_4000_4000_560_70_sraf.oas
                                             OASIS     2     0        ALL   4000
OUT_sraf2            ../lithosim/results/out.testrandomclip_4000_4000_560_70_sraf.oas
                                             OASIS     3     0        ALL   4000
OUT_mbsraf           ../lithosim/results/out.testrandomclip_4000_4000_560_70_sraf.oas
                                             OASIS     4     0        ALL   4000
dcare                ../lithosim/results/out.testrandomclip_4000_4000_560_70_sraf.oas
                                             OASIS    21     0        ALL   4000
sraf0                ../lithosim/results/out.testrandomclip_4000_4000_560_70_sraf.oas
                                             OASIS    22     0        ALL   4000
sraf1                ../lithosim/results/out.testrandomclip_4000_4000_560_70_sraf.oas
                                             OASIS    23     0        ALL   4000

--- CALIBRE::DRC-H RESULTS DATABASE INITIALIZATION MODULE COMPLETED.  CPU TIME = 0  REAL TIME = 0

--------------------------------------------------------------------------------
--------------------------------------------------------------------------------
-----                   CALIBRE::DRC-H - EXECUTIVE MODULE                  -----
--------------------------------------------------------------------------------
--------------------------------------------------------------------------------

target = OR target
------------------
Operation EXECUTING on HDB 4 (T1 S1 E0:1 H0:0 A2:6 C1 F00 X01)

Original Layer target DELETED -- LVHEAP = 2/5/5

lay_bias = OR lay_bias
----------------------
Operation EXECUTING on HDB 2 (T1 S1 E0:1 H0:0 A2:6 C2 F00 X01)

lay_mbsraf = OR lay_mbsraf
--------------------------
Operation EXECUTING on HDB 3 (T1 S1 E0:1 H0:0 A2:6 C3 F00 X01)

sgenarea = OR sgenarea
----------------------
Operation EXECUTING on HDB 0 (T1 S0 E0:1 H0:0 A2:6 C4 F00 X10)

lay_sraf = OR lay_sraf
----------------------
Operation EXECUTING on HDB 1 (T1 S1 E0:1 H0:0 A2:6 C5 F00 X01)

Original Layer lay_bias DELETED -- LVHEAP = 3/5/5

Original Layer lay_mbsraf DELETED -- LVHEAP = 2/5/5

Original Layer sgenarea DELETED -- LVHEAP = 2/5/5

sgenarea = OR sgenarea
----------------------
sgenarea (HIER TYP=1 CFG=1 HGC=0 FGC=0 HEC=0 FEC=0 IGC=0 VHC=F VPC=F)
CPU TIME = 0  REAL TIME = 0  LVHEAP = 2/5/5  OPS COMPLETE = 1 OF 137  ELAPSED TIME = 1
Operation COMPLETED on HDB 0  LVHEAP = 2/5/5

Original Layer lay_sraf DELETED -- LVHEAP = 2/5/5

DRC RuleCheck sraf1 COMPLETED. Number of Results = 0 (0)

Layer sgenarea DELETED -- LVHEAP = 2/5/5

target = OR target
------------------
target (HIER TYP=1 CFG=1 HGC=64 FGC=64 HEC=256 FEC=256 IGC=0 VHC=F VPC=F)
CPU TIME = 0  REAL TIME = 0  LVHEAP = 2/5/5  OPS COMPLETE = 2 OF 137  ELAPSED TIME = 1
Operation COMPLETED on HDB 4  LVHEAP = 1/3/3

dcare = OR dcare
----------------
Operation EXECUTING on HDB 4 (T1 S1 E0:1 H0:2 A2:7 C4 F00 X01)

lay_bias = OR lay_bias
----------------------
lay_bias (HIER TYP=1 CFG=1 HGC=64 FGC=64 HEC=256 FEC=256 IGC=0 VHC=F VPC=F)
CPU TIME = 0  REAL TIME = 0  LVHEAP = 3/5/5  OPS COMPLETE = 3 OF 137  ELAPSED TIME = 1
Operation COMPLETED on HDB 2  LVHEAP = 1/3/3

Original Layer dcare DELETED -- LVHEAP = 2/5/5

starget = SIZE target BY 0.1
----------------------------
Operation EXECUTING on HDB 2 (T1 S1 E0:1 H0:2 A1:7 C4 F00 X01)

DRC RuleCheck OUT_target COMPLETED. Number of Results = 64 (64)

lay_mbsraf = OR lay_mbsraf
--------------------------
lay_mbsraf (HIER TYP=1 CFG=1 HGC=597 FGC=597 HEC=2388 FEC=2388 IGC=0 VHC=F VPC=F)
CPU TIME = 0  REAL TIME = 0  LVHEAP = 2/5/5  OPS COMPLETE = 4 OF 137  ELAPSED TIME = 1
Operation COMPLETED on HDB 3  LVHEAP = 1/3/3

lay_bias_offset = lay_bias NOT target
-------------------------------------
Operation EXECUTING on HDB 3 (T1 S1 E0:1 H0:2 A1:8 C4 F00 X01)

dcare = OR dcare
----------------
dcare (HIER TYP=1 CFG=1 HGC=64 FGC=64 HEC=256 FEC=256 IGC=0 VHC=F VPC=F)
CPU TIME = 0  REAL TIME = 0  LVHEAP = 2/5/5  OPS COMPLETE = 5 OF 137  ELAPSED TIME = 1
Operation COMPLETED on HDB 4  LVHEAP = 1/3/3

sgenarea0 = OR sgenarea0
------------------------
Operation EXECUTING on HDB 4 (T1 S1 E0:1 H0:3 A0:8 C4 F00 X01)

Original Layer sgenarea0 DELETED -- LVHEAP = 2/5/5

Layer lay_bias DELETED -- LVHEAP = 2/5/5

Layer target DELETED -- LVHEAP = 2/5/5

sgenarea0 = OR sgenarea0
------------------------
sgenarea0 (HIER TYP=1 CFG=1 HGC=1 FGC=1 HEC=42 FEC=42 IGC=0 VHC=F VPC=F)
CPU TIME = 0  REAL TIME = 0  LVHEAP = 3/5/5  OPS COMPLETE = 6 OF 137  ELAPSED TIME = 1
Operation COMPLETED on HDB 4  LVHEAP = 1/3/3

starget = SIZE target BY 0.1
----------------------------
starget (HIER TYP=1 CFG=1 HGC=64 FGC=64 HEC=256 FEC=256 IGC=0 VHC=F VPC=F)
CPU TIME = 0  REAL TIME = 0  LVHEAP = 2/5/5  OPS COMPLETE = 7 OF 137  ELAPSED TIME = 1
Operation COMPLETED on HDB 2  LVHEAP = 1/3/3

TMP<25> = ANGLE starget == 0
TMP<26> = ANGLE starget == 90
-----------------------------
Operation EXECUTING on HDB 4 (T1 S1 E0:1 H2:5 A0:9 C3 F00 X01)

lay_bias_offset = lay_bias NOT target
-------------------------------------
lay_bias_offset (HIER TYP=1 CFG=1 HGC=64 FGC=64 HEC=576 FEC=576 IGC=0 VHC=F VPC=F)
CPU TIME = 0  REAL TIME = 0  LVHEAP = 3/5/5  OPS COMPLETE = 8 OF 137  ELAPSED TIME = 1
Operation COMPLETED on HDB 3  LVHEAP = 1/3/3

TMP<25> = ANGLE starget == 0
TMP<26> = ANGLE starget == 90
-----------------------------
TMP<25> (HIER-PMF TYP=2 CFG=0 HGC=128 FGC=128 HEC=128 FEC=128 IGC=0 VHC=F VPC=F)
TMP<26> (HIER-PMF TYP=2 CFG=0 HGC=128 FGC=128 HEC=128 FEC=128 IGC=0 VHC=F VPC=F)
CPU TIME = 0  REAL TIME = 0  LVHEAP = 2/5/5  OPS COMPLETE = 10 OF 137  ELAPSED TIME = 1
Operation COMPLETED on HDB 4  LVHEAP = 1/3/3

DRC RuleCheck OUT_mbsraf COMPLETED. Number of Results = 597 (597)

Layer lay_mbsraf DELETED -- LVHEAP = 2/5/5

TMP<21> = EXPAND EDGE TMP<25> OUTSIDE BY 0.6
H_SIDE = EXPAND EDGE TMP<25> OUTSIDE BY 0.05
--------------------------------------------
Operation EXECUTING on HDB 3 (T1 S1 E0:1 H2:6 A0:11 C2 F00 X01)

Layer TMP<25> DELETED -- LVHEAP = 2/5/5

TMP<23> = EXPAND EDGE TMP<26> OUTSIDE BY 0.6
V_SIDE = EXPAND EDGE TMP<26> OUTSIDE BY 0.05
--------------------------------------------
Operation EXECUTING on HDB 2 (T1 S1 E0:1 H2:6 A0:11 C3 F00 X01)

Layer TMP<26> DELETED -- LVHEAP = 2/5/5

DRC RuleCheck OUT_bias COMPLETED. Number of Results = 64 (64)

TMP<21> = EXPAND EDGE TMP<25> OUTSIDE BY 0.6
H_SIDE = EXPAND EDGE TMP<25> OUTSIDE BY 0.05
--------------------------------------------
TMP<21> (HIER TYP=1 CFG=0 HGC=13 FGC=13 HEC=344 FEC=344 IGC=0 VHC=F VPC=F)
H_SIDE (HIER TYP=1 CFG=0 HGC=128 FGC=128 HEC=512 FEC=512 IGC=0 VHC=F VPC=F)
CPU TIME = 0  REAL TIME = 0  LVHEAP = 2/5/5  OPS COMPLETE = 12 OF 137  ELAPSED TIME = 1
Operation COMPLETED on HDB 3  LVHEAP = 1/3/3

Layer lay_bias_offset DELETED -- LVHEAP = 2/5/5

H_EDGE:0 = TMP<21> OR starget
-----------------------------
Operation EXECUTING on HDB 4 (T1 S1 E0:1 H1:6 A0:12 C3 F00 X01)

TMP<23> = EXPAND EDGE TMP<26> OUTSIDE BY 0.6
V_SIDE = EXPAND EDGE TMP<26> OUTSIDE BY 0.05
--------------------------------------------
TMP<23> (HIER TYP=1 CFG=0 HGC=9 FGC=9 HEC=328 FEC=328 IGC=0 VHC=F VPC=F)
V_SIDE (HIER TYP=1 CFG=0 HGC=128 FGC=128 HEC=512 FEC=512 IGC=0 VHC=F VPC=F)
CPU TIME = 0  REAL TIME = 0  LVHEAP = 2/5/5  OPS COMPLETE = 14 OF 137  ELAPSED TIME = 1
Operation COMPLETED on HDB 2  LVHEAP = 1/3/3

V_EDGE:0 = TMP<23> OR starget
-----------------------------
Operation EXECUTING on HDB 3 (T1 S1 E0:1 H1:6 A0:13 C3 F00 X01)

Layer TMP<21> DELETED -- LVHEAP = 3/5/5

Layer TMP<23> DELETED -- LVHEAP = 2/5/5

Layer starget DELETED -- LVHEAP = 2/5/5

DRC RuleCheck dcare COMPLETED. Number of Results = 64 (64)

Layer dcare DELETED -- LVHEAP = 2/5/5

DRC RuleCheck sraf0 COMPLETED. Number of Results = 1 (1)

Layer sgenarea0 DELETED -- LVHEAP = 2/5/5

H_EDGE:0 = TMP<21> OR starget
-----------------------------
H_EDGE:0 (HIER TYP=1 CFG=0 HGC=8 FGC=8 HEC=154 FEC=154 IGC=0 VHC=F VPC=F)
CPU TIME = 0  REAL TIME = 0  LVHEAP = 2/5/5  OPS COMPLETE = 15 OF 137  ELAPSED TIME = 1
Operation COMPLETED on HDB 4  LVHEAP = 1/3/3

V_EDGE:0 = TMP<23> OR starget
-----------------------------
V_EDGE:0 (HIER TYP=1 CFG=0 HGC=8 FGC=8 HEC=156 FEC=156 IGC=0 VHC=F VPC=F)
CPU TIME = 0  REAL TIME = 0  LVHEAP = 2/5/5  OPS COMPLETE = 16 OF 137  ELAPSED TIME = 1
Operation COMPLETED on HDB 3  LVHEAP = 1/3/3

TMP<28> = H_EDGE:0 NOT V_EDGE:0
-------------------------------
Operation EXECUTING on HDB 2 (T1 S1 E0:1 H0:6 A1:15 C2 F00 X01)

TMP<30> = V_EDGE:0 NOT H_EDGE:0
-------------------------------
Operation EXECUTING on HDB 4 (T1 S1 E0:1 H0:6 A0:15 C3 F00 X01)

Layer V_EDGE:0 DELETED -- LVHEAP = 2/5/5

Layer H_EDGE:0 DELETED -- LVHEAP = 2/5/5

TMP<30> = V_EDGE:0 NOT H_EDGE:0
-------------------------------
TMP<30> (HIER TYP=1 CFG=1 HGC=73 FGC=73 HEC=404 FEC=404 IGC=0 VHC=F VPC=F)
CPU TIME = 0  REAL TIME = 0  LVHEAP = 2/5/5  OPS COMPLETE = 17 OF 137  ELAPSED TIME = 1
Operation COMPLETED on HDB 4  LVHEAP = 1/3/3

TMP<28> = H_EDGE:0 NOT V_EDGE:0
-------------------------------
TMP<28> (HIER TYP=1 CFG=1 HGC=73 FGC=73 HEC=400 FEC=400 IGC=0 VHC=F VPC=F)
CPU TIME = 0  REAL TIME = 0  LVHEAP = 2/5/5  OPS COMPLETE = 18 OF 137  ELAPSED TIME = 1
Operation COMPLETED on HDB 2  LVHEAP = 1/3/3

TMP<27> = EXTENTS TMP<28>
-------------------------
Operation EXECUTING on HDB 3 (T1 S1 E0:1 H0:6 A1:17 C2 F00 X01)

Layer TMP<28> DELETED -- LVHEAP = 2/5/5

TMP<29> = EXTENTS TMP<30>
-------------------------
Operation EXECUTING on HDB 4 (T1 S1 E0:1 H0:6 A0:17 C3 F00 X01)

Layer TMP<30> DELETED -- LVHEAP = 2/5/5

TMP<27> = EXTENTS TMP<28>
-------------------------
TMP<27> (HIER TYP=1 CFG=0 HGC=73 FGC=73 HEC=292 FEC=292 IGC=0 VHC=F VPC=F)
CPU TIME = 0  REAL TIME = 0  LVHEAP = 2/5/5  OPS COMPLETE = 19 OF 137  ELAPSED TIME = 1
Operation COMPLETED on HDB 3  LVHEAP = 1/3/3

H_EDGE = TMP<27> OR H_SIDE
--------------------------
Operation EXECUTING on HDB 2 (T1 S1 E0:1 H0:6 A0:18 C3 F00 X01)

Layer TMP<27> DELETED -- LVHEAP = 2/5/5

Layer H_SIDE DELETED -- LVHEAP = 2/5/5

TMP<29> = EXTENTS TMP<30>
-------------------------
TMP<29> (HIER TYP=1 CFG=0 HGC=73 FGC=73 HEC=292 FEC=292 IGC=0 VHC=F VPC=F)
CPU TIME = 0  REAL TIME = 0  LVHEAP = 2/5/5  OPS COMPLETE = 20 OF 137  ELAPSED TIME = 1
Operation COMPLETED on HDB 4  LVHEAP = 1/3/3

V_EDGE = TMP<29> OR V_SIDE
--------------------------
Operation EXECUTING on HDB 3 (T1 S1 E0:1 H0:6 A0:19 C3 F00 X01)

Layer TMP<29> DELETED -- LVHEAP = 2/5/5

Layer V_SIDE DELETED -- LVHEAP = 2/5/5

H_EDGE = TMP<27> OR H_SIDE
--------------------------
H_EDGE (HIER TYP=1 CFG=1 HGC=104 FGC=104 HEC=462 FEC=462 IGC=0 VHC=F VPC=F)
CPU TIME = 0  REAL TIME = 0  LVHEAP = 2/5/5  OPS COMPLETE = 21 OF 137  ELAPSED TIME = 1
Operation COMPLETED on HDB 2  LVHEAP = 1/3/3

V_EDGE = TMP<29> OR V_SIDE
--------------------------
V_EDGE (HIER TYP=1 CFG=1 HGC=104 FGC=104 HEC=460 FEC=460 IGC=0 VHC=F VPC=F)
CPU TIME = 0  REAL TIME = 0  LVHEAP = 2/5/5  OPS COMPLETE = 22 OF 137  ELAPSED TIME = 1
Operation COMPLETED on HDB 3  LVHEAP = 1/3/3

lay_sraf = OR lay_sraf
----------------------
lay_sraf (HIER TYP=1 CFG=1 HGC=769 FGC=769 HEC=8366 FEC=8366 IGC=0 VHC=F VPC=F)
CPU TIME = 0  REAL TIME = 0  LVHEAP = 2/5/5  OPS COMPLETE = 23 OF 137  ELAPSED TIME = 1
Operation COMPLETED on HDB 1  LVHEAP = 1/3/3

lay_sraf0 = SIZE lay_sraf BY 0.001
----------------------------------
Operation EXECUTING on HDB 0 (T1 S11 E0:1 H0:7 A0:19 C1 F00 X00)

Layer lay_sraf DELETED -- LVHEAP = 2/5/5

lay_sraf0 = SIZE lay_sraf BY 0.001
----------------------------------
lay_sraf0 (HIER TYP=1 CFG=1 HGC=754 FGC=754 HEC=8368 FEC=8368 IGC=0 VHC=F VPC=F)
CPU TIME = 0  REAL TIME = 0  LVHEAP = 2/5/5  OPS COMPLETE = 24 OF 137  ELAPSED TIME = 1
Operation COMPLETED on HDB 0  LVHEAP = 2/5/5

lay_sraf2 = FLATTEN lay_sraf0
-----------------------------
Operation EXECUTING on HDB 0 (T1 S3 E0:1 H0:8 A0:19 C1 F00 X00)

Layer lay_sraf0 DELETED -- LVHEAP = 2/5/5

lay_sraf2 = FLATTEN lay_sraf0
-----------------------------

WARNING: Layer lay_sraf2 CREATED with an exclusive FLAT instantiation.

lay_sraf2 (FLAT TYP=1 CFG=1 ECT=4181 OCT=3765 SRT=1 CMP=F MPN=754)
CPU TIME = 0  REAL TIME = 0  LVHEAP = 2/5/5  OPS COMPLETE = 25 OF 137  ELAPSED TIME = 1
Operation COMPLETED on HDB 0  LVHEAP = 2/5/5

TMP<13> = SIZE lay_sraf2 BY -0.001
----------------------------------
Operation EXECUTING on HDB 0 (T1 S2 E0:1 H1:10 A0:19 C1 F00 X00)

TMP<13> = SIZE lay_sraf2 BY -0.001
----------------------------------

WARNING: Layer TMP<13> CREATED with an exclusive FLAT instantiation.

TMP<13> (FLAT TYP=1 CFG=1 ECT=4181 OCT=3663 SRT=1 CMP=F MPN=769)
CPU TIME = 0  REAL TIME = 0  LVHEAP = 2/5/5  OPS COMPLETE = 26 OF 137  ELAPSED TIME = 1
Operation COMPLETED on HDB 0  LVHEAP = 2/5/5

DRC RuleCheck OUT_sraf COMPLETED. Number of Results = 769 (769)

tl0a = EXTENTS lay_sraf2 CENTERS 0.04
-------------------------------------
Operation EXECUTING on HDB 0 (T1 S2 E0:1 H0:11 A0:19 C1 F00 X00)

Layer lay_sraf2 DELETED -- LVHEAP = 2/5/5

tl0a = EXTENTS lay_sraf2 CENTERS 0.04
-------------------------------------

WARNING: Layer tl0a CREATED with an exclusive FLAT instantiation.

tl0a (FLAT TYP=1 CFG=1 ECT=1508 OCT=756 SRT=1 CMP=F MPN=753)
CPU TIME = 0  REAL TIME = 0  LVHEAP = 2/5/5  OPS COMPLETE = 27 OF 137  ELAPSED TIME = 1
Operation COMPLETED on HDB 0  LVHEAP = 2/5/5

tl0b = EXTENTS tl0a CENTERS 0.04
--------------------------------
Operation EXECUTING on HDB 0 (T1 S2 E0:1 H0:12 A0:19 C1 F00 X00)

Layer tl0a DELETED -- LVHEAP = 2/5/5

tl0b = EXTENTS tl0a CENTERS 0.04
--------------------------------

WARNING: Layer tl0b CREATED with an exclusive FLAT instantiation.

tl0b (FLAT TYP=1 CFG=1 ECT=1506 OCT=753 SRT=1 CMP=F MPN=753)
CPU TIME = 0  REAL TIME = 0  LVHEAP = 2/5/5  OPS COMPLETE = 28 OF 137  ELAPSED TIME = 1
Operation COMPLETED on HDB 0  LVHEAP = 2/5/5

tl0_m1 = EXT tl0b <= 0.04 REGION EXTENTS
----------------------------------------
Operation EXECUTING on HDB 0 (T1 S2 E0:1 H0:13 A0:19 C1 F00 X00)

tl0_m1 = EXT tl0b <= 0.04 REGION EXTENTS
----------------------------------------

WARNING: Layer tl0_m1 CREATED with an exclusive FLAT instantiation.

tl0_m1 (FLAT TYP=1 CFG=1 ECT=298 OCT=158 SRT=1 CMP=F MPN=89)
CPU TIME = 0  REAL TIME = 0  LVHEAP = 2/5/5  OPS COMPLETE = 29 OF 137  ELAPSED TIME = 1
Operation COMPLETED on HDB 0  LVHEAP = 2/5/5

TMP<1> = tl0b INTERACT tl0_m1
-----------------------------
Operation EXECUTING on HDB 0 (T1 S2 E0:1 H0:14 A0:19 C1 F00 X00)

TMP<1> = tl0b INTERACT tl0_m1
-----------------------------

WARNING: Layer TMP<1> CREATED with an exclusive FLAT instantiation.

TMP<1> (FLAT TYP=1 CFG=0 ECT=340 OCT=170 SRT=1 CMP=F MPN=0)
CPU TIME = 0  REAL TIME = 0  LVHEAP = 2/5/5  OPS COMPLETE = 30 OF 137  ELAPSED TIME = 1
Operation COMPLETED on HDB 0  LVHEAP = 2/5/5

tl0_m2 = tl0_m1 OR TMP<1>
-------------------------
Operation EXECUTING on HDB 0 (T1 S2 E0:1 H0:15 A0:19 C1 F00 X00)

Layer tl0_m1 DELETED -- LVHEAP = 2/5/5

Layer TMP<1> DELETED -- LVHEAP = 2/5/5

tl0_m2 = tl0_m1 OR TMP<1>
-------------------------

WARNING: Layer tl0_m2 CREATED with an exclusive FLAT instantiation.

tl0_m2 (FLAT TYP=1 CFG=1 ECT=469 OCT=418 SRT=1 CMP=F MPN=75)
CPU TIME = 0  REAL TIME = 0  LVHEAP = 2/5/5  OPS COMPLETE = 31 OF 137  ELAPSED TIME = 1
Operation COMPLETED on HDB 0  LVHEAP = 2/5/5

tl0_m3 = EXTENTS tl0_m2 CENTERS 0.04
------------------------------------
Operation EXECUTING on HDB 0 (T1 S2 E0:1 H1:17 A0:19 C1 F00 X00)

tl0_m3 = EXTENTS tl0_m2 CENTERS 0.04
------------------------------------

WARNING: Layer tl0_m3 CREATED with an exclusive FLAT instantiation.

tl0_m3 (FLAT TYP=1 CFG=0 ECT=150 OCT=75 SRT=1 CMP=F MPN=0)
CPU TIME = 0  REAL TIME = 0  LVHEAP = 2/5/5  OPS COMPLETE = 32 OF 137  ELAPSED TIME = 1
Operation COMPLETED on HDB 0  LVHEAP = 2/5/5

TMP<2> = tl0b NOT INTERACT tl0_m2
---------------------------------
Operation EXECUTING on HDB 0 (T1 S2 E0:1 H0:17 A0:19 C1 F00 X00)

Layer tl0b DELETED -- LVHEAP = 2/5/5

Layer tl0_m2 DELETED -- LVHEAP = 2/5/5

TMP<2> = tl0b NOT INTERACT tl0_m2
---------------------------------

WARNING: Layer TMP<2> CREATED with an exclusive FLAT instantiation.

TMP<2> (FLAT TYP=1 CFG=0 ECT=1166 OCT=583 SRT=1 CMP=F MPN=0)
CPU TIME = 0  REAL TIME = 0  LVHEAP = 2/5/5  OPS COMPLETE = 33 OF 137  ELAPSED TIME = 1
Operation COMPLETED on HDB 0  LVHEAP = 2/5/5

tl0 = tl0_m3 OR TMP<2>
----------------------
Operation EXECUTING on HDB 0 (T1 S2 E0:1 H0:18 A0:19 C1 F00 X00)

Layer tl0_m3 DELETED -- LVHEAP = 2/5/5

Layer TMP<2> DELETED -- LVHEAP = 2/5/5

tl0 = tl0_m3 OR TMP<2>
----------------------

WARNING: Layer tl0 CREATED with an exclusive FLAT instantiation.

tl0 (FLAT TYP=1 CFG=1 ECT=1316 OCT=658 SRT=1 CMP=F MPN=658)
CPU TIME = 0  REAL TIME = 0  LVHEAP = 2/5/5  OPS COMPLETE = 34 OF 137  ELAPSED TIME = 1
Operation COMPLETED on HDB 0  LVHEAP = 2/5/5

TMP<3> = ANGLE tl0 == 0
TMP<12> = ANGLE tl0 == 90
-------------------------
Operation EXECUTING on HDB 0 (T1 S2 E0:1 H0:19 A0:19 C1 F00 X00)

TMP<3> = ANGLE tl0 == 0
TMP<12> = ANGLE tl0 == 90
-------------------------

WARNING: Layer TMP<3> CREATED with an exclusive FLAT instantiation.


WARNING: Layer TMP<12> CREATED with an exclusive FLAT instantiation.

TMP<3> (FLAT TYP=2 CFG=1 ECT=1316 OCT=1316 SRT=1 CMP=F MPN=658)
TMP<12> (FLAT TYP=2 CFG=1 ECT=1316 OCT=1316 SRT=1 CMP=F MPN=658)
CPU TIME = 0  REAL TIME = 0  LVHEAP = 2/5/5  OPS COMPLETE = 36 OF 137  ELAPSED TIME = 1
Operation COMPLETED on HDB 0  LVHEAP = 2/5/5

tl1 = ENC TMP<3> TMP<13> < 0.2 REGION OPPOSITE
----------------------------------------------
Operation EXECUTING on HDB 0 (T1 S2 E0:1 H1:21 A0:19 C1 F00 X00)

Layer TMP<3> DELETED -- LVHEAP = 2/5/5

tl1 = ENC TMP<3> TMP<13> < 0.2 REGION OPPOSITE
----------------------------------------------

WARNING: Layer tl1 CREATED with an exclusive FLAT instantiation.

tl1 (FLAT TYP=1 CFG=0 ECT=2357 OCT=1675 SRT=1 CMP=F MPN=0)
CPU TIME = 0  REAL TIME = 0  LVHEAP = 2/5/5  OPS COMPLETE = 37 OF 137  ELAPSED TIME = 1
Operation COMPLETED on HDB 0  LVHEAP = 2/5/5

TMP<5> = tl0 OR tl1
-------------------
Operation EXECUTING on HDB 0 (T1 S2 E0:1 H1:22 A0:19 C1 F00 X00)

Layer tl1 DELETED -- LVHEAP = 2/5/5

TMP<5> = tl0 OR tl1
-------------------

WARNING: Layer TMP<5> CREATED with an exclusive FLAT instantiation.

TMP<5> (FLAT TYP=1 CFG=1 ECT=2179 OCT=1877 SRT=1 CMP=F MPN=658)
CPU TIME = 0  REAL TIME = 0  LVHEAP = 2/5/5  OPS COMPLETE = 38 OF 137  ELAPSED TIME = 1
Operation COMPLETED on HDB 0  LVHEAP = 2/5/5

tl2a = EXTENTS TMP<5>
---------------------
Operation EXECUTING on HDB 0 (T1 S2 E0:1 H1:23 A0:19 C1 F00 X00)

Layer TMP<5> DELETED -- LVHEAP = 2/5/5

tl2a = EXTENTS TMP<5>
---------------------

WARNING: Layer tl2a CREATED with an exclusive FLAT instantiation.

tl2a (FLAT TYP=1 CFG=1 ECT=1316 OCT=662 SRT=1 CMP=F MPN=655)
CPU TIME = 0  REAL TIME = 0  LVHEAP = 2/5/5  OPS COMPLETE = 39 OF 137  ELAPSED TIME = 1
Operation COMPLETED on HDB 0  LVHEAP = 2/5/5

TMP<6> = EXTENTS tl2a
---------------------
Operation EXECUTING on HDB 0 (T1 S2 E0:1 H1:24 A0:19 C1 F00 X00)

TMP<6> = EXTENTS tl2a
---------------------

WARNING: Layer TMP<6> CREATED with an exclusive FLAT instantiation.

TMP<6> (FLAT TYP=1 CFG=1 ECT=1310 OCT=655 SRT=1 CMP=F MPN=655)
CPU TIME = 0  REAL TIME = 0  LVHEAP = 2/5/5  OPS COMPLETE = 40 OF 137  ELAPSED TIME = 1
Operation COMPLETED on HDB 0  LVHEAP = 2/5/5

tl2b = TMP<6> WITH WIDTH > 0.04
-------------------------------
Operation EXECUTING on HDB 0 (T1 S2 E0:1 H1:25 A0:19 C1 F00 X00)

Layer TMP<6> DELETED -- LVHEAP = 2/5/5

tl2b = TMP<6> WITH WIDTH > 0.04
-------------------------------

WARNING: Layer tl2b CREATED with an exclusive FLAT instantiation.

tl2b (FLAT TYP=1 CFG=1 ECT=6 OCT=3 SRT=1 CMP=F MPN=3)
CPU TIME = 0  REAL TIME = 0  LVHEAP = 2/5/5  OPS COMPLETE = 41 OF 137  ELAPSED TIME = 1
Operation COMPLETED on HDB 0  LVHEAP = 2/5/5

tl2b2 = CONVEX EDGE tl2b ANGLE1 >= 0 ANGLE2 >= 0 WITH LENGTH > 0.035 < 0.1
--------------------------------------------------------------------------
Operation EXECUTING on HDB 0 (T1 S2 E0:1 H1:26 A0:19 C1 F00 X00)

tl2b2 = CONVEX EDGE tl2b ANGLE1 >= 0 ANGLE2 >= 0 WITH LENGTH > 0.035 < 0.1
--------------------------------------------------------------------------

WARNING: Layer tl2b2 CREATED with an exclusive FLAT instantiation.

tl2b2 (FLAT TYP=2 CFG=0 ECT=6 OCT=6 SRT=1 CMP=F MPN=0)
CPU TIME = 0  REAL TIME = 0  LVHEAP = 2/5/5  OPS COMPLETE = 42 OF 137  ELAPSED TIME = 1
Operation COMPLETED on HDB 0  LVHEAP = 2/5/5

TMP<7> = EXPAND EDGE tl2b2 INSIDE BY 0.001 EXTEND BY 0.001
----------------------------------------------------------
Operation EXECUTING on HDB 0 (T1 S2 E0:1 H1:27 A0:19 C1 F00 X00)

Layer tl2b2 DELETED -- LVHEAP = 2/5/5

TMP<7> = EXPAND EDGE tl2b2 INSIDE BY 0.001 EXTEND BY 0.001
----------------------------------------------------------

WARNING: Layer TMP<7> CREATED with an exclusive FLAT instantiation.

TMP<7> (FLAT TYP=1 CFG=0 ECT=12 OCT=6 SRT=1 CMP=F MPN=0)
CPU TIME = 0  REAL TIME = 0  LVHEAP = 2/5/5  OPS COMPLETE = 43 OF 137  ELAPSED TIME = 1
Operation COMPLETED on HDB 0  LVHEAP = 2/5/5

tl2b3 = tl2b NOT TMP<7>
-----------------------
Operation EXECUTING on HDB 0 (T1 S2 E0:1 H1:28 A0:19 C1 F00 X00)

Layer tl2b DELETED -- LVHEAP = 2/5/5

Layer TMP<7> DELETED -- LVHEAP = 2/5/5

tl2b3 = tl2b NOT TMP<7>
-----------------------

WARNING: Layer tl2b3 CREATED with an exclusive FLAT instantiation.

tl2b3 (FLAT TYP=1 CFG=1 ECT=6 OCT=3 SRT=1 CMP=F MPN=3)
CPU TIME = 0  REAL TIME = 0  LVHEAP = 2/5/5  OPS COMPLETE = 44 OF 137  ELAPSED TIME = 1
Operation COMPLETED on HDB 0  LVHEAP = 2/5/5

tl2c = INT tl2b3 > 0.04 <= 0.1 REGION CENTERLINE 0.04
-----------------------------------------------------
Operation EXECUTING on HDB 0 (T1 S2 E0:1 H2:30 A0:19 C1 F00 X00)

tl2c = INT tl2b3 > 0.04 <= 0.1 REGION CENTERLINE 0.04
-----------------------------------------------------

WARNING: Layer tl2c CREATED with an exclusive FLAT instantiation.

tl2c (FLAT TYP=1 CFG=1 ECT=6 OCT=3 SRT=1 CMP=F MPN=3)
CPU TIME = 0  REAL TIME = 0  LVHEAP = 2/5/5  OPS COMPLETE = 45 OF 137  ELAPSED TIME = 1
Operation COMPLETED on HDB 0  LVHEAP = 2/5/5

TMP<8> = NOT RECTANGLE tl2c
---------------------------
Operation EXECUTING on HDB 0 (T1 S2 E0:1 H2:31 A0:19 C1 F00 X00)

TMP<8> = NOT RECTANGLE tl2c
---------------------------

WARNING: Layer TMP<8> CREATED with an exclusive FLAT instantiation.

TMP<8> (FLAT TYP=1 CFG=1 ECT=0 OCT=0 SRT=1 CMP=F MPN=0)
CPU TIME = 0  REAL TIME = 0  LVHEAP = 2/5/5  OPS COMPLETE = 46 OF 137  ELAPSED TIME = 1
Operation COMPLETED on HDB 0  LVHEAP = 2/5/5

tl2d = EXTENTS TMP<8> CENTERS 0.04
----------------------------------
Operation EXECUTING on HDB 0 (T1 S2 E0:1 H2:32 A0:19 C1 F00 X00)

Layer TMP<8> DELETED -- LVHEAP = 2/5/5

tl2d = EXTENTS TMP<8> CENTERS 0.04
----------------------------------
tl2d (HIER TYP=1 CFG=1 HGC=0 FGC=0 HEC=0 FEC=0 IGC=0 VHC=F VPC=F)
CPU TIME = 0  REAL TIME = 0  LVHEAP = 2/5/5  OPS COMPLETE = 47 OF 137  ELAPSED TIME = 1
Operation COMPLETED on HDB 0  LVHEAP = 2/5/5

TMP<10> = tl2c NOT INTERACT tl2d
--------------------------------
Operation EXECUTING on HDB 0 (T1 S2 E0:1 H2:33 A0:19 C1 F00 X00)

Layer tl2c DELETED -- LVHEAP = 2/5/5

TMP<10> = tl2c NOT INTERACT tl2d
--------------------------------

WARNING: Layer TMP<10> CREATED with an exclusive FLAT instantiation.

TMP<10> (FLAT TYP=1 CFG=0 ECT=6 OCT=3 SRT=1 CMP=F MPN=0)
CPU TIME = 0  REAL TIME = 0  LVHEAP = 2/5/5  OPS COMPLETE = 48 OF 137  ELAPSED TIME = 1
Operation COMPLETED on HDB 0  LVHEAP = 2/5/5

TMP<9> = tl2d OR TMP<10>
------------------------
Operation EXECUTING on HDB 0 (T1 S2 E0:1 H2:34 A0:19 C1 F00 X00)

Layer tl2d DELETED -- LVHEAP = 2/5/5

Layer TMP<10> DELETED -- LVHEAP = 2/5/5

TMP<9> = tl2d OR TMP<10>
------------------------

WARNING: Layer TMP<9> CREATED with an exclusive FLAT instantiation.

TMP<9> (FLAT TYP=1 CFG=0 ECT=6 OCT=3 SRT=1 CMP=F MPN=0)
CPU TIME = 0  REAL TIME = 0  LVHEAP = 2/5/5  OPS COMPLETE = 49 OF 137  ELAPSED TIME = 1
Operation COMPLETED on HDB 0  LVHEAP = 2/5/5

TMP<11> = tl2a NOT INTERACT tl2b3
---------------------------------
Operation EXECUTING on HDB 0 (T1 S2 E0:1 H1:34 A0:19 C1 F00 X00)

Layer tl2a DELETED -- LVHEAP = 2/5/5

Layer tl2b3 DELETED -- LVHEAP = 2/5/5

TMP<11> = tl2a NOT INTERACT tl2b3
---------------------------------

WARNING: Layer TMP<11> CREATED with an exclusive FLAT instantiation.

TMP<11> (FLAT TYP=1 CFG=0 ECT=1304 OCT=652 SRT=1 CMP=F MPN=0)
CPU TIME = 0  REAL TIME = 0  LVHEAP = 2/5/5  OPS COMPLETE = 50 OF 137  ELAPSED TIME = 1
Operation COMPLETED on HDB 0  LVHEAP = 2/5/5

tl2 = TMP<9> OR TMP<11>
-----------------------
Operation EXECUTING on HDB 0 (T1 S2 E0:1 H1:35 A0:19 C1 F00 X00)

Layer TMP<9> DELETED -- LVHEAP = 2/5/5

Layer TMP<11> DELETED -- LVHEAP = 2/5/5

tl2 = TMP<9> OR TMP<11>
-----------------------

WARNING: Layer tl2 CREATED with an exclusive FLAT instantiation.

tl2 (FLAT TYP=1 CFG=1 ECT=1310 OCT=655 SRT=1 CMP=F MPN=655)
CPU TIME = 0  REAL TIME = 0  LVHEAP = 2/5/5  OPS COMPLETE = 51 OF 137  ELAPSED TIME = 1
Operation COMPLETED on HDB 0  LVHEAP = 2/5/5

tl3 = ENC TMP<12> TMP<13> < 0.2 REGION OPPOSITE
-----------------------------------------------
Operation EXECUTING on HDB 0 (T1 S2 E0:1 H1:36 A0:19 C1 F00 X00)

Layer TMP<12> DELETED -- LVHEAP = 2/5/5

Layer TMP<13> DELETED -- LVHEAP = 2/5/5

tl3 = ENC TMP<12> TMP<13> < 0.2 REGION OPPOSITE
-----------------------------------------------

WARNING: Layer tl3 CREATED with an exclusive FLAT instantiation.

tl3 (FLAT TYP=1 CFG=0 ECT=2474 OCT=1747 SRT=1 CMP=F MPN=0)
CPU TIME = 0  REAL TIME = 0  LVHEAP = 2/5/5  OPS COMPLETE = 52 OF 137  ELAPSED TIME = 1
Operation COMPLETED on HDB 0  LVHEAP = 2/5/5

TMP<14> = tl0 OR tl3
--------------------
Operation EXECUTING on HDB 0 (T1 S2 E0:1 H1:37 A0:19 C1 F00 X00)

Layer tl0 DELETED -- LVHEAP = 2/5/5

Layer tl3 DELETED -- LVHEAP = 2/5/5

TMP<14> = tl0 OR tl3
--------------------

WARNING: Layer TMP<14> CREATED with an exclusive FLAT instantiation.

TMP<14> (FLAT TYP=1 CFG=1 ECT=2220 OCT=2003 SRT=1 CMP=F MPN=658)
CPU TIME = 0  REAL TIME = 0  LVHEAP = 2/5/5  OPS COMPLETE = 53 OF 137  ELAPSED TIME = 1
Operation COMPLETED on HDB 0  LVHEAP = 2/5/5

tl4a = EXTENTS TMP<14>
----------------------
Operation EXECUTING on HDB 0 (T1 S2 E0:1 H1:38 A0:19 C1 F00 X00)

Layer TMP<14> DELETED -- LVHEAP = 2/5/5

tl4a = EXTENTS TMP<14>
----------------------

WARNING: Layer tl4a CREATED with an exclusive FLAT instantiation.

tl4a (FLAT TYP=1 CFG=1 ECT=1316 OCT=662 SRT=1 CMP=F MPN=654)
CPU TIME = 0  REAL TIME = 0  LVHEAP = 2/5/5  OPS COMPLETE = 54 OF 137  ELAPSED TIME = 1
Operation COMPLETED on HDB 0  LVHEAP = 2/5/5

TMP<15> = EXTENTS tl4a
----------------------
Operation EXECUTING on HDB 0 (T1 S2 E0:1 H1:39 A0:19 C1 F00 X00)

TMP<15> = EXTENTS tl4a
----------------------

WARNING: Layer TMP<15> CREATED with an exclusive FLAT instantiation.

TMP<15> (FLAT TYP=1 CFG=1 ECT=1308 OCT=654 SRT=1 CMP=F MPN=654)
CPU TIME = 0  REAL TIME = 0  LVHEAP = 2/5/5  OPS COMPLETE = 55 OF 137  ELAPSED TIME = 1
Operation COMPLETED on HDB 0  LVHEAP = 2/5/5

tl4b = TMP<15> WITH WIDTH > 0.04
--------------------------------
Operation EXECUTING on HDB 0 (T1 S2 E0:1 H1:40 A0:19 C1 F00 X00)

Layer TMP<15> DELETED -- LVHEAP = 2/5/5

tl4b = TMP<15> WITH WIDTH > 0.04
--------------------------------

WARNING: Layer tl4b CREATED with an exclusive FLAT instantiation.

tl4b (FLAT TYP=1 CFG=1 ECT=8 OCT=4 SRT=1 CMP=F MPN=4)
CPU TIME = 0  REAL TIME = 0  LVHEAP = 2/5/5  OPS COMPLETE = 56 OF 137  ELAPSED TIME = 1
Operation COMPLETED on HDB 0  LVHEAP = 2/5/5

tl4b2 = CONVEX EDGE tl4b ANGLE1 >= 0 ANGLE2 >= 0 WITH LENGTH > 0.035 < 0.1
--------------------------------------------------------------------------
Operation EXECUTING on HDB 0 (T1 S2 E0:1 H1:41 A0:19 C1 F00 X00)

tl4b2 = CONVEX EDGE tl4b ANGLE1 >= 0 ANGLE2 >= 0 WITH LENGTH > 0.035 < 0.1
--------------------------------------------------------------------------

WARNING: Layer tl4b2 CREATED with an exclusive FLAT instantiation.

tl4b2 (FLAT TYP=2 CFG=0 ECT=8 OCT=8 SRT=1 CMP=F MPN=0)
CPU TIME = 0  REAL TIME = 0  LVHEAP = 2/5/5  OPS COMPLETE = 57 OF 137  ELAPSED TIME = 1
Operation COMPLETED on HDB 0  LVHEAP = 2/5/5

TMP<16> = EXPAND EDGE tl4b2 INSIDE BY 0.001 EXTEND BY 0.001
-----------------------------------------------------------
Operation EXECUTING on HDB 0 (T1 S2 E0:1 H1:42 A0:19 C1 F00 X00)

Layer tl4b2 DELETED -- LVHEAP = 2/5/5

TMP<16> = EXPAND EDGE tl4b2 INSIDE BY 0.001 EXTEND BY 0.001
-----------------------------------------------------------

WARNING: Layer TMP<16> CREATED with an exclusive FLAT instantiation.

TMP<16> (FLAT TYP=1 CFG=0 ECT=16 OCT=8 SRT=1 CMP=F MPN=0)
CPU TIME = 0  REAL TIME = 0  LVHEAP = 2/5/5  OPS COMPLETE = 58 OF 137  ELAPSED TIME = 1
Operation COMPLETED on HDB 0  LVHEAP = 2/5/5

tl4b3 = tl4b NOT TMP<16>
------------------------
Operation EXECUTING on HDB 0 (T1 S2 E0:1 H1:43 A0:19 C1 F00 X00)

Layer tl4b DELETED -- LVHEAP = 2/5/5

Layer TMP<16> DELETED -- LVHEAP = 2/5/5

tl4b3 = tl4b NOT TMP<16>
------------------------

WARNING: Layer tl4b3 CREATED with an exclusive FLAT instantiation.

tl4b3 (FLAT TYP=1 CFG=1 ECT=8 OCT=4 SRT=1 CMP=F MPN=4)
CPU TIME = 0  REAL TIME = 0  LVHEAP = 2/5/5  OPS COMPLETE = 59 OF 137  ELAPSED TIME = 1
Operation COMPLETED on HDB 0  LVHEAP = 2/5/5

tl4c = INT tl4b3 > 0.04 <= 0.1 REGION CENTERLINE 0.04
-----------------------------------------------------
Operation EXECUTING on HDB 0 (T1 S2 E0:1 H2:45 A0:19 C1 F00 X00)

tl4c = INT tl4b3 > 0.04 <= 0.1 REGION CENTERLINE 0.04
-----------------------------------------------------

WARNING: Layer tl4c CREATED with an exclusive FLAT instantiation.

tl4c (FLAT TYP=1 CFG=1 ECT=8 OCT=4 SRT=1 CMP=F MPN=4)
CPU TIME = 0  REAL TIME = 0  LVHEAP = 2/5/5  OPS COMPLETE = 60 OF 137  ELAPSED TIME = 1
Operation COMPLETED on HDB 0  LVHEAP = 2/5/5

TMP<17> = NOT RECTANGLE tl4c
----------------------------
Operation EXECUTING on HDB 0 (T1 S2 E0:1 H2:46 A0:19 C1 F00 X00)

TMP<17> = NOT RECTANGLE tl4c
----------------------------

WARNING: Layer TMP<17> CREATED with an exclusive FLAT instantiation.

TMP<17> (FLAT TYP=1 CFG=1 ECT=0 OCT=0 SRT=1 CMP=F MPN=0)
CPU TIME = 0  REAL TIME = 0  LVHEAP = 2/5/5  OPS COMPLETE = 61 OF 137  ELAPSED TIME = 1
Operation COMPLETED on HDB 0  LVHEAP = 2/5/5

tl4d = EXTENTS TMP<17> CENTERS 0.04
-----------------------------------
Operation EXECUTING on HDB 0 (T1 S2 E0:1 H2:47 A0:19 C1 F00 X00)

Layer TMP<17> DELETED -- LVHEAP = 2/5/5

tl4d = EXTENTS TMP<17> CENTERS 0.04
-----------------------------------
tl4d (HIER TYP=1 CFG=1 HGC=0 FGC=0 HEC=0 FEC=0 IGC=0 VHC=F VPC=F)
CPU TIME = 0  REAL TIME = 0  LVHEAP = 2/5/5  OPS COMPLETE = 62 OF 137  ELAPSED TIME = 1
Operation COMPLETED on HDB 0  LVHEAP = 2/5/5

TMP<19> = tl4c NOT INTERACT tl4d
--------------------------------
Operation EXECUTING on HDB 0 (T1 S2 E0:1 H2:48 A0:19 C1 F00 X00)

Layer tl4c DELETED -- LVHEAP = 2/5/5

TMP<19> = tl4c NOT INTERACT tl4d
--------------------------------

WARNING: Layer TMP<19> CREATED with an exclusive FLAT instantiation.

TMP<19> (FLAT TYP=1 CFG=0 ECT=8 OCT=4 SRT=1 CMP=F MPN=0)
CPU TIME = 0  REAL TIME = 0  LVHEAP = 2/5/5  OPS COMPLETE = 63 OF 137  ELAPSED TIME = 1
Operation COMPLETED on HDB 0  LVHEAP = 2/5/5

TMP<18> = tl4d OR TMP<19>
-------------------------
Operation EXECUTING on HDB 0 (T1 S2 E0:1 H2:49 A0:19 C1 F00 X00)

Layer tl4d DELETED -- LVHEAP = 2/5/5

Layer TMP<19> DELETED -- LVHEAP = 2/5/5

TMP<18> = tl4d OR TMP<19>
-------------------------

WARNING: Layer TMP<18> CREATED with an exclusive FLAT instantiation.

TMP<18> (FLAT TYP=1 CFG=0 ECT=8 OCT=4 SRT=1 CMP=F MPN=0)
CPU TIME = 0  REAL TIME = 0  LVHEAP = 2/5/5  OPS COMPLETE = 64 OF 137  ELAPSED TIME = 1
Operation COMPLETED on HDB 0  LVHEAP = 2/5/5

TMP<20> = tl4a NOT INTERACT tl4b3
---------------------------------
Operation EXECUTING on HDB 0 (T1 S2 E0:1 H1:49 A0:19 C1 F00 X00)

Layer tl4a DELETED -- LVHEAP = 2/5/5

Layer tl4b3 DELETED -- LVHEAP = 2/5/5

TMP<20> = tl4a NOT INTERACT tl4b3
---------------------------------

WARNING: Layer TMP<20> CREATED with an exclusive FLAT instantiation.

TMP<20> (FLAT TYP=1 CFG=0 ECT=1300 OCT=650 SRT=1 CMP=F MPN=0)
CPU TIME = 0  REAL TIME = 0  LVHEAP = 2/5/5  OPS COMPLETE = 65 OF 137  ELAPSED TIME = 1
Operation COMPLETED on HDB 0  LVHEAP = 2/5/5

tl4 = TMP<18> OR TMP<20>
------------------------
Operation EXECUTING on HDB 0 (T1 S2 E0:1 H1:50 A0:19 C1 F00 X00)

Layer TMP<18> DELETED -- LVHEAP = 2/5/5

Layer TMP<20> DELETED -- LVHEAP = 2/5/5

tl4 = TMP<18> OR TMP<20>
------------------------

WARNING: Layer tl4 CREATED with an exclusive FLAT instantiation.

tl4 (FLAT TYP=1 CFG=1 ECT=1308 OCT=654 SRT=1 CMP=F MPN=654)
CPU TIME = 0  REAL TIME = 0  LVHEAP = 2/5/5  OPS COMPLETE = 66 OF 137  ELAPSED TIME = 1
Operation COMPLETED on HDB 0  LVHEAP = 2/5/5

R_SRAF:0 = tl2 AND tl4
----------------------
Operation EXECUTING on HDB 0 (T1 S2 E0:1 H2:52 A0:19 C1 F00 X00)

R_SRAF:0 = tl2 AND tl4
----------------------

WARNING: Layer R_SRAF:0 CREATED with an exclusive FLAT instantiation.

R_SRAF:0 (FLAT TYP=1 CFG=1 ECT=1316 OCT=658 SRT=1 CMP=F MPN=658)
CPU TIME = 0  REAL TIME = 0  LVHEAP = 2/5/5  OPS COMPLETE = 67 OF 137  ELAPSED TIME = 1
Operation COMPLETED on HDB 0  LVHEAP = 2/5/5

H_SRAF = tl4 INTERACT H_EDGE
----------------------------
Operation EXECUTING on HDB 0 (T1 S2 E0:1 H1:52 A0:19 C1 F00 X00)

Layer tl4 DELETED -- LVHEAP = 2/5/5

H_SRAF = tl4 INTERACT H_EDGE
----------------------------

WARNING: Layer H_SRAF CREATED with an exclusive FLAT instantiation.


WARNING: Creating a FLAT COPY of layer H_EDGE.

H_SRAF (FLAT TYP=1 CFG=1 ECT=674 OCT=337 SRT=1 CMP=F MPN=628)
CPU TIME = 0  REAL TIME = 0  LVHEAP = 2/5/5  OPS COMPLETE = 68 OF 137  ELAPSED TIME = 1
Operation COMPLETED on HDB 0  LVHEAP = 2/5/5

R_SRAF:1 = R_SRAF:0 NOT INTERACT H_SRAF
---------------------------------------
Operation EXECUTING on HDB 0 (T1 S2 E0:1 H1:53 A0:19 C1 F00 X00)

Layer R_SRAF:0 DELETED -- LVHEAP = 2/5/5

R_SRAF:1 = R_SRAF:0 NOT INTERACT H_SRAF
---------------------------------------

WARNING: Layer R_SRAF:1 CREATED with an exclusive FLAT instantiation.

R_SRAF:1 (FLAT TYP=1 CFG=1 ECT=634 OCT=317 SRT=1 CMP=F MPN=658)
CPU TIME = 0  REAL TIME = 0  LVHEAP = 2/5/5  OPS COMPLETE = 69 OF 137  ELAPSED TIME = 1
Operation COMPLETED on HDB 0  LVHEAP = 2/5/5

TMP<31> = tl2 INTERACT V_EDGE
-----------------------------
Operation EXECUTING on HDB 0 (T1 S2 E0:1 H0:53 A0:19 C1 F00 X00)

Layer tl2 DELETED -- LVHEAP = 2/5/5

TMP<31> = tl2 INTERACT V_EDGE
-----------------------------

WARNING: Layer TMP<31> CREATED with an exclusive FLAT instantiation.


WARNING: Creating a FLAT COPY of layer V_EDGE.

TMP<31> (FLAT TYP=1 CFG=1 ECT=636 OCT=318 SRT=1 CMP=F MPN=655)
CPU TIME = 0  REAL TIME = 0  LVHEAP = 2/5/5  OPS COMPLETE = 70 OF 137  ELAPSED TIME = 1
Operation COMPLETED on HDB 0  LVHEAP = 2/5/5

V_SRAF = TMP<31> NOT INTERACT H_SRAF
------------------------------------
Operation EXECUTING on HDB 0 (T1 S2 E0:1 H0:54 A0:19 C1 F00 X00)

Layer TMP<31> DELETED -- LVHEAP = 2/5/5

V_SRAF = TMP<31> NOT INTERACT H_SRAF
------------------------------------

WARNING: Layer V_SRAF CREATED with an exclusive FLAT instantiation.

V_SRAF (FLAT TYP=1 CFG=1 ECT=526 OCT=263 SRT=1 CMP=F MPN=655)
CPU TIME = 0  REAL TIME = 0  LVHEAP = 2/5/5  OPS COMPLETE = 71 OF 137  ELAPSED TIME = 1
Operation COMPLETED on HDB 0  LVHEAP = 2/5/5

R_SRAF = R_SRAF:1 NOT INTERACT V_SRAF
-------------------------------------
Operation EXECUTING on HDB 0 (T1 S2 E0:1 H1:56 A0:19 C1 F00 X00)

Layer R_SRAF:1 DELETED -- LVHEAP = 2/5/5

R_SRAF = R_SRAF:1 NOT INTERACT V_SRAF
-------------------------------------

WARNING: Layer R_SRAF CREATED with an exclusive FLAT instantiation.

R_SRAF (FLAT TYP=1 CFG=0 ECT=104 OCT=52 SRT=1 CMP=F MPN=0)
CPU TIME = 0  REAL TIME = 0  LVHEAP = 2/5/5  OPS COMPLETE = 72 OF 137  ELAPSED TIME = 1
Operation COMPLETED on HDB 0  LVHEAP = 2/5/5

TMP<32> = H_SRAF OR V_SRAF
--------------------------
Operation EXECUTING on HDB 0 (T1 S2 E0:1 H0:56 A0:19 C1 F00 X00)

Layer H_SRAF DELETED -- LVHEAP = 2/5/5

Layer V_SRAF DELETED -- LVHEAP = 2/5/5

TMP<32> = H_SRAF OR V_SRAF
--------------------------

WARNING: Layer TMP<32> CREATED with an exclusive FLAT instantiation.

TMP<32> (FLAT TYP=1 CFG=0 ECT=1200 OCT=600 SRT=1 CMP=F MPN=0)
CPU TIME = 0  REAL TIME = 0  LVHEAP = 2/5/5  OPS COMPLETE = 73 OF 137  ELAPSED TIME = 1
Operation COMPLETED on HDB 0  LVHEAP = 2/5/5

ML_SRAF = R_SRAF OR TMP<32>
---------------------------
Operation EXECUTING on HDB 0 (T1 S2 E0:1 H0:57 A0:19 C1 F00 X00)

Layer R_SRAF DELETED -- LVHEAP = 2/5/5

Layer TMP<32> DELETED -- LVHEAP = 2/5/5

ML_SRAF = R_SRAF OR TMP<32>
---------------------------

WARNING: Layer ML_SRAF CREATED with an exclusive FLAT instantiation.

ML_SRAF (FLAT TYP=1 CFG=1 ECT=1304 OCT=652 SRT=1 CMP=F MPN=652)
CPU TIME = 0  REAL TIME = 0  LVHEAP = 2/5/5  OPS COMPLETE = 74 OF 137  ELAPSED TIME = 1
Operation COMPLETED on HDB 0  LVHEAP = 2/5/5

sraf_tmp:0 = AREA ML_SRAF <= 0.0036
-----------------------------------
Operation EXECUTING on HDB 0 (T1 S2 E0:1 H0:58 A0:19 C1 F00 X00)

sraf_tmp:0 = AREA ML_SRAF <= 0.0036
-----------------------------------

WARNING: Layer sraf_tmp:0 CREATED with an exclusive FLAT instantiation.

sraf_tmp:0 (FLAT TYP=1 CFG=1 ECT=706 OCT=353 SRT=1 CMP=F MPN=652)
CPU TIME = 0  REAL TIME = 0  LVHEAP = 2/5/5  OPS COMPLETE = 75 OF 137  ELAPSED TIME = 1
Operation COMPLETED on HDB 0  LVHEAP = 2/5/5

sraf_tmp:1 = EXT sraf_tmp:0 <= 0.06 REGION EXTENTS
--------------------------------------------------
Operation EXECUTING on HDB 0 (T1 S2 E0:1 H0:59 A0:19 C1 F00 X00)

sraf_tmp:1 = EXT sraf_tmp:0 <= 0.06 REGION EXTENTS
--------------------------------------------------

WARNING: Layer sraf_tmp:1 CREATED with an exclusive FLAT instantiation.

sraf_tmp:1 (FLAT TYP=1 CFG=1 ECT=228 OCT=121 SRT=1 CMP=F MPN=81)
CPU TIME = 0  REAL TIME = 0  LVHEAP = 2/5/5  OPS COMPLETE = 76 OF 137  ELAPSED TIME = 1
Operation COMPLETED on HDB 0  LVHEAP = 2/5/5

TMP<33> = sraf_tmp:0 INTERACT sraf_tmp:1
----------------------------------------
Operation EXECUTING on HDB 0 (T1 S2 E0:1 H0:60 A0:19 C1 F00 X00)

Layer sraf_tmp:0 DELETED -- LVHEAP = 2/5/5

TMP<33> = sraf_tmp:0 INTERACT sraf_tmp:1
----------------------------------------

WARNING: Layer TMP<33> CREATED with an exclusive FLAT instantiation.

TMP<33> (FLAT TYP=1 CFG=0 ECT=298 OCT=149 SRT=1 CMP=F MPN=0)
CPU TIME = 0  REAL TIME = 0  LVHEAP = 2/5/5  OPS COMPLETE = 77 OF 137  ELAPSED TIME = 1
Operation COMPLETED on HDB 0  LVHEAP = 2/5/5

sraf_tmp:2 = sraf_tmp:1 OR TMP<33>
----------------------------------
Operation EXECUTING on HDB 0 (T1 S2 E0:1 H0:61 A0:19 C1 F00 X00)

Layer sraf_tmp:1 DELETED -- LVHEAP = 2/5/5

Layer TMP<33> DELETED -- LVHEAP = 2/5/5

sraf_tmp:2 = sraf_tmp:1 OR TMP<33>
----------------------------------

WARNING: Layer sraf_tmp:2 CREATED with an exclusive FLAT instantiation.

sraf_tmp:2 (FLAT TYP=1 CFG=1 ECT=368 OCT=339 SRT=1 CMP=F MPN=62)
CPU TIME = 0  REAL TIME = 0  LVHEAP = 2/5/5  OPS COMPLETE = 78 OF 137  ELAPSED TIME = 1
Operation COMPLETED on HDB 0  LVHEAP = 2/5/5

TMP<34> = EXTENTS sraf_tmp:2
----------------------------
Operation EXECUTING on HDB 0 (T1 S2 E0:1 H0:62 A0:19 C1 F00 X00)

TMP<34> = EXTENTS sraf_tmp:2
----------------------------

WARNING: Layer TMP<34> CREATED with an exclusive FLAT instantiation.

TMP<34> (FLAT TYP=1 CFG=1 ECT=124 OCT=62 SRT=1 CMP=F MPN=62)
CPU TIME = 0  REAL TIME = 0  LVHEAP = 2/5/5  OPS COMPLETE = 79 OF 137  ELAPSED TIME = 1
Operation COMPLETED on HDB 0  LVHEAP = 2/5/5

sraf_tmp:2a = LENGTH TMP<34> >= 0.27
------------------------------------
Operation EXECUTING on HDB 0 (T1 S2 E0:1 H0:63 A0:19 C1 F00 X00)

Layer TMP<34> DELETED -- LVHEAP = 2/5/5

sraf_tmp:2a = LENGTH TMP<34> >= 0.27
------------------------------------

WARNING: Layer sraf_tmp:2a CREATED with an exclusive FLAT instantiation.

sraf_tmp:2a (FLAT TYP=2 CFG=0 ECT=12 OCT=12 SRT=1 CMP=F MPN=0)
CPU TIME = 0  REAL TIME = 0  LVHEAP = 2/5/5  OPS COMPLETE = 80 OF 137  ELAPSED TIME = 1
Operation COMPLETED on HDB 0  LVHEAP = 2/5/5

TMP<35> = EXPAND EDGE sraf_tmp:2a INSIDE BY 0.001
-------------------------------------------------
Operation EXECUTING on HDB 0 (T1 S2 E0:1 H0:64 A0:19 C1 F00 X00)

Layer sraf_tmp:2a DELETED -- LVHEAP = 2/5/5

TMP<35> = EXPAND EDGE sraf_tmp:2a INSIDE BY 0.001
-------------------------------------------------

WARNING: Layer TMP<35> CREATED with an exclusive FLAT instantiation.

TMP<35> (FLAT TYP=1 CFG=1 ECT=24 OCT=12 SRT=1 CMP=F MPN=12)
CPU TIME = 0  REAL TIME = 0  LVHEAP = 2/5/5  OPS COMPLETE = 81 OF 137  ELAPSED TIME = 1
Operation COMPLETED on HDB 0  LVHEAP = 2/5/5

sraf_tmp:2b = sraf_tmp:2 INTERACT TMP<35>
-----------------------------------------
Operation EXECUTING on HDB 0 (T1 S2 E0:1 H0:65 A0:19 C1 F00 X00)

Layer TMP<35> DELETED -- LVHEAP = 2/5/5

sraf_tmp:2b = sraf_tmp:2 INTERACT TMP<35>
-----------------------------------------

WARNING: Layer sraf_tmp:2b CREATED with an exclusive FLAT instantiation.

sraf_tmp:2b (FLAT TYP=1 CFG=1 ECT=56 OCT=53 SRT=1 CMP=F MPN=58)
CPU TIME = 0  REAL TIME = 0  LVHEAP = 2/5/5  OPS COMPLETE = 82 OF 137  ELAPSED TIME = 1
Operation COMPLETED on HDB 0  LVHEAP = 2/5/5

TMP<36> = EXTENTS sraf_tmp:2b CENTERS 0.08
------------------------------------------
Operation EXECUTING on HDB 0 (T1 S2 E0:1 H0:66 A0:19 C1 F00 X00)

TMP<36> = EXTENTS sraf_tmp:2b CENTERS 0.08
------------------------------------------

WARNING: Layer TMP<36> CREATED with an exclusive FLAT instantiation.

TMP<36> (FLAT TYP=1 CFG=0 ECT=12 OCT=6 SRT=1 CMP=F MPN=0)
CPU TIME = 0  REAL TIME = 0  LVHEAP = 2/5/5  OPS COMPLETE = 83 OF 137  ELAPSED TIME = 1
Operation COMPLETED on HDB 0  LVHEAP = 2/5/5

sraf_tmp:2c = sraf_tmp:2b NOT TMP<36>
-------------------------------------
Operation EXECUTING on HDB 0 (T1 S2 E0:1 H0:67 A0:19 C1 F00 X00)

Layer sraf_tmp:2b DELETED -- LVHEAP = 2/5/5

Layer TMP<36> DELETED -- LVHEAP = 2/5/5

sraf_tmp:2c = sraf_tmp:2b NOT TMP<36>
-------------------------------------

WARNING: Layer sraf_tmp:2c CREATED with an exclusive FLAT instantiation.

sraf_tmp:2c (FLAT TYP=1 CFG=1 ECT=63 OCT=59 SRT=1 CMP=F MPN=9)
CPU TIME = 0  REAL TIME = 0  LVHEAP = 2/5/5  OPS COMPLETE = 84 OF 137  ELAPSED TIME = 1
Operation COMPLETED on HDB 0  LVHEAP = 2/5/5

TMP<37> = sraf_tmp:2 NOT INTERACT sraf_tmp:2c
---------------------------------------------
Operation EXECUTING on HDB 0 (T1 S2 E0:1 H0:68 A0:19 C1 F00 X00)

Layer sraf_tmp:2 DELETED -- LVHEAP = 2/5/5

TMP<37> = sraf_tmp:2 NOT INTERACT sraf_tmp:2c
---------------------------------------------

WARNING: Layer TMP<37> CREATED with an exclusive FLAT instantiation.

TMP<37> (FLAT TYP=1 CFG=0 ECT=312 OCT=286 SRT=1 CMP=F MPN=0)
CPU TIME = 0  REAL TIME = 0  LVHEAP = 2/5/5  OPS COMPLETE = 85 OF 137  ELAPSED TIME = 1
Operation COMPLETED on HDB 0  LVHEAP = 2/5/5

sraf_tmp:2d = sraf_tmp:2c OR TMP<37>
------------------------------------
Operation EXECUTING on HDB 0 (T1 S2 E0:1 H0:69 A0:19 C1 F00 X00)

Layer sraf_tmp:2c DELETED -- LVHEAP = 2/5/5

Layer TMP<37> DELETED -- LVHEAP = 2/5/5

sraf_tmp:2d = sraf_tmp:2c OR TMP<37>
------------------------------------

WARNING: Layer sraf_tmp:2d CREATED with an exclusive FLAT instantiation.

sraf_tmp:2d (FLAT TYP=1 CFG=1 ECT=375 OCT=345 SRT=1 CMP=F MPN=65)
CPU TIME = 0  REAL TIME = 0  LVHEAP = 2/5/5  OPS COMPLETE = 86 OF 137  ELAPSED TIME = 1
Operation COMPLETED on HDB 0  LVHEAP = 2/5/5

sraf_tmp:3 = EXTENTS sraf_tmp:2d CENTERS 0.04
---------------------------------------------
Operation EXECUTING on HDB 0 (T1 S2 E0:1 H0:70 A0:19 C1 F00 X00)

sraf_tmp:3 = EXTENTS sraf_tmp:2d CENTERS 0.04
---------------------------------------------

WARNING: Layer sraf_tmp:3 CREATED with an exclusive FLAT instantiation.

sraf_tmp:3 (FLAT TYP=1 CFG=1 ECT=130 OCT=65 SRT=1 CMP=F MPN=65)
CPU TIME = 0  REAL TIME = 0  LVHEAP = 2/5/5  OPS COMPLETE = 87 OF 137  ELAPSED TIME = 1
Operation COMPLETED on HDB 0  LVHEAP = 2/5/5

TMP<40> = ANGLE sraf_tmp:3 == 90
TMP<38> = ANGLE sraf_tmp:3 == 0
--------------------------------
Operation EXECUTING on HDB 0 (T1 S2 E0:1 H0:71 A0:19 C1 F00 X00)

TMP<40> = ANGLE sraf_tmp:3 == 90
TMP<38> = ANGLE sraf_tmp:3 == 0
--------------------------------

WARNING: Layer TMP<40> CREATED with an exclusive FLAT instantiation.


WARNING: Layer TMP<38> CREATED with an exclusive FLAT instantiation.

TMP<40> (FLAT TYP=2 CFG=1 ECT=130 OCT=130 SRT=1 CMP=F MPN=65)
TMP<38> (FLAT TYP=2 CFG=1 ECT=130 OCT=130 SRT=1 CMP=F MPN=65)
CPU TIME = 0  REAL TIME = 0  LVHEAP = 2/5/5  OPS COMPLETE = 89 OF 137  ELAPSED TIME = 1
Operation COMPLETED on HDB 0  LVHEAP = 2/5/5

sraf_tmp:6 = ENC TMP<40> sraf_tmp:2d < 0.2 REGION OPPOSITE
----------------------------------------------------------
Operation EXECUTING on HDB 0 (T1 S2 E0:1 H1:73 A0:19 C1 F00 X00)

Layer TMP<40> DELETED -- LVHEAP = 2/5/5

sraf_tmp:6 = ENC TMP<40> sraf_tmp:2d < 0.2 REGION OPPOSITE
----------------------------------------------------------

WARNING: Layer sraf_tmp:6 CREATED with an exclusive FLAT instantiation.

sraf_tmp:6 (FLAT TYP=1 CFG=0 ECT=243 OCT=165 SRT=1 CMP=F MPN=0)
CPU TIME = 0  REAL TIME = 0  LVHEAP = 2/5/5  OPS COMPLETE = 90 OF 137  ELAPSED TIME = 1
Operation COMPLETED on HDB 0  LVHEAP = 2/5/5

TMP<41> = sraf_tmp:3 OR sraf_tmp:6
----------------------------------
Operation EXECUTING on HDB 0 (T1 S2 E0:1 H1:74 A0:19 C1 F00 X00)

Layer sraf_tmp:6 DELETED -- LVHEAP = 2/5/5

TMP<41> = sraf_tmp:3 OR sraf_tmp:6
----------------------------------

WARNING: Layer TMP<41> CREATED with an exclusive FLAT instantiation.

TMP<41> (FLAT TYP=1 CFG=1 ECT=210 OCT=187 SRT=1 CMP=F MPN=65)
CPU TIME = 0  REAL TIME = 0  LVHEAP = 2/5/5  OPS COMPLETE = 91 OF 137  ELAPSED TIME = 1
Operation COMPLETED on HDB 0  LVHEAP = 2/5/5

sraf_tmp:7 = EXTENTS TMP<41>
----------------------------
Operation EXECUTING on HDB 0 (T1 S2 E0:1 H1:75 A0:19 C1 F00 X00)

Layer TMP<41> DELETED -- LVHEAP = 2/5/5

sraf_tmp:7 = EXTENTS TMP<41>
----------------------------

WARNING: Layer sraf_tmp:7 CREATED with an exclusive FLAT instantiation.

sraf_tmp:7 (FLAT TYP=1 CFG=1 ECT=130 OCT=65 SRT=1 CMP=F MPN=65)
CPU TIME = 0  REAL TIME = 0  LVHEAP = 2/5/5  OPS COMPLETE = 92 OF 137  ELAPSED TIME = 1
Operation COMPLETED on HDB 0  LVHEAP = 2/5/5

H_SRAF:2 = sraf_tmp:7 INTERACT H_EDGE
-------------------------------------
Operation EXECUTING on HDB 0 (T1 S2 E0:1 H1:76 A0:19 C1 F00 X00)

Layer sraf_tmp:7 DELETED -- LVHEAP = 2/5/5

H_SRAF:2 = sraf_tmp:7 INTERACT H_EDGE
-------------------------------------

WARNING: Layer H_SRAF:2 CREATED with an exclusive FLAT instantiation.


WARNING: Creating a FLAT COPY of layer H_EDGE.

H_SRAF:2 (FLAT TYP=1 CFG=1 ECT=80 OCT=40 SRT=1 CMP=F MPN=63)
CPU TIME = 0  REAL TIME = 0  LVHEAP = 2/5/5  OPS COMPLETE = 93 OF 137  ELAPSED TIME = 1
Operation COMPLETED on HDB 0  LVHEAP = 2/5/5

sraf_tmp:4 = ENC TMP<38> sraf_tmp:2d < 0.2 REGION OPPOSITE
----------------------------------------------------------
Operation EXECUTING on HDB 0 (T1 S2 E0:1 H0:76 A0:19 C1 F00 X00)

Layer TMP<38> DELETED -- LVHEAP = 2/5/5

Layer sraf_tmp:2d DELETED -- LVHEAP = 2/5/5

sraf_tmp:4 = ENC TMP<38> sraf_tmp:2d < 0.2 REGION OPPOSITE
----------------------------------------------------------

WARNING: Layer sraf_tmp:4 CREATED with an exclusive FLAT instantiation.

sraf_tmp:4 (FLAT TYP=1 CFG=0 ECT=266 OCT=187 SRT=1 CMP=F MPN=0)
CPU TIME = 0  REAL TIME = 0  LVHEAP = 2/5/5  OPS COMPLETE = 94 OF 137  ELAPSED TIME = 1
Operation COMPLETED on HDB 0  LVHEAP = 2/5/5

TMP<39> = sraf_tmp:3 OR sraf_tmp:4
----------------------------------
Operation EXECUTING on HDB 0 (T1 S2 E0:1 H0:77 A0:19 C1 F00 X00)

Layer sraf_tmp:3 DELETED -- LVHEAP = 2/5/5

Layer sraf_tmp:4 DELETED -- LVHEAP = 2/5/5

TMP<39> = sraf_tmp:3 OR sraf_tmp:4
----------------------------------

WARNING: Layer TMP<39> CREATED with an exclusive FLAT instantiation.

TMP<39> (FLAT TYP=1 CFG=1 ECT=225 OCT=196 SRT=1 CMP=F MPN=65)
CPU TIME = 0  REAL TIME = 0  LVHEAP = 2/5/5  OPS COMPLETE = 95 OF 137  ELAPSED TIME = 1
Operation COMPLETED on HDB 0  LVHEAP = 2/5/5

sraf_tmp:5 = EXTENTS TMP<39>
----------------------------
Operation EXECUTING on HDB 0 (T1 S2 E0:1 H0:78 A0:19 C1 F00 X00)

Layer TMP<39> DELETED -- LVHEAP = 2/5/5

sraf_tmp:5 = EXTENTS TMP<39>
----------------------------

WARNING: Layer sraf_tmp:5 CREATED with an exclusive FLAT instantiation.

sraf_tmp:5 (FLAT TYP=1 CFG=1 ECT=130 OCT=65 SRT=1 CMP=F MPN=65)
CPU TIME = 0  REAL TIME = 0  LVHEAP = 2/5/5  OPS COMPLETE = 96 OF 137  ELAPSED TIME = 1
Operation COMPLETED on HDB 0  LVHEAP = 2/5/5

TMP<42> = sraf_tmp:5 INTERACT V_EDGE
------------------------------------
Operation EXECUTING on HDB 0 (T1 S2 E0:1 H0:79 A0:19 C1 F00 X00)

Layer sraf_tmp:5 DELETED -- LVHEAP = 2/5/5

TMP<42> = sraf_tmp:5 INTERACT V_EDGE
------------------------------------

WARNING: Layer TMP<42> CREATED with an exclusive FLAT instantiation.


WARNING: Creating a FLAT COPY of layer V_EDGE.

TMP<42> (FLAT TYP=1 CFG=1 ECT=62 OCT=31 SRT=1 CMP=F MPN=65)
CPU TIME = 0  REAL TIME = 0  LVHEAP = 2/5/5  OPS COMPLETE = 97 OF 137  ELAPSED TIME = 1
Operation COMPLETED on HDB 0  LVHEAP = 2/5/5

V_SRAF:2 = TMP<42> NOT INTERACT H_SRAF:2
----------------------------------------
Operation EXECUTING on HDB 0 (T1 S2 E0:1 H0:80 A0:19 C1 F00 X00)

Layer TMP<42> DELETED -- LVHEAP = 2/5/5

V_SRAF:2 = TMP<42> NOT INTERACT H_SRAF:2
----------------------------------------

WARNING: Layer V_SRAF:2 CREATED with an exclusive FLAT instantiation.

V_SRAF:2 (FLAT TYP=1 CFG=0 ECT=44 OCT=22 SRT=1 CMP=F MPN=0)
CPU TIME = 0  REAL TIME = 0  LVHEAP = 2/5/5  OPS COMPLETE = 98 OF 137  ELAPSED TIME = 1
Operation COMPLETED on HDB 0  LVHEAP = 2/5/5

R_SRAF:2 = H_SRAF:2 OR V_SRAF:2
-------------------------------
Operation EXECUTING on HDB 0 (T1 S2 E0:1 H0:81 A0:19 C1 F00 X00)

Layer H_SRAF:2 DELETED -- LVHEAP = 2/5/5

Layer V_SRAF:2 DELETED -- LVHEAP = 2/5/5

R_SRAF:2 = H_SRAF:2 OR V_SRAF:2
-------------------------------

WARNING: Layer R_SRAF:2 CREATED with an exclusive FLAT instantiation.

R_SRAF:2 (FLAT TYP=1 CFG=1 ECT=124 OCT=62 SRT=1 CMP=F MPN=62)
CPU TIME = 0  REAL TIME = 0  LVHEAP = 2/5/5  OPS COMPLETE = 99 OF 137  ELAPSED TIME = 1
Operation COMPLETED on HDB 0  LVHEAP = 2/5/5

TMP<43> = ML_SRAF NOT INTERACT R_SRAF:2
---------------------------------------
Operation EXECUTING on HDB 0 (T1 S2 E0:1 H0:82 A0:19 C1 F00 X00)

Layer ML_SRAF DELETED -- LVHEAP = 2/5/5

TMP<43> = ML_SRAF NOT INTERACT R_SRAF:2
---------------------------------------

WARNING: Layer TMP<43> CREATED with an exclusive FLAT instantiation.

TMP<43> (FLAT TYP=1 CFG=0 ECT=1124 OCT=562 SRT=1 CMP=F MPN=0)
CPU TIME = 0  REAL TIME = 0  LVHEAP = 2/5/5  OPS COMPLETE = 100 OF 137  ELAPSED TIME = 1
Operation COMPLETED on HDB 0  LVHEAP = 2/5/5

ML_SRAF:2 = R_SRAF:2 OR TMP<43>
-------------------------------
Operation EXECUTING on HDB 0 (T1 S2 E0:1 H0:83 A0:19 C1 F00 X00)

Layer R_SRAF:2 DELETED -- LVHEAP = 2/5/5

Layer TMP<43> DELETED -- LVHEAP = 2/5/5

ML_SRAF:2 = R_SRAF:2 OR TMP<43>
-------------------------------

WARNING: Layer ML_SRAF:2 CREATED with an exclusive FLAT instantiation.

ML_SRAF:2 (FLAT TYP=1 CFG=1 ECT=1248 OCT=624 SRT=1 CMP=F MPN=624)
CPU TIME = 0  REAL TIME = 0  LVHEAP = 2/5/5  OPS COMPLETE = 101 OF 137  ELAPSED TIME = 1
Operation COMPLETED on HDB 0  LVHEAP = 2/5/5

TMP<45> = LENGTH ML_SRAF:2 > 0.09
---------------------------------
Operation EXECUTING on HDB 0 (T1 S2 E0:1 H0:84 A0:19 C1 F00 X00)

TMP<45> = LENGTH ML_SRAF:2 > 0.09
---------------------------------

WARNING: Layer TMP<45> CREATED with an exclusive FLAT instantiation.

TMP<45> (FLAT TYP=2 CFG=0 ECT=682 OCT=682 SRT=1 CMP=F MPN=0)
CPU TIME = 0  REAL TIME = 0  LVHEAP = 2/5/5  OPS COMPLETE = 102 OF 137  ELAPSED TIME = 1
Operation COMPLETED on HDB 0  LVHEAP = 2/5/5

TMP<44> = EXPAND EDGE TMP<45> INSIDE BY 0.001
---------------------------------------------
Operation EXECUTING on HDB 0 (T1 S2 E0:1 H0:85 A0:19 C1 F00 X00)

Layer TMP<45> DELETED -- LVHEAP = 2/5/5

TMP<44> = EXPAND EDGE TMP<45> INSIDE BY 0.001
---------------------------------------------

WARNING: Layer TMP<44> CREATED with an exclusive FLAT instantiation.

TMP<44> (FLAT TYP=1 CFG=1 ECT=1364 OCT=682 SRT=1 CMP=F MPN=682)
CPU TIME = 0  REAL TIME = 0  LVHEAP = 2/5/5  OPS COMPLETE = 103 OF 137  ELAPSED TIME = 1
Operation COMPLETED on HDB 0  LVHEAP = 2/5/5

lsraf1 = ML_SRAF:2 INTERACT TMP<44>
-----------------------------------
Operation EXECUTING on HDB 0 (T1 S2 E0:1 H0:86 A0:19 C1 F00 X00)

Layer TMP<44> DELETED -- LVHEAP = 2/5/5

lsraf1 = ML_SRAF:2 INTERACT TMP<44>
-----------------------------------

WARNING: Layer lsraf1 CREATED with an exclusive FLAT instantiation.

lsraf1 (FLAT TYP=1 CFG=1 ECT=682 OCT=341 SRT=1 CMP=F MPN=623)
CPU TIME = 0  REAL TIME = 0  LVHEAP = 2/5/5  OPS COMPLETE = 104 OF 137  ELAPSED TIME = 1
Operation COMPLETED on HDB 0  LVHEAP = 2/5/5

lsraf_cent = EXTENTS lsraf1 CENTERS 0.09
----------------------------------------
Operation EXECUTING on HDB 0 (T1 S2 E0:1 H0:87 A0:19 C1 F00 X00)

lsraf_cent = EXTENTS lsraf1 CENTERS 0.09
----------------------------------------

WARNING: Layer lsraf_cent CREATED with an exclusive FLAT instantiation.

lsraf_cent (FLAT TYP=1 CFG=1 ECT=682 OCT=341 SRT=1 CMP=F MPN=341)
CPU TIME = 0  REAL TIME = 0  LVHEAP = 2/5/5  OPS COMPLETE = 105 OF 137  ELAPSED TIME = 1
Operation COMPLETED on HDB 0  LVHEAP = 2/5/5

TMP<46> = lsraf1 AND lsraf_cent
-------------------------------
Operation EXECUTING on HDB 0 (T1 S2 E0:1 H1:89 A0:19 C1 F00 X00)

Layer lsraf1 DELETED -- LVHEAP = 2/5/5

TMP<46> = lsraf1 AND lsraf_cent
-------------------------------

WARNING: Layer TMP<46> CREATED with an exclusive FLAT instantiation.

TMP<46> (FLAT TYP=1 CFG=0 ECT=688 OCT=344 SRT=1 CMP=F MPN=0)
CPU TIME = 0  REAL TIME = 0  LVHEAP = 2/5/5  OPS COMPLETE = 106 OF 137  ELAPSED TIME = 1
Operation COMPLETED on HDB 0  LVHEAP = 2/5/5

TMP<47> = ML_SRAF:2 NOT INTERACT lsraf_cent
-------------------------------------------
Operation EXECUTING on HDB 0 (T1 S2 E0:1 H0:89 A0:19 C1 F00 X00)

Layer ML_SRAF:2 DELETED -- LVHEAP = 2/5/5

Layer lsraf_cent DELETED -- LVHEAP = 2/5/5

TMP<47> = ML_SRAF:2 NOT INTERACT lsraf_cent
-------------------------------------------

WARNING: Layer TMP<47> CREATED with an exclusive FLAT instantiation.

TMP<47> (FLAT TYP=1 CFG=0 ECT=550 OCT=275 SRT=1 CMP=F MPN=0)
CPU TIME = 0  REAL TIME = 0  LVHEAP = 2/5/5  OPS COMPLETE = 107 OF 137  ELAPSED TIME = 1
Operation COMPLETED on HDB 0  LVHEAP = 2/5/5

lay_sraf_f1 = TMP<46> OR TMP<47>
--------------------------------
Operation EXECUTING on HDB 0 (T1 S2 E0:1 H0:90 A0:19 C1 F00 X00)

Layer TMP<46> DELETED -- LVHEAP = 2/5/5

Layer TMP<47> DELETED -- LVHEAP = 2/5/5

lay_sraf_f1 = TMP<46> OR TMP<47>
--------------------------------

WARNING: Layer lay_sraf_f1 CREATED with an exclusive FLAT instantiation.

lay_sraf_f1 (FLAT TYP=1 CFG=1 ECT=1238 OCT=619 SRT=1 CMP=F MPN=619)
CPU TIME = 0  REAL TIME = 0  LVHEAP = 2/5/5  OPS COMPLETE = 108 OF 137  ELAPSED TIME = 1
Operation COMPLETED on HDB 0  LVHEAP = 2/5/5

spc01 = EXT lay_sraf_f1 <= 0.06 REGION EXTENTS
----------------------------------------------
Operation EXECUTING on HDB 0 (T1 S2 E0:1 H0:91 A0:19 C1 F00 X00)

spc01 = EXT lay_sraf_f1 <= 0.06 REGION EXTENTS
----------------------------------------------

WARNING: Layer spc01 CREATED with an exclusive FLAT instantiation.

spc01 (FLAT TYP=1 CFG=1 ECT=423 OCT=237 SRT=1 CMP=F MPN=126)
CPU TIME = 0  REAL TIME = 0  LVHEAP = 2/5/5  OPS COMPLETE = 109 OF 137  ELAPSED TIME = 1
Operation COMPLETED on HDB 0  LVHEAP = 2/5/5

spc02 = lay_sraf_f1 TOUCH EDGE spc01
------------------------------------
Operation EXECUTING on HDB 0 (T1 S2 E0:1 H0:92 A0:19 C1 F00 X00)

Layer spc01 DELETED -- LVHEAP = 2/5/5

spc02 = lay_sraf_f1 TOUCH EDGE spc01
------------------------------------

WARNING: Layer spc02 CREATED with an exclusive FLAT instantiation.

spc02 (FLAT TYP=2 CFG=0 ECT=365 OCT=365 SRT=1 CMP=F MPN=0)
CPU TIME = 0  REAL TIME = 0  LVHEAP = 2/5/5  OPS COMPLETE = 110 OF 137  ELAPSED TIME = 1
Operation COMPLETED on HDB 0  LVHEAP = 2/5/5

spc03 = EXPAND EDGE spc02 INSIDE BY 0.02 EXTEND BY 0.01
-------------------------------------------------------
Operation EXECUTING on HDB 0 (T1 S2 E0:1 H0:93 A0:19 C1 F00 X00)

Layer spc02 DELETED -- LVHEAP = 2/5/5

spc03 = EXPAND EDGE spc02 INSIDE BY 0.02 EXTEND BY 0.01
-------------------------------------------------------

WARNING: Layer spc03 CREATED with an exclusive FLAT instantiation.

spc03 (FLAT TYP=1 CFG=0 ECT=859 OCT=456 SRT=1 CMP=F MPN=0)
CPU TIME = 0  REAL TIME = 0  LVHEAP = 2/5/5  OPS COMPLETE = 111 OF 137  ELAPSED TIME = 1
Operation COMPLETED on HDB 0  LVHEAP = 2/5/5

lay_sraf_f2 = lay_sraf_f1 NOT spc03
-----------------------------------
Operation EXECUTING on HDB 0 (T1 S2 E0:1 H0:94 A0:19 C1 F00 X00)

Layer lay_sraf_f1 DELETED -- LVHEAP = 2/5/5

Layer spc03 DELETED -- LVHEAP = 2/5/5

lay_sraf_f2 = lay_sraf_f1 NOT spc03
-----------------------------------

WARNING: Layer lay_sraf_f2 CREATED with an exclusive FLAT instantiation.

lay_sraf_f2 (FLAT TYP=1 CFG=1 ECT=1197 OCT=600 SRT=1 CMP=F MPN=598)
CPU TIME = 0  REAL TIME = 0  LVHEAP = 2/5/5  OPS COMPLETE = 112 OF 137  ELAPSED TIME = 1
Operation COMPLETED on HDB 0  LVHEAP = 2/5/5

TMP<48> = INT lay_sraf_f2 < 0.04 REGION CENTERLINE 0.04
-------------------------------------------------------
Operation EXECUTING on HDB 0 (T1 S2 E0:1 H0:95 A0:19 C1 F00 X00)

TMP<48> = INT lay_sraf_f2 < 0.04 REGION CENTERLINE 0.04
-------------------------------------------------------

WARNING: Layer TMP<48> CREATED with an exclusive FLAT instantiation.

TMP<48> (FLAT TYP=1 CFG=1 ECT=362 OCT=181 SRT=1 CMP=F MPN=131)
CPU TIME = 0  REAL TIME = 0  LVHEAP = 2/5/5  OPS COMPLETE = 113 OF 137  ELAPSED TIME = 1
Operation COMPLETED on HDB 0  LVHEAP = 2/5/5

lay_sraf_f3 = EXTENTS TMP<48>
-----------------------------
Operation EXECUTING on HDB 0 (T1 S2 E0:1 H0:96 A0:19 C1 F00 X00)

Layer TMP<48> DELETED -- LVHEAP = 2/5/5

lay_sraf_f3 = EXTENTS TMP<48>
-----------------------------

WARNING: Layer lay_sraf_f3 CREATED with an exclusive FLAT instantiation.

lay_sraf_f3 (FLAT TYP=1 CFG=1 ECT=262 OCT=131 SRT=1 CMP=F MPN=131)
CPU TIME = 0  REAL TIME = 0  LVHEAP = 2/5/5  OPS COMPLETE = 114 OF 137  ELAPSED TIME = 1
Operation COMPLETED on HDB 0  LVHEAP = 2/5/5

TMP<49> = lay_sraf_f2 NOT INTERACT lay_sraf_f3
----------------------------------------------
Operation EXECUTING on HDB 0 (T1 S2 E0:1 H0:97 A0:19 C1 F00 X00)

Layer lay_sraf_f2 DELETED -- LVHEAP = 2/5/5

TMP<49> = lay_sraf_f2 NOT INTERACT lay_sraf_f3
----------------------------------------------

WARNING: Layer TMP<49> CREATED with an exclusive FLAT instantiation.

TMP<49> (FLAT TYP=1 CFG=0 ECT=934 OCT=467 SRT=1 CMP=F MPN=0)
CPU TIME = 0  REAL TIME = 0  LVHEAP = 2/5/5  OPS COMPLETE = 115 OF 137  ELAPSED TIME = 1
Operation COMPLETED on HDB 0  LVHEAP = 2/5/5

lay_sraf_fin = TMP<49> OR lay_sraf_f3
-------------------------------------
Operation EXECUTING on HDB 0 (T1 S2 E0:1 H0:98 A0:19 C1 F00 X00)

Layer TMP<49> DELETED -- LVHEAP = 2/5/5

Layer lay_sraf_f3 DELETED -- LVHEAP = 2/5/5

lay_sraf_fin = TMP<49> OR lay_sraf_f3
-------------------------------------

WARNING: Layer lay_sraf_fin CREATED with an exclusive FLAT instantiation.

lay_sraf_fin (FLAT TYP=1 CFG=1 ECT=1196 OCT=598 SRT=1 CMP=F MPN=598)
CPU TIME = 0  REAL TIME = 0  LVHEAP = 2/5/5  OPS COMPLETE = 116 OF 137  ELAPSED TIME = 1
Operation COMPLETED on HDB 0  LVHEAP = 2/5/5

mrc:1 = EXT lay_sraf_fin < 0.06 REGION EXTENTS
----------------------------------------------
Operation EXECUTING on HDB 0 (T1 S2 E0:1 H0:99 A0:19 C1 F00 X00)

mrc:1 = EXT lay_sraf_fin < 0.06 REGION EXTENTS
----------------------------------------------

WARNING: Layer mrc:1 CREATED with an exclusive FLAT instantiation.

mrc:1 (FLAT TYP=1 CFG=1 ECT=90 OCT=47 SRT=1 CMP=F MPN=29)
CPU TIME = 0  REAL TIME = 0  LVHEAP = 2/5/5  OPS COMPLETE = 117 OF 137  ELAPSED TIME = 1
Operation COMPLETED on HDB 0  LVHEAP = 2/5/5

TMP<51> = lay_sraf_fin INTERACT mrc:1
-------------------------------------
Operation EXECUTING on HDB 0 (T1 S2 E0:1 H0:100 A0:19 C1 F00 X00)

TMP<51> = lay_sraf_fin INTERACT mrc:1
-------------------------------------

WARNING: Layer TMP<51> CREATED with an exclusive FLAT instantiation.

TMP<51> (FLAT TYP=1 CFG=0 ECT=108 OCT=54 SRT=1 CMP=F MPN=0)
CPU TIME = 0  REAL TIME = 0  LVHEAP = 2/5/5  OPS COMPLETE = 118 OF 137  ELAPSED TIME = 1
Operation COMPLETED on HDB 0  LVHEAP = 2/5/5

TMP<50> = mrc:1 OR TMP<51>
--------------------------
Operation EXECUTING on HDB 0 (T1 S2 E0:1 H0:101 A0:19 C1 F00 X00)

Layer mrc:1 DELETED -- LVHEAP = 2/5/5

Layer TMP<51> DELETED -- LVHEAP = 2/5/5

TMP<50> = mrc:1 OR TMP<51>
--------------------------

WARNING: Layer TMP<50> CREATED with an exclusive FLAT instantiation.

TMP<50> (FLAT TYP=1 CFG=1 ECT=138 OCT=128 SRT=1 CMP=F MPN=23)
CPU TIME = 0  REAL TIME = 0  LVHEAP = 2/5/5  OPS COMPLETE = 119 OF 137  ELAPSED TIME = 1
Operation COMPLETED on HDB 0  LVHEAP = 2/5/5

mrc:2 = EXTENTS TMP<50>
-----------------------
Operation EXECUTING on HDB 0 (T1 S2 E0:1 H0:102 A0:19 C1 F00 X00)

Layer TMP<50> DELETED -- LVHEAP = 2/5/5

mrc:2 = EXTENTS TMP<50>
-----------------------

WARNING: Layer mrc:2 CREATED with an exclusive FLAT instantiation.

mrc:2 (FLAT TYP=1 CFG=1 ECT=46 OCT=23 SRT=1 CMP=F MPN=23)
CPU TIME = 0  REAL TIME = 0  LVHEAP = 2/5/5  OPS COMPLETE = 120 OF 137  ELAPSED TIME = 1
Operation COMPLETED on HDB 0  LVHEAP = 2/5/5

mrc:3 = EXTENTS mrc:2 CENTERS 0.04
----------------------------------
Operation EXECUTING on HDB 0 (T1 S2 E0:1 H1:104 A0:19 C1 F00 X00)

mrc:3 = EXTENTS mrc:2 CENTERS 0.04
----------------------------------

WARNING: Layer mrc:3 CREATED with an exclusive FLAT instantiation.

mrc:3 (FLAT TYP=1 CFG=1 ECT=46 OCT=23 SRT=1 CMP=F MPN=23)
CPU TIME = 0  REAL TIME = 0  LVHEAP = 2/5/5  OPS COMPLETE = 121 OF 137  ELAPSED TIME = 1
Operation COMPLETED on HDB 0  LVHEAP = 2/5/5

TMP<54> = ANGLE mrc:3 == 90
TMP<52> = ANGLE mrc:3 == 0
---------------------------
Operation EXECUTING on HDB 0 (T1 S2 E0:1 H1:105 A0:19 C1 F00 X00)

TMP<54> = ANGLE mrc:3 == 90
TMP<52> = ANGLE mrc:3 == 0
---------------------------

WARNING: Layer TMP<54> CREATED with an exclusive FLAT instantiation.


WARNING: Layer TMP<52> CREATED with an exclusive FLAT instantiation.

TMP<54> (FLAT TYP=2 CFG=1 ECT=46 OCT=46 SRT=1 CMP=F MPN=23)
TMP<52> (FLAT TYP=2 CFG=1 ECT=46 OCT=46 SRT=1 CMP=F MPN=23)
CPU TIME = 0  REAL TIME = 0  LVHEAP = 2/5/5  OPS COMPLETE = 123 OF 137  ELAPSED TIME = 1
Operation COMPLETED on HDB 0  LVHEAP = 2/5/5

mrc:6 = ENC TMP<54> mrc:2 < 0.2 REGION OPPOSITE
-----------------------------------------------
Operation EXECUTING on HDB 0 (T1 S2 E0:1 H2:107 A0:19 C1 F00 X00)

Layer TMP<54> DELETED -- LVHEAP = 2/5/5

mrc:6 = ENC TMP<54> mrc:2 < 0.2 REGION OPPOSITE
-----------------------------------------------

WARNING: Layer mrc:6 CREATED with an exclusive FLAT instantiation.

mrc:6 (FLAT TYP=1 CFG=0 ECT=92 OCT=46 SRT=1 CMP=F MPN=0)
CPU TIME = 0  REAL TIME = 0  LVHEAP = 2/5/5  OPS COMPLETE = 124 OF 137  ELAPSED TIME = 1
Operation COMPLETED on HDB 0  LVHEAP = 2/5/5

TMP<55> = mrc:3 OR mrc:6
------------------------
Operation EXECUTING on HDB 0 (T1 S2 E0:1 H2:108 A0:19 C1 F00 X00)

Layer mrc:6 DELETED -- LVHEAP = 2/5/5

TMP<55> = mrc:3 OR mrc:6
------------------------

WARNING: Layer TMP<55> CREATED with an exclusive FLAT instantiation.

TMP<55> (FLAT TYP=1 CFG=1 ECT=46 OCT=23 SRT=1 CMP=F MPN=23)
CPU TIME = 0  REAL TIME = 0  LVHEAP = 2/5/5  OPS COMPLETE = 125 OF 137  ELAPSED TIME = 1
Operation COMPLETED on HDB 0  LVHEAP = 2/5/5

mrc:7 = EXTENTS TMP<55>
-----------------------
Operation EXECUTING on HDB 0 (T1 S2 E0:1 H2:109 A0:19 C1 F00 X00)

Layer TMP<55> DELETED -- LVHEAP = 2/5/5

mrc:7 = EXTENTS TMP<55>
-----------------------

WARNING: Layer mrc:7 CREATED with an exclusive FLAT instantiation.

mrc:7 (FLAT TYP=1 CFG=1 ECT=46 OCT=23 SRT=1 CMP=F MPN=23)
CPU TIME = 0  REAL TIME = 0  LVHEAP = 2/5/5  OPS COMPLETE = 126 OF 137  ELAPSED TIME = 1
Operation COMPLETED on HDB 0  LVHEAP = 2/5/5

H_SRAF:3 = mrc:7 INTERACT H_EDGE
--------------------------------
Operation EXECUTING on HDB 0 (T1 S2 E0:1 H2:110 A0:19 C1 F00 X00)

Layer mrc:7 DELETED -- LVHEAP = 2/5/5

Layer H_EDGE DELETED -- LVHEAP = 2/5/5

H_SRAF:3 = mrc:7 INTERACT H_EDGE
--------------------------------

WARNING: Layer H_SRAF:3 CREATED with an exclusive FLAT instantiation.


WARNING: Creating a FLAT COPY of layer H_EDGE.

H_SRAF:3 (FLAT TYP=1 CFG=1 ECT=36 OCT=18 SRT=1 CMP=F MPN=23)
CPU TIME = 0  REAL TIME = 0  LVHEAP = 2/5/5  OPS COMPLETE = 127 OF 137  ELAPSED TIME = 1
Operation COMPLETED on HDB 0  LVHEAP = 2/5/5

mrc:4 = ENC TMP<52> mrc:2 < 0.2 REGION OPPOSITE
-----------------------------------------------
Operation EXECUTING on HDB 0 (T1 S2 E0:1 H1:110 A0:19 C1 F00 X00)

Layer TMP<52> DELETED -- LVHEAP = 2/5/5

mrc:4 = ENC TMP<52> mrc:2 < 0.2 REGION OPPOSITE
-----------------------------------------------

WARNING: Layer mrc:4 CREATED with an exclusive FLAT instantiation.

mrc:4 (FLAT TYP=1 CFG=0 ECT=92 OCT=46 SRT=1 CMP=F MPN=0)
CPU TIME = 0  REAL TIME = 0  LVHEAP = 2/5/5  OPS COMPLETE = 128 OF 137  ELAPSED TIME = 1
Operation COMPLETED on HDB 0  LVHEAP = 2/5/5

TMP<53> = mrc:3 OR mrc:4
------------------------
Operation EXECUTING on HDB 0 (T1 S2 E0:1 H1:111 A0:19 C1 F00 X00)

Layer mrc:3 DELETED -- LVHEAP = 2/5/5

Layer mrc:4 DELETED -- LVHEAP = 2/5/5

TMP<53> = mrc:3 OR mrc:4
------------------------

WARNING: Layer TMP<53> CREATED with an exclusive FLAT instantiation.

TMP<53> (FLAT TYP=1 CFG=1 ECT=46 OCT=23 SRT=1 CMP=F MPN=23)
CPU TIME = 0  REAL TIME = 0  LVHEAP = 2/5/5  OPS COMPLETE = 129 OF 137  ELAPSED TIME = 1
Operation COMPLETED on HDB 0  LVHEAP = 2/5/5

mrc:5 = EXTENTS TMP<53>
-----------------------
Operation EXECUTING on HDB 0 (T1 S2 E0:1 H1:112 A0:19 C1 F00 X00)

Layer TMP<53> DELETED -- LVHEAP = 2/5/5

mrc:5 = EXTENTS TMP<53>
-----------------------

WARNING: Layer mrc:5 CREATED with an exclusive FLAT instantiation.

mrc:5 (FLAT TYP=1 CFG=1 ECT=46 OCT=23 SRT=1 CMP=F MPN=23)
CPU TIME = 0  REAL TIME = 0  LVHEAP = 2/5/5  OPS COMPLETE = 130 OF 137  ELAPSED TIME = 1
Operation COMPLETED on HDB 0  LVHEAP = 2/5/5

TMP<56> = mrc:5 INTERACT V_EDGE
-------------------------------
Operation EXECUTING on HDB 0 (T1 S2 E0:1 H1:113 A0:19 C1 F00 X00)

Layer mrc:5 DELETED -- LVHEAP = 2/5/5

Layer V_EDGE DELETED -- LVHEAP = 2/5/5

TMP<56> = mrc:5 INTERACT V_EDGE
-------------------------------

WARNING: Layer TMP<56> CREATED with an exclusive FLAT instantiation.


WARNING: Creating a FLAT COPY of layer V_EDGE.

TMP<56> (FLAT TYP=1 CFG=1 ECT=16 OCT=8 SRT=1 CMP=F MPN=19)
CPU TIME = 0  REAL TIME = 0  LVHEAP = 2/5/5  OPS COMPLETE = 131 OF 137  ELAPSED TIME = 1
Operation COMPLETED on HDB 0  LVHEAP = 2/5/5

V_SRAF:3 = TMP<56> NOT INTERACT H_SRAF:3
----------------------------------------
Operation EXECUTING on HDB 0 (T1 S2 E0:1 H1:114 A0:19 C1 F00 X00)

Layer TMP<56> DELETED -- LVHEAP = 2/5/5

V_SRAF:3 = TMP<56> NOT INTERACT H_SRAF:3
----------------------------------------

WARNING: Layer V_SRAF:3 CREATED with an exclusive FLAT instantiation.

V_SRAF:3 (FLAT TYP=1 CFG=0 ECT=10 OCT=5 SRT=1 CMP=F MPN=0)
CPU TIME = 0  REAL TIME = 0  LVHEAP = 2/5/5  OPS COMPLETE = 132 OF 137  ELAPSED TIME = 1
Operation COMPLETED on HDB 0  LVHEAP = 2/5/5

R_SRAF:3 = H_SRAF:3 OR V_SRAF:3
-------------------------------
Operation EXECUTING on HDB 0 (T1 S2 E0:1 H1:115 A0:19 C1 F00 X00)

Layer H_SRAF:3 DELETED -- LVHEAP = 2/5/5

Layer V_SRAF:3 DELETED -- LVHEAP = 2/5/5

R_SRAF:3 = H_SRAF:3 OR V_SRAF:3
-------------------------------

WARNING: Layer R_SRAF:3 CREATED with an exclusive FLAT instantiation.

R_SRAF:3 (FLAT TYP=1 CFG=1 ECT=46 OCT=23 SRT=1 CMP=F MPN=23)
CPU TIME = 0  REAL TIME = 0  LVHEAP = 2/5/5  OPS COMPLETE = 133 OF 137  ELAPSED TIME = 1
Operation COMPLETED on HDB 0  LVHEAP = 2/5/5

TMP<57> = EXTENTS R_SRAF:3 CENTERS 0.09
---------------------------------------
Operation EXECUTING on HDB 0 (T1 S2 E0:1 H1:116 A0:19 C1 F00 X00)

TMP<57> = EXTENTS R_SRAF:3 CENTERS 0.09
---------------------------------------

WARNING: Layer TMP<57> CREATED with an exclusive FLAT instantiation.

TMP<57> (FLAT TYP=1 CFG=0 ECT=46 OCT=23 SRT=1 CMP=F MPN=0)
CPU TIME = 0  REAL TIME = 0  LVHEAP = 2/5/5  OPS COMPLETE = 134 OF 137  ELAPSED TIME = 1
Operation COMPLETED on HDB 0  LVHEAP = 2/5/5

mrc:8 = TMP<57> AND R_SRAF:3
----------------------------
Operation EXECUTING on HDB 0 (T1 S2 E0:1 H1:117 A0:19 C1 F00 X00)

Layer TMP<57> DELETED -- LVHEAP = 2/5/5

Layer R_SRAF:3 DELETED -- LVHEAP = 2/5/5

mrc:8 = TMP<57> AND R_SRAF:3
----------------------------

WARNING: Layer mrc:8 CREATED with an exclusive FLAT instantiation.

mrc:8 (FLAT TYP=1 CFG=0 ECT=46 OCT=23 SRT=1 CMP=F MPN=0)
CPU TIME = 0  REAL TIME = 0  LVHEAP = 2/5/5  OPS COMPLETE = 135 OF 137  ELAPSED TIME = 1
Operation COMPLETED on HDB 0  LVHEAP = 2/5/5

TMP<58> = lay_sraf_fin NOT INTERACT mrc:2
-----------------------------------------
Operation EXECUTING on HDB 0 (T1 S2 E0:1 H0:117 A0:19 C1 F00 X00)

Layer lay_sraf_fin DELETED -- LVHEAP = 2/5/5

Layer mrc:2 DELETED -- LVHEAP = 2/5/5

TMP<58> = lay_sraf_fin NOT INTERACT mrc:2
-----------------------------------------

WARNING: Layer TMP<58> CREATED with an exclusive FLAT instantiation.

TMP<58> (FLAT TYP=1 CFG=0 ECT=1086 OCT=543 SRT=1 CMP=F MPN=0)
CPU TIME = 0  REAL TIME = 0  LVHEAP = 2/5/5  OPS COMPLETE = 136 OF 137  ELAPSED TIME = 1
Operation COMPLETED on HDB 0  LVHEAP = 2/5/5

lay_sraf_fin2 = mrc:8 OR TMP<58>
--------------------------------
Operation EXECUTING on HDB 0 (T1 S2 E0:1 H0:118 A0:19 C1 F00 X00)

Layer mrc:8 DELETED -- LVHEAP = 2/5/5

Layer TMP<58> DELETED -- LVHEAP = 2/5/5

lay_sraf_fin2 = mrc:8 OR TMP<58>
--------------------------------

WARNING: Layer lay_sraf_fin2 CREATED with an exclusive FLAT instantiation.

lay_sraf_fin2 (FLAT TYP=1 CFG=1 ECT=1132 OCT=566 SRT=1 CMP=F MPN=566)
CPU TIME = 0  REAL TIME = 0  LVHEAP = 2/5/5  OPS COMPLETE = 137 OF 137  ELAPSED TIME = 1
Operation COMPLETED on HDB 0  LVHEAP = 2/5/5

WRITE to OASIS DRC Results Database ../lithosim/results/out.testrandomclip_4000_4000_560_70_sraf.oas COMPLETED

DRC RuleCheck OUT_sraf2 COMPLETED. Number of Results = 566 (566)

Layer lay_sraf_fin2 DELETED -- LVHEAP = 2/5/5

Cumulative ONE-LAYER BOOLEAN Time: CPU = 0/0  REAL = 0/0
Cumulative TWO-LAYER BOOLEAN Time: CPU = 0/0  REAL = 0/0
Cumulative POLYGON TOPOLOGICAL Time: CPU = 0/0  REAL = 0/0
Cumulative POLYGON MEASUREMENT Time: CPU = 0/0  REAL = 0/0
Cumulative SIZE Time: CPU = 0/0  REAL = 0/0
Cumulative WITH WIDTH Time: CPU = 0/0  REAL = 0/0
Cumulative EDGE TOPOLOGICAL Time: CPU = 0/0  REAL = 0/0
Cumulative EDGE MEASUREMENT Time: CPU = 0/0  REAL = 0/0
Cumulative ONE-LAYER DRC Time: CPU = 0/0  REAL = 0/0
Cumulative TWO-LAYER DRC Time: CPU = 0/0  REAL = 0/0
Cumulative MISCELLANEOUS Time: CPU = 0/0  REAL = 0/0
Cumulative RDB Time: CPU = 0/0  REAL = 0/0

HDB 0: CPU TIME = 0  LVHEAP = 5
HDB 1: CPU TIME = 0  LVHEAP = 3  RX = 0  TX = 0
HDB 2: CPU TIME = 0  LVHEAP = 3  RX = 0  TX = 0
HDB 3: CPU TIME = 0  LVHEAP = 3  RX = 0  TX = 0
HDB 4: CPU TIME = 0  LVHEAP = 3  RX = 0  TX = 0
HDB 0-4 TOTAL LVHEAP = 17


--- CALIBRE::DRC-H EXECUTIVE MODULE COMPLETED.  CPU TIME = 0  REAL TIME = 0
--- TOTAL RULECHECKS EXECUTED = 8
--- TOTAL RESULTS GENERATED = 2125 (2125)
--- DRC RESULTS DATABASE FILE = ../lithosim/results/out.testrandomclip_4000_4000_560_70_sraf.oas (OASIS)

--- CALIBRE::DRC-H COMPLETED - Thu Oct  8 23:30:49 2015
--- TOTAL CPU TIME = 0  REAL TIME = 0
--- PROCESSOR COUNT = 4 + 4(virtual)
--- SUMMARY REPORT FILE = 

