(I) commands = ./bin/mask_opt -param_json ./test/param_sraf_ispd15.json
(I) reading input parameter json ./test/param_sraf_ispd15.json
(I) reading input gdsii ./gds/train/MB_SRAF_OUT_Clip_15.gds
(I) initialize opt region takes 0.000000 seconds CPU, 0.000006 seconds real
(I) initialize image bbox takes 0.000000 seconds CPU, 0.000005 seconds real
(I) initialize pixel image
(I) Image grid size (1360 x 1360)
(I) initialize pixel image takes 0.000000 seconds CPU, 0.000678 seconds real
(I) initialize valid SRAF region
	fill in SRAF region
	unfill OPC region
(I) initialize valid SRAF region takes 0.010000 seconds CPU, 0.001307 seconds real
(I) initialize golden SRAF data with area threshold: 400
(I) initialize training label data from 0 to 3248
(I) initialize golden SRAF data takes 0.010000 seconds CPU, 0.000498 seconds real
(I) feature extraction for training data
(I) 	feature extaction in mode CCAS: minRadius 100, ringSpace: 15, ringNum 33, circleSR: 32
(I) feature extraction done with size: 3248
(I) initialize feature vectors takes 0.270000 seconds CPU, 0.065959 seconds real
(I) reading input gdsii ./gds/train/out.testrandomclip_1000_1000_560_70.gds
(I) initialize opt region takes 0.000000 seconds CPU, 0.000002 seconds real
(I) initialize image bbox takes 0.000000 seconds CPU, 0.000001 seconds real
(I) initialize pixel image
(I) Image grid size (1720 x 1681)
(I) initialize pixel image takes 0.000000 seconds CPU, 0.000724 seconds real
(I) initialize valid SRAF region
	fill in SRAF region
	unfill OPC region
(I) initialize valid SRAF region takes 0.010000 seconds CPU, 0.000610 seconds real
(I) initialize golden SRAF data with area threshold: 400
(I) initialize training label data from 3248 to 24298
(I) initialize golden SRAF data takes 0.000000 seconds CPU, 0.000857 seconds real
(I) feature extraction for training data
(I) 	feature extaction in mode CCAS: minRadius 100, ringSpace: 15, ringNum 33, circleSR: 32
(I) feature extraction done with size: 24298
(I) initialize feature vectors takes 1.760000 seconds CPU, 0.288373 seconds real
(I) Learning model with support vector machine
	 model construction from model file
create SVcsc from SV
matrix 4518x1056 with 51556 nonzero elements
(I) model construction takes 0.020000 seconds CPU, 0.012565 seconds real
(I) model prediction for training data in progress
(I) model prediction takes 0.260000 seconds CPU, 0.042695 seconds real
(I) prediction error analysis for training data (24298)	rmse: 0.2290, overall accuracy: 0.9476, True Positive Rate (TPR): 0.2337, False Negative Rate (FNR): 0.7663, False Positive Rate (FPR): 0.0068, True Negative Rate: 0.9932
(I) error analysis takes 0.010000 seconds CPU, 0.002215 seconds real
(I) reading input gdsii ./gds/predict/out.testrandomclip_2000_2000_560_70.gds
(I) initialize opt region takes 0.000000 seconds CPU, 0.000002 seconds real
(I) initialize image bbox takes 0.000000 seconds CPU, 0.000002 seconds real
(I) initialize pixel image
(I) Image grid size (2760 x 2760)
(I) initialize pixel image takes 0.000000 seconds CPU, 0.000762 seconds real
(I) initialize valid SRAF region
	fill in SRAF region
	unfill OPC region
(I) initialize valid SRAF region takes 0.020000 seconds CPU, 0.002158 seconds real
(I) initialize golden SRAF data with area threshold: 400
(I) initialize testing label data from 0 to 57895
(I) initialize golden SRAF data takes 0.000000 seconds CPU, 0.001604 seconds real
(I) feature extraction for testing data
(I) 	feature extaction in mode CCAS: minRadius 100, ringSpace: 15, ringNum 33, circleSR: 32
(I) feature extraction done with size: 57895
(I) initialize feature vectors takes 5.470000 seconds CPU, 0.906105 seconds real
(I) model prediction for testing data in progress
(I) model prediction takes 0.590000 seconds CPU, 0.106135 seconds real
(I) prediction error analysis for testing data (57895)	rmse: 0.3006, overall accuracy: 0.9096, True Positive Rate (TPR): 0.1528, False Negative Rate (FNR): 0.8472, False Positive Rate (FPR): 0.0302, True Negative Rate: 0.9698
(I) error analysis takes 0.010000 seconds CPU, 0.005965 seconds real
(I) write output gdsii ./result/out.testrandomclip_2000_2000_560_70_sraf.gds
(I) generate SRAF based on prediction
(I) write image bounding box
(I) testing SRAF generation takes 6.110000 seconds CPU, 1.037202 seconds real

real	0m1.462s
user	0m8.397s
sys	0m0.072s
