(I) commands = ./bin/mask_opt -param_json ./test/param_sraf_ispd15.json
(I) reading input parameter json ./test/param_sraf_ispd15.json
(I) reading input gdsii ./gds/train/MB_SRAF_OUT_Clip_15.gds
(I) initialize opt region takes 0.000000 seconds CPU, 0.000006 seconds real
(I) initialize image bbox takes 0.000000 seconds CPU, 0.000004 seconds real
(I) initialize pixel image
(I) Image grid size (1360 x 1360)
(I) initialize pixel image takes 0.040000 seconds CPU, 0.007545 seconds real
(I) initialize valid SRAF region
	fill in SRAF region
	unfill OPC region
(I) initialize valid SRAF region takes 0.010000 seconds CPU, 0.001419 seconds real
(I) initialize golden SRAF data with area threshold: 400
(I) initialize training label data from 0 to 3248
(I) initialize golden SRAF data takes 0.010000 seconds CPU, 0.000453 seconds real
(I) feature extraction for training data
(I) 	feature extaction in mode CCAS: minRadius 100, ringSpace: 15, ringNum 33, circleSR: 32
(I) feature extraction done with size: 3248
(I) initialize feature vectors takes 0.200000 seconds CPU, 0.060416 seconds real
(I) reading input gdsii ./gds/train/out.testrandomclip_1000_1000_560_70.gds
(I) initialize opt region takes 0.000000 seconds CPU, 0.000002 seconds real
(I) initialize image bbox takes 0.000000 seconds CPU, 0.000002 seconds real
(I) initialize pixel image
(I) Image grid size (1720 x 1681)
(I) initialize pixel image takes 0.020000 seconds CPU, 0.002856 seconds real
(I) initialize valid SRAF region
	fill in SRAF region
	unfill OPC region
(I) initialize valid SRAF region takes 0.000000 seconds CPU, 0.000614 seconds real
(I) initialize golden SRAF data with area threshold: 400
(I) initialize training label data from 3248 to 24298
(I) initialize golden SRAF data takes 0.010000 seconds CPU, 0.000856 seconds real
(I) feature extraction for training data
(I) 	feature extaction in mode CCAS: minRadius 100, ringSpace: 15, ringNum 33, circleSR: 32
(I) feature extraction done with size: 24298
(I) initialize feature vectors takes 1.710000 seconds CPU, 0.286202 seconds real
(I) Learning model with support vector machine
	 model construction from model file
create SVcsc from SV
matrix 4518x1056 with 51556 nonzero elements
(I) model construction takes 0.020000 seconds CPU, 0.012724 seconds real
(I) model prediction for training data in progress
(I) model prediction takes 0.260000 seconds CPU, 0.039936 seconds real
(I) prediction error analysis for training data (24298)	rmse: 0.2290, overall accuracy: 0.9476, True Positive Rate (TPR): 0.2337, False Negative Rate (FNR): 0.7663, False Positive Rate (FPR): 0.0068, True Negative Rate: 0.9932
(I) error analysis takes 0.010000 seconds CPU, 0.003708 seconds real
(I) reading input gdsii ./gds/predict/out.testrandomclip_3000_3000_560_70.gds
(I) initialize opt region takes 0.000000 seconds CPU, 0.000004 seconds real
(I) initialize image bbox takes 0.000000 seconds CPU, 0.000002 seconds real
(I) initialize pixel image
(I) Image grid size (3960 x 3960)
(I) initialize pixel image takes 0.020000 seconds CPU, 0.003089 seconds real
(I) initialize valid SRAF region
	fill in SRAF region
	unfill OPC region
(I) initialize valid SRAF region takes 0.010000 seconds CPU, 0.003983 seconds real
(I) initialize golden SRAF data with area threshold: 400
(I) initialize testing label data from 0 to 119700
(I) initialize golden SRAF data takes 0.010000 seconds CPU, 0.003458 seconds real
(I) feature extraction for testing data
(I) 	feature extaction in mode CCAS: minRadius 100, ringSpace: 15, ringNum 33, circleSR: 32
(I) feature extraction done with size: 119700
(I) initialize feature vectors takes 12.490000 seconds CPU, 1.834466 seconds real
(I) model prediction for testing data in progress
(I) model prediction takes 1.230000 seconds CPU, 0.184852 seconds real
(I) prediction error analysis for testing data (119700)	rmse: 0.3228, overall accuracy: 0.8958, True Positive Rate (TPR): 0.1855, False Negative Rate (FNR): 0.8145, False Positive Rate (FPR): 0.0438, True Negative Rate: 0.9562
(I) error analysis takes 0.010000 seconds CPU, 0.015258 seconds real
(I) write output gdsii ./result/out.testrandomclip_3000_3000_560_70_sraf.gds
(I) generate SRAF based on prediction
(I) write image bounding box
(I) testing SRAF generation takes 13.800000 seconds CPU, 2.075233 seconds real

real	0m2.501s
user	0m16.057s
sys	0m0.048s
