opc: mb, sraf: ml
epe(nm) gdsx(um) gdsy(um)
-13 -0.0065 0.5550
-13 -0.0065 5.5750
-12 -0.0060 0.0550
-12 -0.0060 4.5950
-12 -0.0060 5.0950
-11 -0.0055 1.7750
-11 -0.0055 2.3550
-11 0.0350 0.0145
-12 0.0350 0.0960
-12 0.0350 0.5140
-13 0.0350 0.5965
-11 0.0350 1.7345
-11 0.0350 1.8155
-12 0.0350 2.3140
-12 0.0350 2.3960
-11 0.0350 4.5545
-12 0.0350 4.6360
-11 0.0350 5.0545
-11 0.0350 5.1355
-12 0.0350 5.5340
-13 0.0350 5.6165
-13 0.0135 3.4550
-11 0.0145 1.2150
-11 0.0145 4.0350
-11 0.0550 1.1745
-11 0.0550 1.2555
-12 0.0550 3.4140
-12 0.0550 3.4960
-12 0.0550 3.9940
-12 0.0550 4.0760
-12 0.0540 2.7950
-10 0.0950 2.7550
-11 0.0950 2.8355
-12 0.0760 0.0550
-13 0.0765 0.5550
-11 0.0755 1.7750
-11 0.0755 2.3550
-12 0.0760 4.5950
-11 0.0755 5.0950
-13 0.0765 5.5750
-11 0.0955 1.2150
-12 0.0960 3.4550
-11 0.0955 4.0350
-11 0.1355 2.7950
-13 0.5135 2.8150
-11 0.5145 0.5750
-11 0.5550 0.5345
-10 0.5550 0.6150
-13 0.5550 2.7735
-14 0.5550 2.8570
-12 0.5740 3.4550
-13 0.6150 3.4135
-12 0.6150 3.4960
-13 0.5935 1.7550
-12 0.5940 0.0350
-12 0.5940 1.1550
-12 0.5940 2.3550
-12 0.5940 4.5550
-10 0.5950 0.5750
-14 0.5970 2.8150
-12 0.6350 -0.0060
-12 0.6350 0.0760
-11 0.6350 1.1145
-12 0.6350 1.1960
-11 0.6350 1.7145
-12 0.6350 1.7960
-12 0.6350 2.3140
-12 0.6350 2.3960
-12 0.6350 4.5140
-13 0.6350 4.5965
-14 0.6130 5.0350
-12 0.6140 3.9750
-12 0.6140 5.6150
-12 0.6550 3.9340
-14 0.6550 4.0170
-13 0.6550 4.9935
-12 0.6550 5.0760
-12 0.6550 5.5740
-13 0.6550 5.6565
-12 0.6560 3.4550
-12 0.6760 0.0350
-12 0.6760 1.1550
-13 0.6765 1.7550
-13 0.6765 2.3550
-12 0.6760 4.5550
-12 0.6960 3.9750
-13 0.6965 5.0350
-11 0.6955 5.6150
-12 1.0540 3.3350
-13 1.0950 3.2935
-13 1.0950 3.3765
-13 1.0735 4.4750
-12 1.1150 4.4340
-12 1.1150 4.5160
-12 1.0940 1.6750
-11 1.1350 1.6345
-11 1.1350 1.7155
-12 1.1140 4.0150
-11 1.1145 2.7750
-11 1.1550 2.7345
-12 1.1550 2.8160
-11 1.1550 3.9745
-12 1.1550 4.0560
-12 1.1340 1.1350
-11 1.1355 3.3350
-12 1.1750 1.0940
-12 1.1750 1.1760
-13 1.1565 4.4750
-12 1.1740 2.3350
-11 1.1745 0.0550
-13 1.1765 1.6750
-11 1.2150 0.0145
-11 1.2150 0.0955
-12 1.2150 2.2940
-11 1.2150 2.3755
-12 1.1940 0.5750
-12 1.1940 5.6550
-12 1.1960 2.7750
-12 1.1960 4.0150
-10 1.1950 5.0150
-12 1.2350 0.5340
-13 1.2350 0.6165
-11 1.2350 4.9745
-11 1.2350 5.0555
-12 1.2350 5.6140
-12 1.2350 5.6960
-11 1.2155 1.1350
-11 1.2555 0.0550
-12 1.2560 2.3350
-11 1.2755 0.5750
-11 1.2755 5.0150
-13 1.2765 5.6550
-11 1.6145 1.6750
-11 1.6550 1.6345
-11 1.6550 1.7155
-12 1.6340 1.1350
-11 1.6345 4.5950
-11 1.6750 1.0945
-12 1.6750 1.1760
-10 1.6750 4.5550
-10 1.6750 4.6350
-12 1.6540 3.3950
-12 1.6540 3.8950
-11 1.6950 3.3545
-11 1.6950 3.4355
-12 1.6950 3.8540
-13 1.6950 3.9365
-13 1.6735 5.7150
-12 1.6740 5.0550
-11 1.7150 5.0145
-11 1.7150 5.0955
-11 1.7150 5.6745
-12 1.7150 5.7560
-12 1.6940 2.7950
-11 1.6955 1.6750
-13 1.7350 2.7535
-12 1.7350 2.8360
-12 1.7160 1.1350
-10 1.7150 4.5950
-13 1.7335 0.0750
-12 1.7340 0.6750
-12 1.7340 2.2750
-11 1.7355 3.3950
-11 1.7355 3.8950
-13 1.7750 0.0335
-13 1.7750 0.1165
-11 1.7750 0.6345
-11 1.7750 0.7155
-12 1.7750 2.2340
-12 1.7750 2.3160
-11 1.7555 5.0550
-12 1.7560 5.7150
-13 1.7765 2.7950
-13 1.8165 0.0750
-12 1.8160 0.6750
-10 1.8150 2.2750
-13 2.1935 1.1750
-12 2.1940 2.2950
-13 2.2350 1.1335
-12 2.2350 1.2160
-13 2.2350 2.2535
-13 2.2350 2.3365
-10 2.2150 4.5750
-10 2.2550 4.5350
-11 2.2550 4.6155
-11 2.2345 3.4550
-10 2.2750 3.4150
-11 2.2750 3.4955
-12 2.2540 0.1150
-12 2.2540 3.9150
-12 2.2950 0.0740
-12 2.2950 0.1560
-13 2.2950 3.8735
-12 2.2950 3.9560
-12 2.2740 5.0550
-13 2.2765 1.1750
-13 2.2765 2.2950
-10 2.2750 2.8550
-11 2.3150 2.8145
-12 2.3150 2.8960
-12 2.3150 5.0140
-13 2.3150 5.0965
-11 2.2945 0.5350
-11 2.2945 1.7750
-11 2.2945 5.5750
-10 2.2950 4.5750
-11 2.3350 0.4945
-12 2.3350 0.5760
-12 2.3350 1.7340
-11 2.3350 1.8155
-12 2.3350 5.5340
-12 2.3350 5.6160
-10 2.3150 3.4550
-12 2.3360 0.1150
-12 2.3360 3.9150
-10 2.3550 2.8550
-13 2.3565 5.0550
-12 2.3760 0.5350
-11 2.3755 1.7750
-12 2.3760 5.5750
-12 2.7540 1.2150
-14 2.7950 1.1730
-14 2.7950 1.2570
-13 2.7735 2.3350
-11 2.7745 1.7550
-10 2.8150 1.7150
-10 2.8150 1.7950
-14 2.8150 2.2930
-14 2.8150 2.3770
-13 2.8135 2.8350
-12 2.8550 2.7940
-11 2.8550 2.8755
-12 2.8340 0.5550
-12 2.8340 4.0350
-12 2.8340 5.0950
-12 2.8340 5.5750
-13 2.8365 1.2150
-11 2.8750 0.5145
-11 2.8750 0.5955
-11 2.8750 3.9945
-11 2.8750 4.0755
-11 2.8750 5.0545
-12 2.8750 5.1360
-13 2.8750 5.5335
-12 2.8750 5.6160
-11 2.8545 0.0350
-11 2.8555 1.7550
-14 2.8570 2.3350
-12 2.8950 -0.0060
-11 2.8950 0.0755
-12 2.8740 3.3950
-12 2.8740 4.5150
-12 2.9150 3.3540
-13 2.9150 3.4365
-12 2.9150 4.4740
-13 2.9150 4.5565
-12 2.8960 2.8350
-11 2.9155 0.5550
-11 2.9155 4.0350
-11 2.9155 5.0950
-13 2.9165 5.5750
-12 2.9360 0.0350
-12 2.9560 3.3950
-11 2.9555 4.5150
-13 3.2935 1.6950
-12 3.3350 1.6540
-12 3.3350 1.7360
-13 3.3135 2.2750
-13 3.3135 5.0550
-12 3.3140 5.6750
-11 3.3145 1.0950
-11 3.3550 1.0545
-11 3.3550 1.1355
-11 3.3550 2.2345
-12 3.3550 2.3160
-12 3.3550 5.0140
-12 3.3550 5.0960
-11 3.3550 5.6345
-12 3.3550 5.7160
-12 3.3340 2.7750
-12 3.3750 2.7340
-11 3.3750 2.8155
-11 3.3545 0.5750
-10 3.3550 3.3350
-10 3.3550 4.5750
-11 3.3950 0.5345
-10 3.3950 0.6150
-12 3.3950 3.2940
-11 3.3950 3.3755
-10 3.3950 4.5350
-11 3.3950 4.6155
-13 3.3765 1.6950
-13 3.3935 0.0550
-11 3.3955 1.0950
-13 3.3965 2.2750
-13 3.3965 5.0550
-12 3.3960 5.6750
-12 3.4350 0.0140
-12 3.4350 0.0960
-11 3.4145 3.9750
-12 3.4160 2.7750
-11 3.4550 3.9345
-11 3.4550 4.0155
-11 3.4355 0.5750
-10 3.4350 3.3350
-10 3.4350 4.5750
-12 3.4760 0.0550
-11 3.4955 3.9750
-12 3.8540 1.1350
-11 3.8950 1.0945
-12 3.8950 1.1760
-12 3.8740 0.6550
-10 3.8750 3.9350
-13 3.9150 0.6135
-12 3.9150 0.6960
-12 3.9150 3.8940
-12 3.9150 3.9760
-12 3.8940 1.7150
-11 3.8945 2.7750
-11 3.9350 1.6745
-12 3.9350 1.7560
-11 3.9350 2.7345
-11 3.9350 2.8155
-11 3.9345 5.0350
-12 3.9360 1.1350
-10 3.9350 4.4550
-10 3.9750 4.4150
-10 3.9750 4.4950
-13 3.9750 4.9935
-12 3.9750 5.0760
-12 3.9540 5.6350
-12 3.9560 0.6550
-11 3.9555 3.9350
-12 3.9950 5.5940
-13 3.9950 5.6765
-11 3.9745 2.2350
-11 3.9745 3.3750
-11 3.9755 1.7150
-11 3.9755 2.7750
-11 4.0150 2.1945
-12 4.0150 2.2760
-12 4.0150 3.3340
-13 4.0150 3.4165
-12 3.9940 0.0350
-12 4.0350 -0.0060
-12 4.0350 0.0760
-10 4.0150 4.4550
-12 4.0160 5.0350
-12 4.0360 5.6350
-12 4.0560 2.2350
-12 4.0560 3.3750
-12 4.0760 0.0350
-13 4.4135 1.1150
-10 4.4150 3.3550
-11 4.4550 1.0745
-11 4.4550 1.1555
-12 4.4550 3.3140
-12 4.4550 3.3960
-12 4.4340 3.9750
-12 4.4750 3.9340
-12 4.4750 4.0160
-13 4.4535 0.0350
-12 4.4540 4.5350
-11 4.4545 0.5750
-14 4.4950 -0.0070
-14 4.4950 0.0770
-12 4.4950 0.5340
-11 4.4950 0.6155
-13 4.4950 4.4935
-13 4.4950 4.5765
-13 4.4735 5.6150
-11 4.5150 5.5745
-12 4.5150 5.6560
-12 4.4940 5.1150
-12 4.4960 1.1150
-12 4.4960 3.3550
-12 4.5350 5.0740
-13 4.5350 5.1565
-13 4.5135 2.3150
-12 4.5140 1.6750
-12 4.5160 3.9750
-14 4.5550 1.6330
-13 4.5550 1.7165
-12 4.5550 2.2740
-12 4.5550 2.3560
-11 4.5345 2.8750
-13 4.5365 0.0350
-12 4.5360 0.5750
-11 4.5355 4.5350
-10 4.5750 2.8350
-10 4.5750 2.9150
-12 4.5560 5.6150
-12 4.5760 5.1150
-12 4.5960 1.6750
-11 4.5955 2.3150
-11 4.6155 2.8750
-13 4.9735 5.1350
-13 5.0150 5.0935
-13 5.0150 5.1765
-13 4.9935 3.9950
-11 4.9945 0.0350
-11 5.0350 -0.0055
-11 5.0350 0.0755
-13 5.0350 3.9535
-11 5.0350 4.0355
-12 5.0140 1.7750
-12 5.0550 1.7340
-13 5.0550 1.8165
-11 5.0345 4.4950
-12 5.0750 4.4540
-11 5.0750 4.5355
-11 5.0545 0.5750
-13 5.0565 5.1350
-11 5.0950 0.5345
-11 5.0950 0.6155
-12 5.0740 2.8350
-11 5.0755 0.0350
-12 5.0760 3.9950
-10 5.0750 5.6550
-11 5.1150 2.7945
-11 5.1150 2.8755
-11 5.1150 5.6145
-12 5.1150 5.6960
-12 5.0940 1.0950
-11 5.0945 3.4350
-12 5.0960 1.7750
-12 5.1350 1.0540
-12 5.1350 1.1360
-12 5.1350 3.3940
-12 5.1350 3.4760
-15 5.1125 2.3550
-12 5.1160 4.4950
-13 5.1550 2.3135
-13 5.1550 2.3965
-11 5.1355 0.5750
-11 5.1555 2.8350
-12 5.1560 5.6550
-12 5.1760 1.0950
-11 5.1755 3.4350
-15 5.1975 2.3550
-11 5.5345 3.4150
-12 5.5750 3.3740
-12 5.5750 3.4560
-12 5.5540 0.0950
-13 5.5950 0.0535
-13 5.5950 0.1365
-13 5.5735 5.0750
-12 5.5740 0.5950
-11 5.5745 2.2750
-11 5.5745 5.5750
-11 5.6150 0.5545
-11 5.6150 0.6355
-12 5.6150 2.2340
-12 5.6150 2.3160
-15 5.6150 5.0325
-15 5.6150 5.1175
-11 5.6150 5.5345
-12 5.6150 5.6160
-14 5.5930 1.0950
-11 5.5945 4.5150
-13 5.6350 1.0535
-13 5.6350 1.1365
-11 5.6350 4.4745
-12 5.6350 4.5560
-12 5.6160 3.4150
-11 5.6345 2.8950
-13 5.6365 0.0950
-11 5.6750 2.8545
-12 5.6750 2.9360
-11 5.6555 0.5950
-12 5.6560 2.2750
-13 5.6565 5.0750
-12 5.6560 5.5750
-12 5.6740 1.7150
-11 5.6745 3.9550
-14 5.6770 1.0950
-11 5.6755 4.5150
-14 5.7150 1.6730
-14 5.7150 1.7570
-12 5.7150 3.9140
-13 5.7150 3.9965
-12 5.7160 2.8950
-13 5.7565 1.7150
-12 5.7560 3.9550
