2.909000000000000127e-03
2.854999999999999899e-03
2.856000000000000032e-03
2.854999999999999899e-03
2.961500000000000157e-03
2.844499999999999806e-03
2.833000000000000015e-03
2.856000000000000032e-03
2.844999999999999873e-03
2.756499999999999836e-03
2.874499999999999885e-03
2.857499999999999797e-03
2.886000000000000110e-03
2.821000000000000157e-03
2.932500000000000211e-03
2.814000000000000095e-03
2.805999999999999901e-03
2.887999999999999942e-03
2.869500000000000089e-03
2.752000000000000106e-03
2.868499999999999956e-03
2.892500000000000106e-03
2.817500000000000126e-03
2.810500000000000064e-03
2.792499999999999843e-03
2.841999999999999908e-03
2.880999999999999880e-03
2.885500000000000044e-03
2.863500000000000160e-03
2.815999999999999927e-03
2.825499999999999887e-03
2.792999999999999910e-03
2.906999999999999862e-03
2.821000000000000157e-03
2.826500000000000019e-03
2.882500000000000080e-03
2.814000000000000095e-03
2.841000000000000209e-03
2.796499999999999941e-03
2.851999999999999934e-03
2.874499999999999885e-03
2.896000000000000137e-03
2.833000000000000015e-03
2.896999999999999836e-03
2.958000000000000126e-03
2.847999999999999837e-03
2.817500000000000126e-03
2.865499999999999992e-03
2.855499999999999965e-03
2.864499999999999859e-03
2.811000000000000131e-03
2.848499999999999904e-03
2.866000000000000058e-03
2.909500000000000194e-03
2.844499999999999806e-03
2.883000000000000146e-03
2.895000000000000004e-03
2.844999999999999873e-03
2.858499999999999930e-03
2.878499999999999982e-03
2.856000000000000032e-03
2.840500000000000143e-03
2.808000000000000166e-03
2.893999999999999871e-03
2.784500000000000083e-03
2.788500000000000180e-03
2.874999999999999951e-03
2.817000000000000060e-03
2.843500000000000107e-03
2.896999999999999836e-03
2.883999999999999845e-03
2.820000000000000024e-03
2.946999999999999967e-03
1.980500000000000056e-03
1.981999999999999821e-03
1.984500000000000153e-03
1.902499999999999894e-03
2.922500000000000184e-03
2.868499999999999956e-03
2.841999999999999908e-03
2.905500000000000096e-03
2.903499999999999831e-03
2.842499999999999975e-03
2.877999999999999916e-03
2.872500000000000053e-03
2.886000000000000110e-03
2.834000000000000147e-03
2.839500000000000010e-03
2.818000000000000192e-03
2.883999999999999845e-03
2.905500000000000096e-03
2.827000000000000086e-03
2.842499999999999975e-03
2.884499999999999911e-03
2.832499999999999948e-03
2.941000000000000038e-03
2.876500000000000151e-03
2.851999999999999934e-03
2.819499999999999958e-03
2.844000000000000174e-03
2.797000000000000007e-03
2.940499999999999971e-03
2.925500000000000149e-03
2.970500000000000050e-03
2.877499999999999850e-03
2.880000000000000181e-03
2.896000000000000137e-03
2.982999999999999974e-03
2.848999999999999970e-03
2.798500000000000206e-03
2.855499999999999965e-03
2.858999999999999996e-03
2.897999999999999968e-03
2.930499999999999945e-03
2.848499999999999904e-03
2.893499999999999805e-03
2.915500000000000123e-03
2.890000000000000208e-03
2.949499999999999865e-03
2.868499999999999956e-03
2.852500000000000001e-03
2.882000000000000013e-03
2.834000000000000147e-03
2.887499999999999876e-03
2.874999999999999951e-03
2.879500000000000115e-03
2.925000000000000083e-03
2.879000000000000049e-03
2.827000000000000086e-03
2.968999999999999851e-03
2.905500000000000096e-03
2.909999999999999826e-03
2.887499999999999876e-03
3.022500000000000013e-03
3.069999999999999812e-03
2.853500000000000134e-03
2.896000000000000137e-03
2.883000000000000146e-03
2.916999999999999888e-03
2.849500000000000036e-03
2.872500000000000053e-03
2.488499999999999827e-03
2.315499999999999850e-03
2.503000000000000017e-03
2.455999999999999850e-03
2.516000000000000007e-03
2.574499999999999966e-03
2.321000000000000146e-03
2.281500000000000108e-03
2.485499999999999862e-03
2.883000000000000146e-03
2.864999999999999925e-03
2.837000000000000112e-03
2.871999999999999987e-03
2.928500000000000113e-03
2.886999999999999809e-03
2.830000000000000050e-03
2.925000000000000083e-03
2.859500000000000063e-03
2.779499999999999853e-03
2.881499999999999947e-03
2.904499999999999964e-03
2.906999999999999862e-03
2.971000000000000116e-03
2.889500000000000141e-03
2.781500000000000118e-03
2.772499999999999791e-03
2.851999999999999934e-03
2.861999999999999961e-03
2.853000000000000067e-03
2.837000000000000112e-03
2.784500000000000083e-03
2.886999999999999809e-03
2.886999999999999809e-03
2.865499999999999992e-03
2.866000000000000058e-03
2.861999999999999961e-03
2.932000000000000144e-03
2.845499999999999939e-03
2.895500000000000070e-03
2.840000000000000076e-03
2.803500000000000002e-03
2.850999999999999802e-03
2.802499999999999870e-03
2.962499999999999856e-03
2.854499999999999833e-03
2.834000000000000147e-03
2.818999999999999891e-03
2.870499999999999788e-03
2.833000000000000015e-03
2.932000000000000144e-03
2.859500000000000063e-03
2.860000000000000129e-03
2.981999999999999842e-03
2.766499999999999862e-03
2.863500000000000160e-03
2.787500000000000047e-03
2.847000000000000138e-03
2.708499999999999970e-03
2.922999999999999817e-03
2.850999999999999802e-03
2.789499999999999879e-03
2.991499999999999802e-03
2.891499999999999973e-03
2.876000000000000084e-03
2.890999999999999907e-03
2.818000000000000192e-03
2.883999999999999845e-03
2.799499999999999905e-03
2.871499999999999921e-03
2.838999999999999944e-03
2.881499999999999947e-03
2.846500000000000072e-03
2.848499999999999904e-03
2.939499999999999839e-03
2.901499999999999999e-03
2.882500000000000080e-03
2.906499999999999796e-03
2.841000000000000209e-03
2.820500000000000090e-03
2.818999999999999891e-03
2.825999999999999953e-03
2.948999999999999799e-03
2.863999999999999792e-03
2.918500000000000087e-03
2.759000000000000168e-03
2.841000000000000209e-03
2.991499999999999802e-03
2.800500000000000038e-03
2.830500000000000117e-03
2.814999999999999794e-03
2.788000000000000114e-03
2.794000000000000043e-03
2.835999999999999979e-03
2.801500000000000171e-03
2.937500000000000007e-03
2.847000000000000138e-03
2.916499999999999822e-03
2.952499999999999829e-03
2.935999999999999808e-03
2.911500000000000025e-03
2.874499999999999885e-03
2.805499999999999834e-03
2.841499999999999842e-03
2.971000000000000116e-03
2.932500000000000211e-03
2.814000000000000095e-03
2.849500000000000036e-03
2.837500000000000178e-03
2.838999999999999944e-03
2.794500000000000109e-03
2.853500000000000134e-03
2.847000000000000138e-03
2.899000000000000101e-03
2.837000000000000112e-03
2.918500000000000087e-03
2.884499999999999911e-03
2.875500000000000018e-03
2.856500000000000098e-03
2.803500000000000002e-03
2.870000000000000155e-03
2.945999999999999834e-03
2.798000000000000140e-03
2.869500000000000089e-03
2.834999999999999847e-03
2.903000000000000198e-03
2.893000000000000172e-03
2.820500000000000090e-03
2.880000000000000181e-03
2.814500000000000161e-03
2.853000000000000067e-03
2.887499999999999876e-03
2.922500000000000184e-03
2.915500000000000123e-03
2.806499999999999967e-03
2.802499999999999870e-03
2.844000000000000174e-03
2.882000000000000013e-03
2.938000000000000073e-03
2.861499999999999894e-03
2.893999999999999871e-03
2.896500000000000203e-03
2.926000000000000215e-03
2.814000000000000095e-03
2.733000000000000186e-03
2.854499999999999833e-03
2.765999999999999796e-03
2.864499999999999859e-03
2.902000000000000066e-03
2.794000000000000043e-03
2.867999999999999890e-03
2.821000000000000157e-03
2.814500000000000161e-03
2.902500000000000132e-03
2.766499999999999862e-03
2.962999999999999922e-03
2.854000000000000200e-03
2.822499999999999922e-03
2.882500000000000080e-03
2.821000000000000157e-03
2.929000000000000180e-03
2.803500000000000002e-03
2.810500000000000064e-03
2.849500000000000036e-03
2.774500000000000056e-03
2.860999999999999828e-03
2.916999999999999888e-03
2.805499999999999834e-03
2.935500000000000175e-03
2.837500000000000178e-03
2.872500000000000053e-03
2.831000000000000183e-03
2.848999999999999970e-03
2.893499999999999805e-03
2.858999999999999996e-03
2.846000000000000005e-03
2.905500000000000096e-03
2.851499999999999868e-03
2.812999999999999962e-03
2.821000000000000157e-03
2.904499999999999964e-03
2.844499999999999806e-03
2.669499999999999998e-03
2.838499999999999877e-03
2.894499999999999938e-03
2.881499999999999947e-03
2.756999999999999902e-03
2.838499999999999877e-03
2.834999999999999847e-03
2.864499999999999859e-03
2.884499999999999911e-03
2.772000000000000158e-03
2.896999999999999836e-03
2.826500000000000019e-03
2.826500000000000019e-03
2.812999999999999962e-03
2.792999999999999910e-03
2.758000000000000035e-03
2.826500000000000019e-03
2.879000000000000049e-03
2.795000000000000175e-03
2.892000000000000039e-03
2.838999999999999944e-03
2.821999999999999856e-03
2.945000000000000135e-03
2.854000000000000200e-03
2.865499999999999992e-03
2.821499999999999789e-03
2.847999999999999837e-03
2.878499999999999982e-03
2.909500000000000194e-03
2.853500000000000134e-03
2.821999999999999856e-03
2.820500000000000090e-03
2.786499999999999914e-03
2.926499999999999848e-03
2.847000000000000138e-03
2.827999999999999785e-03
2.880000000000000181e-03
2.831999999999999882e-03
2.866000000000000058e-03
2.949499999999999865e-03
2.942499999999999803e-03
2.873999999999999819e-03
2.766499999999999862e-03
2.778500000000000154e-03
2.817500000000000126e-03
2.857000000000000164e-03
2.784000000000000016e-03
2.923499999999999883e-03
2.874999999999999951e-03
2.884999999999999978e-03
2.892000000000000039e-03
2.894499999999999938e-03
2.850999999999999802e-03
2.729500000000000155e-03
2.857499999999999797e-03
2.861499999999999894e-03
2.846000000000000005e-03
2.891499999999999973e-03
2.873000000000000120e-03
2.873500000000000186e-03
2.955000000000000161e-03
2.852500000000000001e-03
2.941500000000000104e-03
3.017000000000000150e-03
2.861999999999999961e-03
2.906000000000000163e-03
2.903000000000000198e-03
2.833000000000000015e-03
2.893999999999999871e-03
2.776499999999999888e-03
2.795499999999999808e-03
2.930499999999999945e-03
2.843000000000000041e-03
2.855499999999999965e-03
2.913999999999999924e-03
2.798000000000000140e-03
2.840500000000000143e-03
2.939999999999999905e-03
2.871999999999999987e-03
2.840500000000000143e-03
2.939000000000000206e-03
2.948999999999999799e-03
2.897999999999999968e-03
2.874499999999999885e-03
2.897999999999999968e-03
2.883999999999999845e-03
2.926000000000000215e-03
2.804000000000000069e-03
2.933499999999999910e-03
2.885500000000000044e-03
2.827999999999999785e-03
2.883500000000000212e-03
2.843500000000000107e-03
2.816499999999999993e-03
2.841999999999999908e-03
2.927499999999999981e-03
2.850000000000000103e-03
2.864999999999999925e-03
2.850000000000000103e-03
2.895000000000000004e-03
2.890999999999999907e-03
2.856500000000000098e-03
2.837999999999999811e-03
2.808499999999999799e-03
2.821000000000000157e-03
2.870000000000000155e-03
2.812499999999999896e-03
2.886000000000000110e-03
2.893999999999999871e-03
3.010500000000000155e-03
2.828499999999999851e-03
2.935999999999999808e-03
2.865499999999999992e-03
2.841499999999999842e-03
2.925000000000000083e-03
2.834500000000000214e-03
2.906999999999999862e-03
2.807500000000000100e-03
2.867499999999999823e-03
2.945000000000000135e-03
2.883500000000000212e-03
2.814000000000000095e-03
2.918500000000000087e-03
3.002499999999999961e-03
2.875500000000000018e-03
2.823500000000000055e-03
2.856500000000000098e-03
2.893499999999999805e-03
2.858499999999999930e-03
2.961000000000000090e-03
2.801500000000000171e-03
2.899999999999999800e-03
2.866000000000000058e-03
2.745000000000000044e-03
2.861499999999999894e-03
2.922999999999999817e-03
2.894499999999999938e-03
2.913499999999999857e-03
2.949499999999999865e-03
2.830000000000000050e-03
2.837500000000000178e-03
2.968000000000000152e-03
2.874999999999999951e-03
2.835999999999999979e-03
2.849500000000000036e-03
2.833000000000000015e-03
2.886500000000000177e-03
2.884999999999999978e-03
2.794500000000000109e-03
2.931500000000000078e-03
2.790500000000000012e-03
2.918500000000000087e-03
2.824500000000000188e-03
2.912999999999999791e-03
2.824000000000000121e-03
2.893499999999999805e-03
2.903499999999999831e-03
2.894499999999999938e-03
2.846000000000000005e-03
2.831000000000000183e-03
2.846000000000000005e-03
2.893000000000000172e-03
2.870999999999999854e-03
2.889500000000000141e-03
2.840000000000000076e-03
2.862500000000000027e-03
2.837000000000000112e-03
2.837999999999999811e-03
2.871999999999999987e-03
2.909000000000000127e-03
2.866000000000000058e-03
2.913999999999999924e-03
2.898500000000000035e-03
2.886000000000000110e-03
2.976499999999999979e-03
2.935999999999999808e-03
2.847000000000000138e-03
2.788500000000000180e-03
2.935500000000000175e-03
2.880499999999999814e-03
2.883000000000000146e-03
2.837000000000000112e-03
2.836500000000000046e-03
2.838999999999999944e-03
2.832499999999999948e-03
2.935000000000000109e-03
2.856500000000000098e-03
2.862500000000000027e-03
2.860500000000000195e-03
2.843000000000000041e-03
2.782999999999999884e-03
2.834000000000000147e-03
2.903000000000000198e-03
2.945999999999999834e-03
3.003000000000000027e-03
2.818000000000000192e-03
2.870000000000000155e-03
2.841999999999999908e-03
2.915500000000000123e-03
2.873999999999999819e-03
2.887499999999999876e-03
2.940499999999999971e-03
2.762000000000000132e-03
2.912999999999999791e-03
2.877499999999999850e-03
2.920499999999999919e-03
2.805999999999999901e-03
2.807500000000000100e-03
2.921500000000000052e-03
2.934500000000000042e-03
2.887499999999999876e-03
2.883500000000000212e-03
2.874999999999999951e-03
2.735500000000000084e-03
2.939999999999999905e-03
2.776499999999999888e-03
2.823500000000000055e-03
2.890000000000000208e-03
2.737999999999999982e-03
2.877999999999999916e-03
2.754500000000000004e-03
2.880499999999999814e-03
2.866000000000000058e-03
2.797500000000000073e-03
2.862500000000000027e-03
2.834999999999999847e-03
2.854999999999999899e-03
2.893000000000000172e-03
2.993000000000000001e-03
2.798000000000000140e-03
2.851499999999999868e-03
2.808499999999999799e-03
2.850500000000000169e-03
2.831999999999999882e-03
2.934500000000000042e-03
2.914499999999999990e-03
2.854000000000000200e-03
2.850000000000000103e-03
2.820500000000000090e-03
2.869000000000000022e-03
2.899999999999999800e-03
2.841499999999999842e-03
2.839500000000000010e-03
2.840500000000000143e-03
2.863500000000000160e-03
2.861999999999999961e-03
2.840500000000000143e-03
2.860999999999999828e-03
2.846000000000000005e-03
2.866000000000000058e-03
2.817500000000000126e-03
2.961500000000000157e-03
2.811999999999999830e-03
2.841499999999999842e-03
2.818000000000000192e-03
2.858999999999999996e-03
2.916499999999999822e-03
2.863999999999999792e-03
2.837000000000000112e-03
2.958000000000000126e-03
2.974000000000000081e-03
2.933999999999999976e-03
2.942000000000000171e-03
2.939499999999999839e-03
2.804500000000000135e-03
2.899999999999999800e-03
2.788000000000000114e-03
2.820000000000000024e-03
2.854999999999999899e-03
2.857000000000000164e-03
2.907499999999999928e-03
2.897499999999999902e-03
2.869000000000000022e-03
2.834000000000000147e-03
2.841499999999999842e-03
2.886999999999999809e-03
2.877499999999999850e-03
2.794500000000000109e-03
2.842499999999999975e-03
2.955499999999999794e-03
2.831999999999999882e-03
2.892000000000000039e-03
2.825499999999999887e-03
2.812499999999999896e-03
2.918000000000000021e-03
2.882500000000000080e-03
2.870999999999999854e-03
2.984999999999999806e-03
2.873999999999999819e-03
2.800500000000000038e-03
2.862500000000000027e-03
2.834999999999999847e-03
2.841499999999999842e-03
2.784500000000000083e-03
2.916999999999999888e-03
2.908500000000000061e-03
2.861499999999999894e-03
2.788500000000000180e-03
2.860999999999999828e-03
2.818499999999999825e-03
2.907499999999999928e-03
2.841999999999999908e-03
2.882500000000000080e-03
2.870499999999999788e-03
2.804000000000000069e-03
2.955499999999999794e-03
2.871999999999999987e-03
2.920499999999999919e-03
2.834999999999999847e-03
2.809499999999999931e-03
2.883500000000000212e-03
2.912999999999999791e-03
2.795999999999999874e-03
2.875500000000000018e-03
2.861499999999999894e-03
2.945500000000000201e-03
2.851499999999999868e-03
2.881499999999999947e-03
2.834999999999999847e-03
2.958999999999999825e-03
2.888500000000000009e-03
2.828499999999999851e-03
2.890000000000000208e-03
2.959499999999999891e-03
2.821499999999999789e-03
2.813500000000000029e-03
2.783499999999999950e-03
2.952000000000000197e-03
2.926000000000000215e-03
2.765500000000000163e-03
2.880000000000000181e-03
2.789499999999999879e-03
2.843500000000000107e-03
2.881499999999999947e-03
2.951000000000000064e-03
2.788500000000000180e-03
2.947500000000000033e-03
2.872500000000000053e-03
2.819499999999999958e-03
2.871999999999999987e-03
2.843500000000000107e-03
2.948999999999999799e-03
2.906000000000000163e-03
2.755000000000000070e-03
2.899999999999999800e-03
2.863500000000000160e-03
2.930499999999999945e-03
2.954000000000000029e-03
2.867999999999999890e-03
2.853500000000000134e-03
2.696000000000000046e-03
2.835999999999999979e-03
2.856500000000000098e-03
2.817000000000000060e-03
2.778000000000000087e-03
2.901499999999999999e-03
2.784500000000000083e-03
2.888500000000000009e-03
2.848499999999999904e-03
2.874999999999999951e-03
2.889000000000000075e-03
2.824500000000000188e-03
2.798000000000000140e-03
2.827999999999999785e-03
2.886500000000000177e-03
2.844999999999999873e-03
2.871999999999999987e-03
2.873999999999999819e-03
2.856500000000000098e-03
2.904499999999999964e-03
2.762999999999999831e-03
2.909999999999999826e-03
2.899000000000000101e-03
2.896000000000000137e-03
2.908500000000000061e-03
2.811500000000000197e-03
2.887499999999999876e-03
2.967000000000000019e-03
2.870499999999999788e-03
2.866500000000000124e-03
2.887999999999999942e-03
2.944500000000000069e-03
2.853500000000000134e-03
2.839500000000000010e-03
2.906999999999999862e-03
2.838999999999999944e-03
3.020000000000000115e-03
2.832499999999999948e-03
2.850000000000000103e-03
2.891499999999999973e-03
2.884499999999999911e-03
2.846000000000000005e-03
2.902000000000000066e-03
2.903999999999999897e-03
2.843000000000000041e-03
2.844000000000000174e-03
2.903000000000000198e-03
2.768000000000000061e-03
2.865499999999999992e-03
2.838499999999999877e-03
2.857499999999999797e-03
2.850999999999999802e-03
2.883000000000000146e-03
2.827999999999999785e-03
2.831999999999999882e-03
2.863500000000000160e-03
2.860000000000000129e-03
2.833000000000000015e-03
2.861999999999999961e-03
2.893000000000000172e-03
2.762000000000000132e-03
2.752999999999999805e-03
2.830000000000000050e-03
2.814999999999999794e-03
2.831499999999999816e-03
2.768500000000000127e-03
2.903000000000000198e-03
2.857999999999999863e-03
2.886999999999999809e-03
2.847000000000000138e-03
2.850500000000000169e-03
2.978499999999999811e-03
2.807500000000000100e-03
2.952000000000000197e-03
2.859500000000000063e-03
2.858999999999999996e-03
2.841000000000000209e-03
2.876999999999999783e-03
2.812999999999999962e-03
2.816499999999999993e-03
2.946999999999999967e-03
2.805499999999999834e-03
2.877499999999999850e-03
2.823500000000000055e-03
2.800500000000000038e-03
2.879000000000000049e-03
2.899999999999999800e-03
2.871499999999999921e-03
2.807500000000000100e-03
2.837000000000000112e-03
2.867499999999999823e-03
2.815499999999999860e-03
2.830500000000000117e-03
2.887999999999999942e-03
2.854499999999999833e-03
2.840000000000000076e-03
2.798500000000000206e-03
2.878499999999999982e-03
2.874999999999999951e-03
2.877999999999999916e-03
2.883500000000000212e-03
2.782999999999999884e-03
2.795499999999999808e-03
2.871999999999999987e-03
2.861999999999999961e-03
2.885500000000000044e-03
2.853000000000000067e-03
2.890499999999999840e-03
2.910999999999999959e-03
2.870000000000000155e-03
2.778999999999999786e-03
2.844000000000000174e-03
2.919499999999999786e-03
2.837500000000000178e-03
2.803500000000000002e-03
2.807500000000000100e-03
2.799499999999999905e-03
2.846500000000000072e-03
2.820500000000000090e-03
2.847000000000000138e-03
2.828499999999999851e-03
2.879500000000000115e-03
2.903000000000000198e-03
2.836500000000000046e-03
2.818000000000000192e-03
2.893000000000000172e-03
2.903999999999999897e-03
2.861499999999999894e-03
2.880999999999999880e-03
2.894499999999999938e-03
2.936499999999999874e-03
2.831000000000000183e-03
2.862500000000000027e-03
2.849500000000000036e-03
2.840500000000000143e-03
2.840500000000000143e-03
2.879000000000000049e-03
2.886500000000000177e-03
2.879500000000000115e-03
2.958000000000000126e-03
2.954500000000000095e-03
2.909999999999999826e-03
2.863999999999999792e-03
2.872500000000000053e-03
2.867000000000000191e-03
2.811500000000000197e-03
2.893999999999999871e-03
2.862500000000000027e-03
2.819499999999999958e-03
2.818000000000000192e-03
2.918000000000000021e-03
2.968000000000000152e-03
2.824000000000000121e-03
2.872500000000000053e-03
2.891499999999999973e-03
2.827000000000000086e-03
2.935000000000000109e-03
2.955499999999999794e-03
2.916000000000000189e-03
2.858999999999999996e-03
2.819499999999999958e-03
2.948999999999999799e-03
2.877499999999999850e-03
2.822499999999999922e-03
2.963499999999999988e-03
2.835999999999999979e-03
2.886999999999999809e-03
2.838499999999999877e-03
2.971000000000000116e-03
2.903999999999999897e-03
2.896500000000000203e-03
2.891499999999999973e-03
2.852500000000000001e-03
2.875500000000000018e-03
2.828999999999999918e-03
2.860999999999999828e-03
2.804500000000000135e-03
2.895000000000000004e-03
2.939499999999999839e-03
2.848999999999999970e-03
2.932500000000000211e-03
2.820500000000000090e-03
2.785000000000000149e-03
2.850000000000000103e-03
2.890000000000000208e-03
2.790500000000000012e-03
2.804000000000000069e-03
2.865499999999999992e-03
2.905500000000000096e-03
2.854999999999999899e-03
2.899500000000000167e-03
2.848499999999999904e-03
2.821999999999999856e-03
2.813500000000000029e-03
2.898500000000000035e-03
2.775999999999999822e-03
2.898500000000000035e-03
2.803500000000000002e-03
2.886500000000000177e-03
2.866000000000000058e-03
2.988999999999999903e-03
2.883000000000000146e-03
2.794000000000000043e-03
2.828999999999999918e-03
2.811999999999999830e-03
2.833000000000000015e-03
2.865499999999999992e-03
2.881499999999999947e-03
2.862500000000000027e-03
2.821000000000000157e-03
2.903000000000000198e-03
2.841499999999999842e-03
2.838999999999999944e-03
2.861999999999999961e-03
2.950499999999999998e-03
2.909999999999999826e-03
2.817000000000000060e-03
2.901499999999999999e-03
2.874999999999999951e-03
2.944500000000000069e-03
2.756499999999999836e-03
2.794000000000000043e-03
2.882500000000000080e-03
2.807500000000000100e-03
2.890999999999999907e-03
2.952000000000000197e-03
3.008499999999999890e-03
2.798000000000000140e-03
2.857999999999999863e-03
2.822499999999999922e-03
2.814999999999999794e-03
2.833500000000000081e-03
2.890499999999999840e-03
2.850000000000000103e-03
2.793499999999999976e-03
2.884499999999999911e-03
2.934500000000000042e-03
3.029000000000000008e-03
2.900499999999999867e-03
2.865499999999999992e-03
2.903999999999999897e-03
2.830500000000000117e-03
2.910499999999999893e-03
2.867999999999999890e-03
2.790500000000000012e-03
2.919999999999999853e-03
2.851499999999999868e-03
2.841999999999999908e-03
2.874999999999999951e-03
2.889500000000000141e-03
2.933499999999999910e-03
2.866000000000000058e-03
2.784000000000000016e-03
2.893499999999999805e-03
2.880499999999999814e-03
2.805000000000000202e-03
2.958500000000000192e-03
2.856000000000000032e-03
2.938000000000000073e-03
2.906499999999999796e-03
2.917499999999999954e-03
2.805499999999999834e-03
2.918500000000000087e-03
2.879000000000000049e-03
2.890000000000000208e-03
2.945999999999999834e-03
2.925000000000000083e-03
2.895000000000000004e-03
2.814500000000000161e-03
2.843000000000000041e-03
2.888500000000000009e-03
2.907499999999999928e-03
2.812999999999999962e-03
2.778000000000000087e-03
2.915000000000000056e-03
2.861499999999999894e-03
2.870499999999999788e-03
2.995999999999999965e-03
2.814000000000000095e-03
2.984999999999999806e-03
2.798999999999999839e-03
2.857999999999999863e-03
2.860500000000000195e-03
2.745000000000000044e-03
2.811500000000000197e-03
2.801999999999999803e-03
2.819499999999999958e-03
2.802999999999999936e-03
2.884999999999999978e-03
2.801000000000000104e-03
2.919499999999999786e-03
2.847500000000000205e-03
2.870499999999999788e-03
2.873999999999999819e-03
2.914499999999999990e-03
2.841499999999999842e-03
2.807000000000000033e-03
2.948500000000000166e-03
2.887999999999999942e-03
2.919999999999999853e-03
2.860999999999999828e-03
2.870000000000000155e-03
2.933999999999999976e-03
2.913499999999999857e-03
2.854999999999999899e-03
2.841999999999999908e-03
2.828999999999999918e-03
2.925000000000000083e-03
2.836500000000000046e-03
2.864499999999999859e-03
2.814999999999999794e-03
2.887999999999999942e-03
2.881499999999999947e-03
2.905000000000000030e-03
2.893000000000000172e-03
2.861499999999999894e-03
2.844999999999999873e-03
2.773499999999999924e-03
2.897499999999999902e-03
2.827999999999999785e-03
2.873999999999999819e-03
2.824500000000000188e-03
2.792999999999999910e-03
2.789999999999999945e-03
2.863500000000000160e-03
2.857999999999999863e-03
2.896999999999999836e-03
2.844000000000000174e-03
2.825999999999999953e-03
2.973500000000000015e-03
2.824999999999999820e-03
2.836500000000000046e-03
2.895000000000000004e-03
2.822499999999999922e-03
2.918000000000000021e-03
2.864999999999999925e-03
2.848499999999999904e-03
2.903000000000000198e-03
2.974000000000000081e-03
2.854000000000000200e-03
2.865499999999999992e-03
2.840500000000000143e-03
2.791000000000000078e-03
2.893999999999999871e-03
2.837000000000000112e-03
2.874999999999999951e-03
2.896500000000000203e-03
2.850999999999999802e-03
2.824500000000000188e-03
2.880999999999999880e-03
2.857999999999999863e-03
2.874499999999999885e-03
2.790500000000000012e-03
2.841999999999999908e-03
2.811500000000000197e-03
2.958000000000000126e-03
2.833500000000000081e-03
2.801500000000000171e-03
2.926000000000000215e-03
2.828999999999999918e-03
2.776499999999999888e-03
2.944500000000000069e-03
2.893499999999999805e-03
2.845499999999999939e-03
2.792999999999999910e-03
2.829499999999999984e-03
2.882000000000000013e-03
2.830000000000000050e-03
2.948999999999999799e-03
2.874499999999999885e-03
2.869500000000000089e-03
2.820500000000000090e-03
3.024000000000000212e-03
2.801000000000000104e-03
2.896999999999999836e-03
2.821499999999999789e-03
2.864999999999999925e-03
2.906499999999999796e-03
2.876500000000000151e-03
2.952999999999999896e-03
2.893000000000000172e-03
2.759000000000000168e-03
2.811999999999999830e-03
2.959999999999999958e-03
2.867000000000000191e-03
2.856500000000000098e-03
2.893999999999999871e-03
2.772000000000000158e-03
2.890499999999999840e-03
2.821999999999999856e-03
2.883000000000000146e-03
2.946499999999999900e-03
2.857999999999999863e-03
2.827999999999999785e-03
2.899999999999999800e-03
2.821999999999999856e-03
2.863500000000000160e-03
2.926999999999999914e-03
2.785000000000000149e-03
2.870999999999999854e-03
2.895000000000000004e-03
2.870000000000000155e-03
2.911500000000000025e-03
2.854000000000000200e-03
2.844999999999999873e-03
2.845499999999999939e-03
2.837500000000000178e-03
2.870999999999999854e-03
2.843500000000000107e-03
2.909999999999999826e-03
2.786999999999999981e-03
2.746499999999999810e-03
2.848499999999999904e-03
2.912999999999999791e-03
2.829499999999999984e-03
2.854000000000000200e-03
2.823500000000000055e-03
2.842499999999999975e-03
2.942000000000000171e-03
2.862500000000000027e-03
2.874999999999999951e-03
2.850000000000000103e-03
3.070999999999999945e-03
2.801500000000000171e-03
2.874999999999999951e-03
2.863000000000000093e-03
2.874499999999999885e-03
2.830500000000000117e-03
3.020000000000000115e-03
2.799999999999999972e-03
2.968999999999999851e-03
2.841499999999999842e-03
2.896500000000000203e-03
2.818999999999999891e-03
2.888500000000000009e-03
2.778500000000000154e-03
2.854999999999999899e-03
2.988000000000000204e-03
2.827000000000000086e-03
2.909000000000000127e-03
2.814999999999999794e-03
2.919999999999999853e-03
2.830000000000000050e-03
2.899000000000000101e-03
2.839500000000000010e-03
2.843000000000000041e-03
2.867999999999999890e-03
2.911500000000000025e-03
2.868499999999999956e-03
2.837500000000000178e-03
2.859500000000000063e-03
2.880000000000000181e-03
2.854000000000000200e-03
2.846000000000000005e-03
2.831499999999999816e-03
2.876999999999999783e-03
2.915000000000000056e-03
2.907999999999999995e-03
2.811999999999999830e-03
2.717499999999999864e-03
2.857999999999999863e-03
2.890499999999999840e-03
2.853500000000000134e-03
2.914499999999999990e-03
2.911500000000000025e-03
2.893499999999999805e-03
2.866000000000000058e-03
2.817000000000000060e-03
2.935500000000000175e-03
2.879500000000000115e-03
2.904499999999999964e-03
2.847999999999999837e-03
2.838999999999999944e-03
2.942000000000000171e-03
2.864999999999999925e-03
2.811500000000000197e-03
2.767499999999999995e-03
2.960500000000000024e-03
2.831999999999999882e-03
2.831999999999999882e-03
2.837999999999999811e-03
2.831000000000000183e-03
2.850999999999999802e-03
2.854499999999999833e-03
2.915000000000000056e-03
2.919000000000000154e-03
2.892500000000000106e-03
2.828999999999999918e-03
2.908500000000000061e-03
2.811999999999999830e-03
2.892500000000000106e-03
2.932000000000000144e-03
3.002499999999999961e-03
2.811999999999999830e-03
2.821499999999999789e-03
2.854999999999999899e-03
2.853000000000000067e-03
2.879000000000000049e-03
2.915000000000000056e-03
2.925500000000000149e-03
2.848499999999999904e-03
2.879500000000000115e-03
2.869500000000000089e-03
2.884999999999999978e-03
2.834500000000000214e-03
2.951500000000000130e-03
2.893000000000000172e-03
2.890000000000000208e-03
2.851999999999999934e-03
2.853500000000000134e-03
2.958999999999999825e-03
2.873999999999999819e-03
2.870000000000000155e-03
2.823500000000000055e-03
2.860999999999999828e-03
2.836500000000000046e-03
2.837500000000000178e-03
2.886500000000000177e-03
2.804000000000000069e-03
2.900999999999999933e-03
2.874999999999999951e-03
2.936999999999999941e-03
2.822999999999999989e-03
2.871999999999999987e-03
2.827000000000000086e-03
2.873999999999999819e-03
2.857999999999999863e-03
2.880000000000000181e-03
2.905000000000000030e-03
2.857000000000000164e-03
2.841499999999999842e-03
2.857499999999999797e-03
2.927499999999999981e-03
2.791000000000000078e-03
2.862500000000000027e-03
2.926000000000000215e-03
2.900999999999999933e-03
2.907499999999999928e-03
2.863500000000000160e-03
2.833500000000000081e-03
2.818000000000000192e-03
2.817500000000000126e-03
2.768500000000000127e-03
2.876000000000000084e-03
2.895500000000000070e-03
2.802499999999999870e-03
2.823500000000000055e-03
2.854000000000000200e-03
2.828999999999999918e-03
2.860000000000000129e-03
2.809999999999999998e-03
2.870000000000000155e-03
2.833000000000000015e-03
2.854499999999999833e-03
2.839500000000000010e-03
2.905500000000000096e-03
2.825499999999999887e-03
2.847500000000000205e-03
2.797000000000000007e-03
2.938000000000000073e-03
2.916499999999999822e-03
2.907999999999999995e-03
2.910999999999999959e-03
2.913999999999999924e-03
2.933499999999999910e-03
2.929999999999999879e-03
2.017000000000000130e-03
1.698000000000000074e-03
1.936999999999999920e-03
2.041999999999999978e-03
1.618999999999999996e-03
1.931999999999999907e-03
1.991500000000000214e-03
1.683000000000000034e-03
1.997000000000000077e-03
1.649999999999999991e-03
1.337499999999999930e-03
1.735500000000000063e-03
1.966999999999999998e-03
1.644999999999999978e-03
1.990500000000000082e-03
2.853000000000000067e-03
2.854499999999999833e-03
2.856000000000000032e-03
2.863999999999999792e-03
2.846000000000000005e-03
2.827999999999999785e-03
2.870000000000000155e-03
2.821499999999999789e-03
2.907999999999999995e-03
2.840500000000000143e-03
2.871499999999999921e-03
2.785999999999999848e-03
2.934500000000000042e-03
2.903499999999999831e-03
2.870999999999999854e-03
2.883500000000000212e-03
2.883500000000000212e-03
2.907499999999999928e-03
2.883500000000000212e-03
2.834500000000000214e-03
2.870999999999999854e-03
2.899000000000000101e-03
2.867999999999999890e-03
2.915500000000000123e-03
2.864999999999999925e-03
2.785999999999999848e-03
2.820000000000000024e-03
2.792000000000000211e-03
2.872500000000000053e-03
2.867499999999999823e-03
2.876000000000000084e-03
2.798500000000000206e-03
2.884499999999999911e-03
2.854999999999999899e-03
2.893499999999999805e-03
2.844499999999999806e-03
2.854000000000000200e-03
2.900499999999999867e-03
2.782999999999999884e-03
2.845499999999999939e-03
2.847999999999999837e-03
2.882000000000000013e-03
2.830500000000000117e-03
2.890499999999999840e-03
2.932000000000000144e-03
2.895000000000000004e-03
2.825499999999999887e-03
2.841499999999999842e-03
2.815499999999999860e-03
2.906000000000000163e-03
2.815999999999999927e-03
2.870999999999999854e-03
2.868499999999999956e-03
2.828499999999999851e-03
2.825999999999999953e-03
2.846000000000000005e-03
2.815999999999999927e-03
2.880499999999999814e-03
2.880499999999999814e-03
2.776499999999999888e-03
2.850999999999999802e-03
2.854499999999999833e-03
2.929499999999999812e-03
2.883999999999999845e-03
2.884999999999999978e-03
2.883999999999999845e-03
2.877499999999999850e-03
2.808000000000000166e-03
2.922999999999999817e-03
2.863999999999999792e-03
2.892500000000000106e-03
2.794500000000000109e-03
2.785500000000000215e-03
2.834500000000000214e-03
2.777500000000000021e-03
2.899500000000000167e-03
2.771500000000000092e-03
2.817000000000000060e-03
2.839500000000000010e-03
2.873500000000000186e-03
2.762999999999999831e-03
2.833500000000000081e-03
2.763999999999999964e-03
2.889000000000000075e-03
2.909500000000000194e-03
2.869500000000000089e-03
2.895000000000000004e-03
2.896500000000000203e-03
2.901499999999999999e-03
2.837500000000000178e-03
2.835999999999999979e-03
2.912000000000000092e-03
2.906000000000000163e-03
2.831000000000000183e-03
2.883500000000000212e-03
2.869000000000000022e-03
2.892000000000000039e-03
2.870999999999999854e-03
2.845499999999999939e-03
2.949999999999999931e-03
2.886000000000000110e-03
2.879000000000000049e-03
2.928500000000000113e-03
2.834999999999999847e-03
2.803500000000000002e-03
2.890499999999999840e-03
2.822999999999999989e-03
2.844999999999999873e-03
2.886999999999999809e-03
2.982499999999999908e-03
2.856500000000000098e-03
2.890000000000000208e-03
2.831499999999999816e-03
2.932000000000000144e-03
2.963499999999999988e-03
2.876000000000000084e-03
2.928000000000000047e-03
2.838999999999999944e-03
2.840500000000000143e-03
2.897499999999999902e-03
2.870999999999999854e-03
