
opc: mb, sraf: ml
MB_SRAF_OUT_Clip_16	0.00000000
sum: 0.000000
out.testrandomclip_2000_2000_560_70	0.00000000	0.00000000	0.00000000	0.00000000	0.00000000	0.00000000	0.00000000	0.00000000	0.00000000	0.00000000	0.00000000	0.00000000	0.00000000	0.00000000	0.00000000	0.00000000
sum: 0.000000
MB_SRAF_OUT_Clip_169	0.00000000	0.00000000	0.00000000	0.00000000	0.00000000
sum: 0.000000
MB_SRAF_OUT_Clip_152	0.00000000	0.00000000	0.00000000
sum: 0.000000
MB_SRAF_OUT_Clip_83	0.00000000	0.00000000	0.00000000
sum: 0.000000
MB_SRAF_OUT_Clip_15	0.00000000	0.00000000	0.00000000	0.00000000	0.00000000	0.00000000	0.00000000	0.00000000	0.00000000
sum: 0.000000
MB_SRAF_OUT_Clip_100	0.00000000	0.00000000	0.00000000	0.00000000	0.00000000
sum: 0.000000
