# Calibre WORKbench version 2010.3_37.26 i386 Linux
# Model: test3
# Type: CTR
# Saved: Sun 12 Jan 2014 01:54:15 PM CST CST
# User: matsunawa
1 1 0
0.184724 
0.0 1.2 0.0 6.0 0 1000 0.0 1.1
isLogSlopeModel 1
epeBias 0
limitThreshold 1
sampleSpacing 0.04
