
opc: mb, sraf: no
out.testrandomclip_6000_6000_560_70	0.00337650	0.00331600	0.00332000	0.00341900	0.00337050	0.00328500	0.00334050	0.00333650	0.00331300	0.00327700	0.00346600	0.00328200	0.00339850	0.00323750	0.00331600	0.00325350	0.00335850	0.00323750	0.00322550	0.00341350	0.00336250	0.00333300	0.00349450	0.00330400	0.00333300	0.00328850	0.00325500	0.00335700	0.00336650	0.00337000	0.00340100	0.00329200	0.00337650	0.00328150	0.00335600	0.00333100	0.00330400	0.00324900	0.00322400	0.00345800	0.00336800	0.00334950	0.00333700	0.00333850	0.00332950	0.00333400	0.00337800	0.00339800	0.00327400	0.00343350	0.00331200	0.00323650	0.00332450	0.00326600	0.00336650	0.00334400	0.00335550	0.00325200	0.00341500	0.00320250	0.00348150	0.00327400	0.00328350	0.00335750	0.00329250	0.00347000	0.00326350	0.00331600	0.00325750	0.00322000	0.00349350	0.00324400	0.00322550	0.00322450	0.00344150	0.00331950	0.00329500	0.00336800	0.00334050	0.00329600	0.00330500	0.00331350	0.00347550	0.00335200	0.00329200	0.00341250	0.00331850	0.00337650	0.00328000	0.00343450	0.00330800	0.00338450	0.00329100	0.00338650	0.00335900	0.00328650	0.00336200	0.00328500	0.00325900	0.00336100	0.00338800	0.00328200	0.00335100	0.00331150	0.00324250	0.00339600	0.00329150	0.00307800	0.00326050	0.00340750	0.00341600	0.00336300	0.00330800	0.00337100	0.00329850	0.00333450	0.00329550	0.00342200	0.00325850	0.00332100	0.00335900
sum: 0.402956
