(I) commands = ./bin/mask_opt -param_json ./test/param_sraf_ispd15.json
(I) reading input parameter json ./test/param_sraf_ispd15.json
(I) reading input gdsii ./gds/train/MB_SRAF_OUT_Clip_15.gds
(I) initialize opt region takes 0.000000 seconds CPU, 0.000006 seconds real
(I) initialize image bbox takes 0.000000 seconds CPU, 0.000005 seconds real
(I) initialize pixel image
(I) Image grid size (1360 x 1360)
(I) initialize pixel image takes 0.020000 seconds CPU, 0.004133 seconds real
(I) initialize valid SRAF region
	fill in SRAF region
	unfill OPC region
(I) initialize valid SRAF region takes 0.000000 seconds CPU, 0.000570 seconds real
(I) initialize golden SRAF data with area threshold: 400
(I) initialize training label data from 0 to 3248
(I) initialize golden SRAF data takes 0.000000 seconds CPU, 0.000186 seconds real
(I) feature extraction for training data
(I) 	feature extaction in mode CCAS: minRadius 100, ringSpace: 15, ringNum 33, circleSR: 32
(I) feature extraction done with size: 3248
(I) initialize feature vectors takes 0.230000 seconds CPU, 0.078060 seconds real
(I) reading input gdsii ./gds/train/out.trainrandomclip_1500_1500_420_70.gds
(I) initialize opt region takes 0.000000 seconds CPU, 0.000004 seconds real
(I) initialize image bbox takes 0.000000 seconds CPU, 0.000002 seconds real
(I) initialize pixel image
(I) Image grid size (2360 x 2360)
(I) initialize pixel image takes 0.000000 seconds CPU, 0.001295 seconds real
(I) initialize valid SRAF region
	fill in SRAF region
	unfill OPC region
(I) initialize valid SRAF region takes 0.020000 seconds CPU, 0.000953 seconds real
(I) initialize golden SRAF data with area threshold: 400
(I) initialize training label data from 3248 to 13378
(I) initialize golden SRAF data takes 0.000000 seconds CPU, 0.000605 seconds real
(I) feature extraction for training data
(I) 	feature extaction in mode CCAS: minRadius 100, ringSpace: 15, ringNum 33, circleSR: 32
(I) feature extraction done with size: 13378
(I) initialize feature vectors takes 0.610000 seconds CPU, 0.174182 seconds real
(I) Learning model with support vector machine
	 model construction from model file
create SVcsc from SV
matrix 844x1056 with 15725 nonzero elements
(I) model construction takes 0.010000 seconds CPU, 0.004121 seconds real
(I) model prediction for training data in progress
(I) model prediction takes 0.070000 seconds CPU, 0.009596 seconds real
(I) prediction error analysis for training data (13378)	rmse: 0.1268, overall accuracy: 0.9839, True Positive Rate (TPR): 1.0000, False Negative Rate (FNR): 0.0000, False Positive Rate (FPR): 0.0173, True Negative Rate: 0.9827
(I) error analysis takes 0.010000 seconds CPU, 0.001349 seconds real
(I) reading input gdsii ./gds/predict/out.testrandomclip_5000_5000_560_70.gds
(I) initialize opt region takes 0.000000 seconds CPU, 0.000012 seconds real
(I) initialize image bbox takes 0.000000 seconds CPU, 0.000002 seconds real
(I) initialize pixel image
(I) Image grid size (5640 x 5640)
(I) initialize pixel image takes 0.020000 seconds CPU, 0.006879 seconds real
(I) initialize valid SRAF region
	fill in SRAF region
	unfill OPC region
(I) initialize valid SRAF region takes 0.010000 seconds CPU, 0.008243 seconds real
(I) initialize golden SRAF data with area threshold: 400
(I) initialize testing label data from 0 to 240994
(I) initialize golden SRAF data takes 0.010000 seconds CPU, 0.007252 seconds real
(I) feature extraction for testing data
(I) 	feature extaction in mode CCAS: minRadius 100, ringSpace: 15, ringNum 33, circleSR: 32
(I) feature extraction done with size: 240994
(I) initialize feature vectors takes 25.710000 seconds CPU, 4.050566 seconds real
(I) model prediction for testing data in progress
(I) model prediction takes 0.730000 seconds CPU, 0.131743 seconds real
(I) prediction error analysis for testing data (240994)	rmse: 0.3773, overall accuracy: 0.8577, True Positive Rate (TPR): 0.2504, False Negative Rate (FNR): 0.7496, False Positive Rate (FPR): 0.0880, True Negative Rate: 0.9120
(I) error analysis takes 0.030000 seconds CPU, 0.026228 seconds real
(I) write output gdsii ./result/out.testrandomclip_5000_5000_560_70_sraf.gds
(I) generate SRAF based on prediction
(I) write image bounding box
(I) testing SRAF generation takes 26.570000 seconds CPU, 4.291499 seconds real

real	0m4.577s
user	0m27.426s
sys	0m0.140s
