(I) commands = ./bin/mask_opt -param_json ./test/param_sraf_ispd15.json
(I) reading input parameter json ./test/param_sraf_ispd15.json
(I) reading input gdsii ./gds/train/MB_SRAF_OUT_Clip_15.gds
(I) initialize opt region takes 0.000000 seconds CPU, 0.000006 seconds real
(I) initialize image bbox takes 0.000000 seconds CPU, 0.000005 seconds real
(I) initialize pixel image
(I) Image grid size (1360 x 1360)
(I) initialize pixel image takes 0.040000 seconds CPU, 0.007229 seconds real
(I) initialize valid SRAF region
	fill in SRAF region
	unfill OPC region
(I) initialize valid SRAF region takes 0.020000 seconds CPU, 0.003480 seconds real
(I) initialize golden SRAF data with area threshold: 400
(I) initialize training label data from 0 to 3248
(I) initialize golden SRAF data takes 0.000000 seconds CPU, 0.000378 seconds real
(I) feature extraction for training data
(I) 	feature extaction in mode CCAS: minRadius 100, ringSpace: 15, ringNum 33, circleSR: 32
(I) feature extraction done with size: 3248
(I) initialize feature vectors takes 0.230000 seconds CPU, 0.079352 seconds real
(I) reading input gdsii ./gds/train/out.trainrandomclip_1500_1500_420_70.gds
(I) initialize opt region takes 0.000000 seconds CPU, 0.000004 seconds real
(I) initialize image bbox takes 0.000000 seconds CPU, 0.000002 seconds real
(I) initialize pixel image
(I) Image grid size (2360 x 2360)
(I) initialize pixel image takes 0.020000 seconds CPU, 0.003249 seconds real
(I) initialize valid SRAF region
	fill in SRAF region
	unfill OPC region
(I) initialize valid SRAF region takes 0.010000 seconds CPU, 0.000954 seconds real
(I) initialize golden SRAF data with area threshold: 400
(I) initialize training label data from 3248 to 13378
(I) initialize golden SRAF data takes 0.010000 seconds CPU, 0.000617 seconds real
(I) feature extraction for training data
(I) 	feature extaction in mode CCAS: minRadius 100, ringSpace: 15, ringNum 33, circleSR: 32
(I) feature extraction done with size: 13378
(I) initialize feature vectors takes 0.640000 seconds CPU, 0.174633 seconds real
(I) Learning model with support vector machine
	 model construction from model file
create SVcsc from SV
matrix 844x1056 with 15725 nonzero elements
(I) model construction takes 0.020000 seconds CPU, 0.005718 seconds real
(I) model prediction for training data in progress
(I) model prediction takes 0.050000 seconds CPU, 0.010261 seconds real
(I) prediction error analysis for training data (13378)	rmse: 0.1268, overall accuracy: 0.9839, True Positive Rate (TPR): 1.0000, False Negative Rate (FNR): 0.0000, False Positive Rate (FPR): 0.0173, True Negative Rate: 0.9827
(I) error analysis takes 0.010000 seconds CPU, 0.001294 seconds real
(I) reading input gdsii ./gds/predict/out.testrandomclip_2000_2000_560_70.gds
(I) initialize opt region takes 0.000000 seconds CPU, 0.000003 seconds real
(I) initialize image bbox takes 0.000000 seconds CPU, 0.000001 seconds real
(I) initialize pixel image
(I) Image grid size (2760 x 2760)
(I) initialize pixel image takes 0.000000 seconds CPU, 0.000693 seconds real
(I) initialize valid SRAF region
	fill in SRAF region
	unfill OPC region
(I) initialize valid SRAF region takes 0.010000 seconds CPU, 0.002179 seconds real
(I) initialize golden SRAF data with area threshold: 400
(I) initialize testing label data from 0 to 57895
(I) initialize golden SRAF data takes 0.000000 seconds CPU, 0.001943 seconds real
(I) feature extraction for testing data
(I) 	feature extaction in mode CCAS: minRadius 100, ringSpace: 15, ringNum 33, circleSR: 32
(I) feature extraction done with size: 57895
(I) initialize feature vectors takes 5.530000 seconds CPU, 0.971342 seconds real
(I) model prediction for testing data in progress
(I) model prediction takes 0.180000 seconds CPU, 0.027318 seconds real
(I) prediction error analysis for testing data (57895)	rmse: 0.3408, overall accuracy: 0.8839, True Positive Rate (TPR): 0.3451, False Negative Rate (FNR): 0.6549, False Positive Rate (FPR): 0.0733, True Negative Rate: 0.9267
(I) error analysis takes 0.010000 seconds CPU, 0.005731 seconds real
(I) write output gdsii ./result/out.testrandomclip_2000_2000_560_70_sraf.gds
(I) generate SRAF based on prediction
(I) write image bounding box
(I) testing SRAF generation takes 5.750000 seconds CPU, 1.023980 seconds real

real	0m1.319s
user	0m6.780s
sys	0m0.036s
